cds-AQZ88914.1	dnaA	52
cds-AQZ88915.1	dnaN	128
cds-AQZ88916.1	yaaA	4
cds-AQZ88917.1	recF	821
cds-AQZ88918.1	yaaB	10
cds-AQZ88919.1	gyrB	602
cds-AQZ88920.1	gyrA	407
cds-AQZ88921.1	yaaC	3
cds-AQZ88922.1	guaB	281
cds-AQZ88923.1	dacA	46
cds-AQZ88924.1	yaaD	655
cds-AQZ88925.1	yaaE	126
cds-AQZ88926.1	serS	91
cds-AQZ88927.1	dck	13
cds-AQZ88928.1	dgk	56
cds-AQZ88929.1	yaaH	4915
cds-AQZ88930.1	yaaI	7
cds-AQZ88931.1	tadA	71
cds-AQZ88932.1	dnaX	369
cds-AQZ88933.1	yaaK	0
cds-AQZ88934.1	recR	126
cds-AQZ88935.1	yaaL	16
cds-AQZ88936.1	bofA	39
cds-AQZ88937.1	csfB	1
cds-AQZ88938.1	xpaC	2
cds-AQZ88939.1	yaaN	5
cds-AQZ88940.1	yaaO	176
cds-AQZ88941.1	tmk	4
cds-AQZ88942.1	yaaQ	3
cds-AQZ88943.1	yaaR	2
cds-AQZ88944.1	holB	37
cds-AQZ88945.1	yaaT	15
cds-AQZ88946.1	yabA	3
cds-AQZ88947.1	yabB	47
cds-AQZ88948.1	yazA	3
cds-AQZ88949.1	yabC	16
cds-AQZ88950.1	abrB	6
cds-AQZ88951.1	metS	114
cds-AQZ88952.1	yabD	7
cds-AQZ88953.1	yabE	509
cds-AQZ88954.1	rnmV	10
cds-AQZ88955.1	ksgA	52
cds-AQZ88956.1	yabG	49
cds-AQZ88957.1	veg	975
cds-AQZ88958.1	sspF	478
cds-AQZ88959.1	ipk	293
cds-AQZ88960.1	purR	786
cds-AQZ88961.1	yabJ	1012
cds-AQZ88962.1	spoVG	932
cds-AQZ88963.1	glmU	35
cds-AQZ88964.1	prs	29
cds-AQZ88965.1	ctc	8604
cds-AQZ88966.1	pth	48
cds-AQZ88967.1	yabK	10
cds-AQZ88968.1	mfd	1076
cds-AQZ88969.1	spoVT	169
cds-AQZ88970.1	yabM	101
cds-AQZ88971.1	yabN	120
cds-AQZ88972.1	yabO	0
cds-AQZ88973.1	yabP	29
cds-AQZ88974.1	yabQ	71
cds-AQZ88975.1	divIC	37
cds-AQZ88976.1	yabR	38
cds-AQZ88977.1	spoIIE	3561
cds-AQZ88978.1	yabS	118
cds-AQZ88979.1	yabT	116
cds-AQZ88980.1	tilS	842
cds-AQZ88981.1	hprT	43
cds-AQZ88982.1	ftsH	6821
cds-AQZ88983.1	coaX	13
cds-AQZ88984.1	hslO	51
cds-AQZ88985.1	yacD	3
cds-AQZ88986.1	cysK	3174
cds-AQZ88987.1	pabB	22
cds-AQZ88988.1	pabA	148
cds-AQZ88989.1	pabC	35
cds-AQZ88990.1	sul	155
cds-AQZ88991.1	folB	25
cds-AQZ88992.1	folK	18
cds-AQZ88993.1	yazB	7
cds-AQZ88994.1	dusB	191
cds-AQZ88995.1	lysS	1140
cds-AQZ88996.1	ctsR	7
cds-AQZ88997.1	mcsA	16
cds-AQZ88998.1	mcsB	75
cds-AQZ88999.1	clpC	1403
cds-AQZ89000.1	radA	599
cds-AQZ89001.1	yacK	44
cds-AQZ89002.1	yacL	54
cds-AQZ89003.1	ispD	246
cds-AQZ89004.1	ispF	10
cds-AQZ89005.1	gltX	187
cds-AQZ89006.1		742
cds-AQZ89007.1	cysS	27
cds-AQZ89008.1	mrnC	5
cds-AQZ89009.1	rlmB	61
cds-AQZ89010.1	yacP	13
cds-AQZ89011.1	sigH	26
cds-AQZ89012.1	rpmG	3
cds-AQZ89013.1	secE	0
cds-AQZ89014.1	nusG	54
cds-AQZ89015.1	rplK	259
cds-AQZ89016.1	rplA	178
cds-AQZ89017.1	rplJ	158
cds-AQZ89018.1	rplL	62
cds-AQZ89019.1	ybxB	36
cds-AQZ89020.1	rpoB	20086
cds-AQZ89021.1	rpoC	7095
cds-AQZ89022.1	ybxF	43
cds-AQZ89023.1	rpsL	346
cds-AQZ89024.1	rpsG	754
cds-AQZ89025.1	fusA	4200
cds-AQZ89026.1	tufA	4503
cds-AQZ89027.1	ybaC	13
cds-AQZ89028.1	rpsJ	37
cds-AQZ89029.1	rplC	251
cds-AQZ89030.1	rplD	156
cds-AQZ89031.1	rplW	34
cds-AQZ89032.1	rplB	863
cds-AQZ89033.1	rpsS	51
cds-AQZ89034.1	rplV	92
cds-AQZ89035.1	rpsC	193
cds-AQZ89036.1	rplP	189
cds-AQZ89037.1	rpmC	18
cds-AQZ89038.1	rpsQ	36
cds-AQZ89039.1	rplN	68
cds-AQZ89040.1	rplX	106
cds-AQZ89041.1	rplE	207
cds-AQZ89042.1	rpsN	56
cds-AQZ89043.1	rpsH	49
cds-AQZ89044.1	rplF	191
cds-AQZ89045.1	rplR	287
cds-AQZ89046.1	rpmD	19
cds-AQZ89047.1	rplO	151
cds-AQZ89048.1	secY	1803
cds-AQZ89049.1	adk	147
cds-AQZ89050.1	mapA	300
cds-AQZ89051.1	ybzG	24
cds-AQZ89052.1	infA	13
cds-AQZ89053.1	rpmJ	8
cds-AQZ89054.1	rpsM	166
cds-AQZ89055.1	rpsK	2005
cds-AQZ89056.1	rpoA	922
cds-AQZ89057.1	rplQ	1038
cds-AQZ89058.1	cbiOA	85
cds-AQZ89059.2	cbiOB	110
cds-AQZ89060.1	ybaF	37
cds-AQZ89061.1	truA	166
cds-AQZ89062.1	rplM	979
cds-AQZ89063.1	rpsI	2688
cds-AQZ89064.1	ybaJ	18
cds-AQZ89065.1	ybaK	0
cds-AQZ89066.1	cwlD	29
cds-AQZ89067.1	salA	1217
cds-AQZ89068.1	gerD	66
cds-AQZ89069.1	kbaA	59
cds-AQZ89070.1	ybaN	251
cds-AQZ89071.1		0
cds-AQZ89072.1	ybaR	60
cds-AQZ89073.1	ybaS	668
cds-AQZ89074.1	ybbA	262
cds-AQZ89075.1	feuC	1374
cds-AQZ89076.1	feuB	1029
cds-AQZ89077.1	feuA	52
cds-AQZ89078.1	ybbB	24
cds-AQZ89079.1	ybbC	127
cds-AQZ89080.1	ybbD	339
cds-AQZ89081.1	ybbE	88
cds-AQZ89082.1	ybbF	804
cds-AQZ89083.1	ybbH	261
cds-AQZ89084.1	murQ	280
cds-AQZ89085.1	ybbJ	41
cds-AQZ89086.1	ybbK	57
cds-AQZ89087.1	sigW	53
cds-AQZ89088.1	rsiW	839
cds-AQZ89089.1	ybbP	182
cds-AQZ89090.1	ybbR	209
cds-AQZ89091.1	glmM	879
cds-AQZ89092.1	glmS	10383
cds-AQZ89093.1	alkA	6
cds-AQZ89094.1	adaA	2
cds-AQZ89095.1	adaB	0
cds-AQZ89096.1	ndhF	43
cds-AQZ89097.1	ybcC	16
cds-AQZ89098.1	ybcF	0
cds-AQZ89099.1	ybcH	0
cds-AQZ89100.1	ybcI	2
cds-AQZ89101.1	ybzH	3
cds-AQZ89102.1	ybcL	582
cds-AQZ89103.1	ybcM	8
cds-AQZ89104.1	skfA	4054
cds-AQZ89105.1	skfB	29
cds-AQZ89106.1	skfC	27
cds-AQZ89107.1	skfE	21
cds-AQZ89108.2	skfF	43
cds-AQZ89109.1	skfG	10
cds-AQZ89110.1	skfH	10
cds-AQZ89111.1	ybdG	3
cds-AQZ89112.1	ybdJ	5
cds-AQZ89113.1	ybzI	15
cds-AQZ89114.1	ybdM	1
cds-AQZ89115.1	ybdN	58
cds-AQZ89116.1	ybdO	5
cds-AQZ89117.1	ybxG	445
cds-AQZ89118.1	csgA	1
cds-AQZ89119.1	ybxH	1
cds-AQZ89120.1	ybxI	38
cds-AQZ89121.1	cypC	1838
cds-AQZ89122.1	ybyB	2719
cds-AQZ89123.1	glpQ	248
cds-AQZ89124.1	glpT	221
cds-AQZ89125.1		22
cds-AQZ89126.1	ybeF	5
cds-AQZ89127.1	ybfA	9
cds-AQZ89128.1	ybfE	3
cds-AQZ89129.1	ybfF	0
cds-AQZ89130.1	ybfG	77
cds-AQZ89131.1	ybfH	61
cds-AQZ89132.1	ybfI	18
cds-AQZ89133.1	purT	176
cds-AQZ89134.1	mpr	2532
cds-AQZ89135.1	ybfJ	210
cds-AQZ89136.1	ybfK	168
cds-AQZ89137.1	pssA	492
cds-AQZ89138.1	ybfM	131
cds-AQZ89139.1	psd	774
cds-AQZ89140.1	ybfN	19
cds-AQZ89141.1	ybfO	317
cds-AQZ89142.1	ybfP	11
cds-AQZ89143.1	ybfQ	214
cds-AQZ89144.1	gltP	1859
cds-AQZ89145.1	nagP	80
cds-AQZ89146.1	nagBB	65
cds-AQZ89147.1	ybgA	17
cds-AQZ89148.1	ybgB	24
cds-AQZ89149.1	ybgE	97
cds-AQZ89150.1	ybgF	300
cds-AQZ89151.1	mmuM	202
cds-AQZ89152.1		2
cds-AQZ89153.1	glnT	34
cds-AQZ89154.1	ybgJ	27
cds-AQZ89155.1	glnL	21
cds-AQZ89156.1		0
cds-AQZ89157.1	ycbC	8
cds-AQZ89158.1	ycbD	45
cds-AQZ89159.1	gudP	103
cds-AQZ89160.1	gudD	52
cds-AQZ89161.1	ycbG	30
cds-AQZ89162.1	garD	211
cds-AQZ89163.1	ycbJ	973
cds-AQZ89164.1	rtpA	15
cds-AQZ89165.1	ycbK	91
cds-AQZ89166.1	ycbL	33
cds-AQZ89167.1	ycbM	34
cds-AQZ89168.1	ycbN	107
cds-AQZ89169.1	ycbP	878
cds-AQZ89170.1	cwlJ	3602
cds-AQZ89171.1	yczK	0
cds-AQZ89172.1	phoD	368
cds-AQZ89173.1	tatAD	41
cds-AQZ89174.1	tatCD	170
cds-AQZ89175.1	pcp	245
cds-AQZ89176.1	ycbU	162
cds-AQZ89177.1	lmrB	2822
cds-AQZ89178.1	lmrA	1231
cds-AQZ89179.1	ansZ	51
cds-AQZ89180.1	estA	20
cds-AQZ89181.1	yczC	147
cds-AQZ89182.1	yccF	64
cds-AQZ89183.1	natK	218
cds-AQZ89184.1	natR	104
cds-AQZ89185.1	natA	6
cds-AQZ89186.1	natB	87
cds-AQZ89187.1	yccK	64
cds-AQZ89188.1	ycdA	31
cds-AQZ89189.1	ycdB	104
cds-AQZ89190.1	cwlK	24
cds-AQZ89191.1	rapJ	436
cds-AQZ89192.1	ycdF	40
cds-AQZ89193.1	ycdG	333
cds-AQZ89194.1	adcA	23
cds-AQZ89195.1	adcC	22
cds-AQZ89196.1	adcB	47
cds-AQZ89197.1	yceB	358
cds-AQZ89198.1	yceD	288
cds-AQZ89199.1	yceE	1542
cds-AQZ89200.1	yceF	457
cds-AQZ89201.1	yceG	152
cds-AQZ89202.1	yceH	15
cds-AQZ89203.1	yceI	155
cds-AQZ89204.1	yceJ	16
cds-AQZ89205.1	yceK	70
cds-AQZ89206.1	opuAA	192
cds-AQZ89207.1	opuAB	1079
cds-AQZ89208.1	opuAC	364
cds-AQZ89209.1	amhX	2030
cds-AQZ89210.1	ycgA	1621
cds-AQZ89211.1	ycgB	22
cds-AQZ89212.1	amyE	1109
cds-AQZ89213.1	ldh	33
cds-AQZ89214.1	lctP	111
cds-AQZ89215.1	mdr	493
cds-AQZ89216.1	ycgE	78
cds-AQZ89217.1	ycgF	1020
cds-AQZ89218.1	ycgG	2383
cds-AQZ89219.1	ycgH	368
cds-AQZ89220.1	ycgI	21
cds-AQZ89221.1	nadE	1468
cds-AQZ89222.1		186
cds-AQZ89223.1	aroK	1
cds-AQZ89224.1	ycgJ	59
cds-AQZ89225.1	ycgK	40
cds-AQZ89226.1	cah	126
cds-AQZ89227.1	ycgL	87
cds-AQZ89228.1	ycgN	577
cds-AQZ89229.2	ycgO	4366
cds-AQZ89230.1	ycgP	24
cds-AQZ89231.1	ycgQ	17
cds-AQZ89232.1	ycgR	120
cds-AQZ89233.1	ycgS	168
cds-AQZ89234.1	ycgT	258
cds-AQZ89235.1	nasF	2120
cds-AQZ89236.1	nasE	312
cds-AQZ89237.1	nasD	438
cds-AQZ89238.1	nasC	35
cds-AQZ89239.1	nasB	31
cds-AQZ89240.1	nasA	97
cds-AQZ89241.1	yciA	5
cds-AQZ89242.1	yciB	0
cds-AQZ89243.1	yczL	2
cds-AQZ89244.1	yciC	9
cds-AQZ89245.1	yckA	215
cds-AQZ89246.1	yckB	52
cds-AQZ89247.1	yckC	633
cds-AQZ89248.1	yckD	4
cds-AQZ89249.1	bglC	45
cds-AQZ89250.1	nin	5
cds-AQZ89251.1	tlpC	1413
cds-AQZ89252.1	hxlB	89
cds-AQZ89253.1	hxlA	77
cds-AQZ89254.1	hxlR	5
cds-AQZ89255.1	srfAA	2884
cds-AQZ89256.1	srbAB	4629
cds-AQZ89257.1	srfAC	1822
cds-AQZ89258.1	srfAD	992
cds-AQZ89259.1	ycxA	318
cds-AQZ89260.1	ycxB	4
cds-AQZ89261.1	ycxC	134
cds-AQZ89262.1	ycxD	118
cds-AQZ89263.1		117
cds-AQZ89264.1	yczE	529
cds-AQZ89265.1	tcyC	1799
cds-AQZ89266.1	tcyB	318
cds-AQZ89267.1	tcyA	57
cds-AQZ89268.1	yclA	107
cds-AQZ89269.1	yclB	22
cds-AQZ89270.1	ubiD	20
cds-AQZ89271.1	bsdD	3
cds-AQZ89272.1	yclD	31
cds-AQZ89273.1	yclE	200
cds-AQZ89274.1	dtpT	2092
cds-AQZ89275.1	yclG	120
cds-AQZ89276.1	yczF	2
cds-AQZ89277.1	gerKA	312
cds-AQZ89278.1	gerKC	59
cds-AQZ89279.1	gerKB	192
cds-AQZ89280.1	yclH	44
cds-AQZ89281.1	yclI	29
cds-AQZ89282.1	yclJ	9
cds-AQZ89283.1	yclK	52
cds-AQZ89284.1	rapC	38
cds-AQZ89285.1	phrC	204
cds-AQZ89286.1	yczM	4402
cds-AQZ89287.1	yczN	10870
cds-AQZ89288.1	yclM	109
cds-AQZ89289.1	yclN	405
cds-AQZ89290.1	yclO	310
cds-AQZ89291.1	yclP	19
cds-AQZ89292.1	yclQ	12
cds-AQZ89293.1	ycnB	2409
cds-AQZ89294.1	ycnD	218
cds-AQZ89295.1	ycnE	30
cds-AQZ89296.1	yczG	478
cds-AQZ89297.1	gabR	119
cds-AQZ89298.1	gabT	40
cds-AQZ89299.1	glcU	400
cds-AQZ89300.1	gdh	376
cds-AQZ89301.1	ycnI	478
cds-AQZ89302.1	ycnJ	4159
cds-AQZ89303.1	ycnK	982
cds-AQZ89304.1	ycnL	140
cds-AQZ89305.1	mtlA	26
cds-AQZ89306.1	mtlF	1
cds-AQZ89307.1	mtlD	31
cds-AQZ89308.1	ycsA	601
cds-AQZ89309.1	sipU	67
cds-AQZ89310.1	yczH	169
cds-AQZ89311.1	ycsD	116
cds-AQZ89312.1	yczO	8
cds-AQZ89313.1	ycsE	46
cds-AQZ89314.1	ycsF	44
cds-AQZ89315.1	ycsG	97
cds-AQZ89316.1	kipI	83
cds-AQZ89317.1	kipR	79
cds-AQZ89318.1	lipC	174
cds-AQZ89319.1	yczI	98
cds-AQZ89320.1	yczJ	153
cds-AQZ89321.1	pbpC	94
cds-AQZ89322.1	ycsN	2617
cds-AQZ89323.1	mtlR	103
cds-AQZ89324.1	ydaB	49
cds-AQZ89325.1	ydaD	886
cds-AQZ89326.1	ydaE	1099
cds-AQZ89327.1	ydaF	39
cds-AQZ89328.1	ydaG	1285
cds-AQZ89329.1	ydaH	356
cds-AQZ89330.1	ydzA	2615
cds-AQZ89331.1	lrpC	6
cds-AQZ89332.1	topB	412
cds-AQZ89333.1	ydaJ	71
cds-AQZ89334.1	ydaK	25
cds-AQZ89335.1	ydaM	27
cds-AQZ89336.1	ydaN	14
cds-AQZ89337.1	ydaO	1474
cds-AQZ89338.1	mutT	17
cds-AQZ89339.1	ydaP	5210
cds-AQZ89340.1	ydzK	222
cds-AQZ89341.1	mntH	33578
cds-AQZ89342.1	ydaT	173
cds-AQZ89343.1	ydbA	11
cds-AQZ89344.1	gsiB	127
cds-AQZ89345.1	ydbB	155
cds-AQZ89346.1	ydbC	163
cds-AQZ89347.1	ydbD	4196
cds-AQZ89348.1	dctB	32
cds-AQZ89349.1	dctS	14
cds-AQZ89350.1	dctR	6
cds-AQZ89351.1	dctP	687
cds-AQZ89352.1	ydbI	2540
cds-AQZ89353.1	ydbJ	29
cds-AQZ89354.2	ydbK	111
cds-AQZ89355.1	ydbL	2564
cds-AQZ89356.1	ydbM	829
cds-AQZ89357.1	ydbN	39
cds-AQZ89358.1		3
cds-AQZ89359.1	ybdO	123
cds-AQZ89360.1	ydbP	35
cds-AQZ89361.2	ddl	756
cds-AQZ89362.1	cshA	860
cds-AQZ89363.1	ydbS	543
cds-AQZ89364.1	ydbT	1050
cds-AQZ89365.1	ydcA	1676
cds-AQZ89366.1	acpS	15
cds-AQZ89367.1	alrA	632
cds-AQZ89368.1	endB	124
cds-AQZ89369.1	ndoA	298
cds-AQZ89370.1	rsbRA	1623
cds-AQZ89371.1	rsbS	101
cds-AQZ89372.1	rsbT	55
cds-AQZ89373.1	rsbU	33
cds-AQZ89374.1	rsbV	84
cds-AQZ89375.1	rsbW	616
cds-AQZ89376.1	sigB	1738
cds-AQZ89377.1	rsbX	4950
cds-AQZ89378.1	ydcG	15
cds-AQZ89379.1	ydcH	30
cds-AQZ89380.1	ydcI	1078
cds-AQZ89381.1	ydcK	13
cds-AQZ89382.1	ydcL	1
cds-AQZ89383.1	immA	1
cds-AQZ89384.1	immR	0
cds-AQZ89385.1	sacV	0
cds-AQZ89386.1	ydzL	1
cds-AQZ89387.1	ydcO	1
cds-AQZ89388.1	ydcP	1
cds-AQZ89389.1	ydcQ	4
cds-AQZ89390.1	ydcR	4
cds-AQZ89391.1	ydcS	2
cds-AQZ89392.1	ydcT	0
cds-AQZ89393.1	yddA	0
cds-AQZ89394.1	yddB	0
cds-AQZ89395.1	yddC	0
cds-AQZ89396.1	yddD	2
cds-AQZ89397.1	yddE	0
cds-AQZ89398.1	yddF	0
cds-AQZ89399.1	yddG	1
cds-AQZ89400.1	yddH	3
cds-AQZ89401.1	yddI	0
cds-AQZ89402.1	yddK	2
cds-AQZ89403.1	rapI	0
cds-AQZ89404.1	rapI	0
cds-AQZ89405.1	yddM	0
cds-AQZ89406.1	yddN	6
cds-AQZ89407.1	lrpA	0
cds-AQZ89408.1	lrpB	0
cds-AQZ89409.1	yddQ	0
cds-AQZ89410.1	yddR	0
cds-AQZ89411.1	yddS	21
cds-AQZ89412.1	ydzM	1
cds-AQZ89413.1	yddT	3
cds-AQZ89414.1	ydzN	0
cds-AQZ89415.1	ydeA	1
cds-AQZ89416.1	cspC	28
cds-AQZ89417.2	ydzE	1
cds-AQZ89418.1	ydeC	0
cds-AQZ89419.1	ydeD	7
cds-AQZ89420.1	ydeE	8
cds-AQZ89421.1	ydeF	30
cds-AQZ89422.1	ydeH	4
cds-AQZ89423.1	ydeI	4
cds-AQZ89424.1	ydeJ	20
cds-AQZ89425.1	ydeK	558
cds-AQZ89426.1	ydeL	7
cds-AQZ89427.1	ydeM	3
cds-AQZ89428.1	ydeN	17
cds-AQZ89429.1	ydzF	48
cds-AQZ89430.1	ydeO	18
cds-AQZ89431.1	ydeP	3
cds-AQZ89432.1	ydeQ	12
cds-AQZ89433.1	ydeR	45
cds-AQZ89434.1	ydeS	27
cds-AQZ89435.1	ydzO	1
cds-AQZ89436.1	aseR	0
cds-AQZ89437.1	ydfA	15
cds-AQZ89438.1	ydfC	2
cds-AQZ89439.1	ydfD	3
cds-AQZ89440.1	ydfE	2
cds-AQZ89441.1	ydfF	17
cds-AQZ89442.1	ydfG	19
cds-AQZ89443.1	ydzP	2
cds-AQZ89444.1	ydzQ	0
cds-AQZ89445.1	ydfH	3
cds-AQZ89446.1	ydfI	6
cds-AQZ89447.1	ydfJ	83
cds-AQZ89448.1	nap	94
cds-AQZ89449.1	ydfK	22
cds-AQZ89450.1	ydfL	1
cds-AQZ89451.1	ydfM	18
cds-AQZ89452.1	ydfN	4
cds-AQZ89453.1	ydfO	12
cds-AQZ89454.1	ydfP	61
cds-AQZ89455.1	ydfQ	1
cds-AQZ89456.1	ydzH	1
cds-AQZ89457.1	ydzR	7
cds-AQZ89458.1	ydfR	23
cds-AQZ89459.1	ydfS	34
cds-AQZ89460.1	cotP	33
cds-AQZ89461.1	ydgA	8
cds-AQZ89462.1	ydgB	31
cds-AQZ89463.1	ydgC	4
cds-AQZ89464.1	ydgD	11
cds-AQZ89465.1	ydgE	64
cds-AQZ89466.1	vmlR	110
cds-AQZ89467.1	ydgF	282
cds-AQZ89468.1	dinB	11
cds-AQZ89469.1	ydgG	7
cds-AQZ89470.1	ydgH	322
cds-AQZ89471.1	ydgI	65
cds-AQZ89472.1	ydgJ	22
cds-AQZ89473.1	ydgK	122
cds-AQZ89474.1	ydhB	16
cds-AQZ89475.1	ydhC	2
cds-AQZ89476.1	ydhD	336
cds-AQZ89477.1	ydhE	106
cds-AQZ89478.1	ydhF	13
cds-AQZ89479.1	phoB	170
cds-AQZ89480.1	ydhG	12
cds-AQZ89481.1	ydhH	1
cds-AQZ89482.1	ydhI	2
cds-AQZ89483.1	ydhJ	9
cds-AQZ89484.1	pbuE	1141
cds-AQZ89485.1	gmuB	1
cds-AQZ89486.1	gmuA	2
cds-AQZ89487.1	gmuC	33
cds-AQZ89488.1	gmuD	28
cds-AQZ89489.1	gmuR	12
cds-AQZ89490.1	gmuE	54
cds-AQZ89491.1	gmuF	5
cds-AQZ89492.1	gmuG	27
cds-AQZ89493.1	thiL	27
cds-AQZ89494.1	ydiB	2
cds-AQZ89495.1	ydiC	39
cds-AQZ89496.1	rimI	6
cds-AQZ89497.1	gcp	147
cds-AQZ89498.1	ydiF	157
cds-AQZ89499.1	moaC	135
cds-AQZ89500.1	ydiH	86
cds-AQZ89501.1	tatAY	84
cds-AQZ89502.1	tatCY	6063
cds-AQZ89503.1	ydiK	47
cds-AQZ89504.1	ydiL	48
cds-AQZ89505.1	groES	27
cds-AQZ89506.1	groEL	2289
cds-AQZ89507.1	ydiM	5
cds-AQZ89508.1	ydzU	0
cds-AQZ89509.1		1
cds-AQZ89510.1	ydiO	8
cds-AQZ89511.1	ydiP	8
cds-AQZ89512.1	ydiR	1
cds-AQZ89513.1	ydiS	1
cds-AQZ89514.1	ydjA	4
cds-AQZ89515.1	ydjB	2
cds-AQZ89516.1	ydjC	7
cds-AQZ89517.1	gutR	58
cds-AQZ89518.1	gutB	33
cds-AQZ89519.1	gutP	25
cds-AQZ89520.1	ydjE	1250
cds-AQZ89521.1	pspA	16
cds-AQZ89522.1	ydjG	21
cds-AQZ89523.1	ydjH	24
cds-AQZ89524.1	ydjI	36
cds-AQZ89525.1	ydjJ	198
cds-AQZ89526.1	iolT	81
cds-AQZ89527.1	bdhA	1419
cds-AQZ89528.1	ydjM	4
cds-AQZ89529.1	ydjN	14
cds-AQZ89530.1	ydzJ	1
cds-AQZ89531.1	ydjO	319
cds-AQZ89532.1	ydjP	2034
cds-AQZ89533.1	yeaA	277
cds-AQZ89534.1	cotA	3295
cds-AQZ89535.1	gabP	371
cds-AQZ89536.1	ydzX	1
cds-AQZ89537.1	yeaB	104
cds-AQZ89538.1	yeaC	130
cds-AQZ89539.1	yeaD	199
cds-AQZ89540.1	yebA	93
cds-AQZ89541.1	pbuG	337
cds-AQZ89542.1	yebC	464
cds-AQZ89543.1	yebD	13
cds-AQZ89544.1	yebE	32
cds-AQZ89545.1	yebG	0
cds-AQZ89546.1	purE	23
cds-AQZ89547.1	purK	112
cds-AQZ89548.1	purB	90
cds-AQZ89549.1	purC	12
cds-AQZ89550.1	purS	2
cds-AQZ89551.1	purQ	25
cds-AQZ89552.1	purL	182
cds-AQZ89553.1	purF	349
cds-AQZ89554.1	purM	296
cds-AQZ89555.1	purN	112
cds-AQZ89556.1	purH	194
cds-AQZ89557.1	purD	332
cds-AQZ89558.1	yezC	85
cds-AQZ89559.1	yecA	23
cds-AQZ89560.1	yezF	84
cds-AQZ89561.1	yerA	479
cds-AQZ89562.1	yerB	1316
cds-AQZ89563.1	yerC	197
cds-AQZ89564.1	yerD	1054
cds-AQZ89565.1	pcrB	39
cds-AQZ89566.1	pcrA	162
cds-AQZ89567.1	ligA	899
cds-AQZ89568.1	yerI	1933
cds-AQZ89569.1	opuE	2436
cds-AQZ89570.1	gatC	6
cds-AQZ89571.1	gatA	2165
cds-AQZ89572.1	gatB	432
cds-AQZ89573.1	yerO	36
cds-AQZ89574.1	swrC	4663
cds-AQZ89575.1	yerQ	2093
cds-AQZ89576.1	yefA	263
cds-AQZ89577.2	yefB	3
cds-AQZ89578.1	yefC	0
cds-AQZ89579.1	yeeA	2
cds-AQZ89580.1	yeeB	2
cds-AQZ89581.1	yeeC	1
cds-AQZ89582.1	yeeD	1
cds-AQZ89583.1	yezA	0
cds-AQZ89584.1	yeeF	125
cds-AQZ89585.1	yeeG	6
cds-AQZ89586.1	rapH	50
cds-AQZ89587.1	phrH	4
cds-AQZ89588.1	yeeI	283
cds-AQZ89589.1	yeeK	4062
cds-AQZ89590.1	yezE	181
cds-AQZ89591.1	yesE	2
cds-AQZ89592.1	yesF	79
cds-AQZ89593.1	cotJA	10201
cds-AQZ89594.1	cotJB	3132
cds-AQZ89595.1	cotJC	7568
cds-AQZ89596.1	yesJ	8320
cds-AQZ89597.1	yesK	72
cds-AQZ89598.1	yesL	500
cds-AQZ89599.1	yesM	189
cds-AQZ89600.1	yesN	530
cds-AQZ89601.1	yesO	37
cds-AQZ89602.1	yesP	78
cds-AQZ89603.1	yesQ	107
cds-AQZ89604.1	yesR	35
cds-AQZ89605.1	yesS	372
cds-AQZ89606.1	rhgT	138
cds-AQZ89607.1	yesU	232
cds-AQZ89608.1	yesV	153
cds-AQZ89609.1	yesW	381
cds-AQZ89610.1	yesX	365
cds-AQZ89611.1	yesY	89
cds-AQZ89612.1	yesZ	1176
cds-AQZ89613.1	yetA	1182
cds-AQZ89614.1	lplA	31
cds-AQZ89615.1	lplB	31
cds-AQZ89616.1	lplC	80
cds-AQZ89617.1	lplD	472
cds-AQZ89618.1	yetF	94
cds-AQZ89619.1	yetH	57
cds-AQZ89620.1		9883
cds-AQZ89621.1	yezD	2
cds-AQZ89622.1	yetJ	2085
cds-AQZ89623.1	yetK	701
cds-AQZ89624.1	yetL	20
cds-AQZ89625.1	yetM	58
cds-AQZ89626.1	yetN	34
cds-AQZ89627.1	yetO	903
cds-AQZ89628.1	yfnH	165
cds-AQZ89629.2	yfnG	1140
cds-AQZ89630.1	yfnF	1259
cds-AQZ89631.1	yfnE	1117
cds-AQZ89632.1	yfnD	1053
cds-AQZ89633.1	yfnC	1709
cds-AQZ89634.1	yfnB	18
cds-AQZ89635.1	yfnA	354
cds-AQZ89636.1	yfmT	133
cds-AQZ89637.1	yfmS	52
cds-AQZ89638.1	yfmR	553
cds-AQZ89639.1	yfmQ	84
cds-AQZ89640.1	yfmP	40
cds-AQZ89641.1	yfmO	95
cds-AQZ89642.1		6
cds-AQZ89643.1	yfmN	0
cds-AQZ89644.1	yfmM	535
cds-AQZ89645.1	yfmL	63
cds-AQZ89646.1	yfmK	37
cds-AQZ89647.1	yfmJ	1384
cds-AQZ89648.1		1
cds-AQZ89649.1	yfmI	4
cds-AQZ89650.1	yfmG	15
cds-AQZ89651.1	fecE	1191
cds-AQZ89652.1	fecD	990
cds-AQZ89653.1	yfmD	600
cds-AQZ89654.1	yfmC	606
cds-AQZ89655.1	yfmB	124
cds-AQZ89656.1	yfmA	13
cds-AQZ89657.1	yflT	71
cds-AQZ89658.1	pel	90
cds-AQZ89659.1	yflS	740
cds-AQZ89660.1	citS	122
cds-AQZ89661.1	citT	33
cds-AQZ89662.1	yflP	56
cds-AQZ89663.1	citM	939
cds-AQZ89664.1	yflN	2282
cds-AQZ89665.1	nosA	201
cds-AQZ89666.1	yflL	123
cds-AQZ89667.1	yflK	395
cds-AQZ89668.1	yflJ	46
cds-AQZ89669.1	yflI	44
cds-AQZ89670.1	yflH	252
cds-AQZ89671.1	yflG	578
cds-AQZ89672.1	nagP	1652
cds-AQZ89673.1	yflE	133
cds-AQZ89674.1	yflD	0
cds-AQZ89675.1	yflB	624
cds-AQZ89676.1	yflA	1488
cds-AQZ89677.1	yfkT	257
cds-AQZ89678.1	yfkS	31
cds-AQZ89679.1	yfkR	488
cds-AQZ89680.1	yfkQ	103
cds-AQZ89681.1	treP	233
cds-AQZ89682.1	treA	54
cds-AQZ89683.1	treR	135
cds-AQZ89684.1	yfkO	81
cds-AQZ89685.1	yfkN	1020
cds-AQZ89686.1	yfkM	10341
cds-AQZ89687.1	yfkL	131
cds-AQZ89688.1	yfkK	0
cds-AQZ89689.1	yfkJ	228
cds-AQZ89690.1	yfkI	89
cds-AQZ89691.1	yfkH	2355
cds-AQZ89692.1	yfkF	1040
cds-AQZ89693.1	yfkE	440
cds-AQZ89694.1	yfkD	57
cds-AQZ89695.1	yfkC	429
cds-AQZ89696.1	yfkA	798
cds-AQZ89697.1	yfjT	16
cds-AQZ89698.1	pdaA	62
cds-AQZ89699.1	yfjR	712
cds-AQZ89700.1	yfjQ	41
cds-AQZ89701.1	yfjP	224
cds-AQZ89702.1	yfjO	677
cds-AQZ89703.1	yfzA	1
cds-AQZ89704.1	dusC	29
cds-AQZ89705.1	yfjM	177
cds-AQZ89706.1	yfjL	0
cds-AQZ89707.1	acoA	5005
cds-AQZ89708.1	acoB	10653
cds-AQZ89709.1	acoC	11873
cds-AQZ89710.1	acoR	1004
cds-AQZ89711.1	sspH	42
cds-AQZ89712.1	yfjF	343
cds-AQZ89713.1	yfjD	37
cds-AQZ89714.1	yfjC	98
cds-AQZ89715.1	yfjB	117
cds-AQZ89716.1	yfjA	2
cds-AQZ89717.1	malA	298
cds-AQZ89718.1	malR	53
cds-AQZ89719.1	malP	494
cds-AQZ89720.1	malQ	532
cds-AQZ89721.1	yfiC	1333
cds-AQZ89722.1	catD	56
cds-AQZ89723.1	catE	365
cds-AQZ89724.1	yfiF	13
cds-AQZ89725.1	yfiG	95
cds-AQZ89726.1	yfiH	15
cds-AQZ89727.1	yfiI	86
cds-AQZ89728.1	yfiJ	609
cds-AQZ89729.1	yfiK	93
cds-AQZ89730.1	yfiL	25
cds-AQZ89731.1	yfiM	21
cds-AQZ89732.1	yfiN	266
cds-AQZ89733.1	padR	159
cds-AQZ89734.1	estB	32
cds-AQZ89735.1	yfiQ	134
cds-AQZ89736.1	yfiR	58
cds-AQZ89737.1	yfiS	54
cds-AQZ89738.1	yfiT	440
cds-AQZ89739.1	yfiU	493
cds-AQZ89740.1	yfiV	17
cds-AQZ89741.1	mprF	2044
cds-AQZ89742.1	yfiY	7
cds-AQZ89743.1	yfiZ	682
cds-AQZ89744.1	yfhA	294
cds-AQZ89745.1	yfhB	85
cds-AQZ89746.1	yfhC	115
cds-AQZ89747.1	yfhD	113
cds-AQZ89748.1	yfhE	14
cds-AQZ89749.1	yfhF	451
cds-AQZ89750.1	recX	25
cds-AQZ89751.1	yfhH	14
cds-AQZ89752.1	yfhI	262
cds-AQZ89753.1	sspK	18
cds-AQZ89754.1	yfhJ	70
cds-AQZ89755.1	yfhK	876
cds-AQZ89756.1	yfhL	219
cds-AQZ89757.1	yfhM	2525
cds-AQZ89758.1	csbB	65
cds-AQZ89759.1	yfhO	227
cds-AQZ89760.1	yfhP	984
cds-AQZ89761.1	yfhQ	123
cds-AQZ89762.1	yfhS	33
cds-AQZ89763.1	fabL	42
cds-AQZ89764.1	sspE	184
cds-AQZ89765.1	ygaB	313
cds-AQZ89766.1	ygaC	39
cds-AQZ89767.1	ygaD	95
cds-AQZ89768.1	ygaE	127
cds-AQZ89769.1	gsaB	231
cds-AQZ89770.1	ygaF	24
cds-AQZ89771.1	perR	1065
cds-AQZ89772.1	ygzB	16
cds-AQZ89773.1	ygxA	12
cds-AQZ89774.1	spo0M	675
cds-AQZ89775.1	ygzA	0
cds-AQZ89776.1	ygzC	1
cds-AQZ89777.1	ygaJ	121
cds-AQZ89778.1	thiC	93
cds-AQZ89779.1	ygaK	115
cds-AQZ89780.1	senS	1
cds-AQZ89781.1	katA	6239
cds-AQZ89782.1	ssuA	132
cds-AQZ89783.1	ssuC	1127
cds-AQZ89784.1	ssuD	2823
cds-AQZ89785.1	rpsN	89
cds-AQZ89786.1	ygaO	197
cds-AQZ89787.1	yhzB	183
cds-AQZ89788.1	yhbA	330
cds-AQZ89789.1	yhbB	120
cds-AQZ89790.1	cspR	268
cds-AQZ89791.1	yhbD	12
cds-AQZ89792.1	yhbE	28
cds-AQZ89793.1	yhbF	105
cds-AQZ89794.1	prkA	2647
cds-AQZ89795.1	yhbH	184
cds-AQZ89796.1	yhbI	5
cds-AQZ89797.1	yhbJ	10
cds-AQZ89798.1	yhcA	533
cds-AQZ89799.1	yhcB	333
cds-AQZ89800.1	yhcC	194
cds-AQZ89801.1	yhcD	1
cds-AQZ89802.1	yhcE	9
cds-AQZ89803.1	yhcF	0
cds-AQZ89804.1	yhcG	3
cds-AQZ89805.1	yhcH	3
cds-AQZ89806.1	yhcI	110
cds-AQZ89807.1	cspB	31
cds-AQZ89808.1		21
cds-AQZ89809.1	yhcJ	176
cds-AQZ89810.1	dgcK	49
cds-AQZ89811.1	tcyP	667
cds-AQZ89812.1	yhcM	103
cds-AQZ89813.1	yhcN	14
cds-AQZ89814.1	yhcO	147
cds-AQZ89815.1	yhcQ	326
cds-AQZ89816.1	yhcR	280
cds-AQZ89817.1	yhcS	85
cds-AQZ89818.1	yhcT	203
cds-AQZ89819.1	yhcU	3
cds-AQZ89820.1	yhcV	3643
cds-AQZ89821.1	yhcW	67
cds-AQZ89822.1	yhcX	333
cds-AQZ89823.1	yhxA	1338
cds-AQZ89824.1	glpP	43
cds-AQZ89825.1	glpF	1766
cds-AQZ89826.1	glpK	5773
cds-AQZ89827.1	glpD	163
cds-AQZ89828.1	pgcA	747
cds-AQZ89829.1	yhcY	150
cds-AQZ89830.1	yhcZ	85
cds-AQZ89831.1	yhdA	20
cds-AQZ89832.1	yhdB	10
cds-AQZ89833.1	yhdC	79
cds-AQZ89834.1	lytF	153
cds-AQZ89835.1	nsrR	69
cds-AQZ89836.1	ygxB	2406
cds-AQZ89837.1	spoVR	463
cds-AQZ89838.1	phoA	192
cds-AQZ89839.1	lytE	77
cds-AQZ89840.1	citR	9
cds-AQZ89841.1	citA	23
cds-AQZ89842.1	yhdF	1412
cds-AQZ89843.1	ctrA	1826
cds-AQZ89844.1	yhdH	169
cds-AQZ89845.1	yhdI	60
cds-AQZ89846.1	yhdJ	11
cds-AQZ89847.1	yhdK	81
cds-AQZ89848.1	yhdL	46
cds-AQZ89849.1	sigM	3
cds-AQZ89850.1	yhdN	646
cds-AQZ89851.1	plsC	67
cds-AQZ89852.1	yhdP	223
cds-AQZ89853.1	yhdR	61
cds-AQZ89854.1	yhdT	1846
cds-AQZ89855.1	crcBA	60
cds-AQZ89856.1	yhdV	57
cds-AQZ89857.1	yhdW	60
cds-AQZ89858.1	yhdX	6
cds-AQZ89859.1	yhdY	336
cds-AQZ89860.1	yhdZ	547
cds-AQZ89861.1	yheN	401
cds-AQZ89862.1	dat	331
cds-AQZ89863.1	nhaC	134
cds-AQZ89864.1	nhaX	3214
cds-AQZ89865.1	yheJ	3552
cds-AQZ89866.1	yheI	122
cds-AQZ89867.1	yheG	92
cds-AQZ89868.1	yheF	3
cds-AQZ89869.1	sspB	252
cds-AQZ89870.1	yheE	19
cds-AQZ89871.1	yheD	1735
cds-AQZ89872.1	yheC	2808
cds-AQZ89873.1	yheB	414
cds-AQZ89874.1	yheA	25
cds-AQZ89875.1	yhaZ	11
cds-AQZ89876.1	yhaX	2605
cds-AQZ89877.1	hemZ	181
cds-AQZ89878.1	yhaU	2776
cds-AQZ89879.1	khtT	101
cds-AQZ89880.1	khtS	2959
cds-AQZ89881.1	yhaR	2573
cds-AQZ89882.1	yhzD	71
cds-AQZ89883.1	natA	16
cds-AQZ89884.1	natB	1647
cds-AQZ89885.1	yhaO	60
cds-AQZ89886.1	yhaM	284
cds-AQZ89887.1	yhaL	35
cds-AQZ89888.1	prsA	45
cds-AQZ89889.1	yhzE	2293
cds-AQZ89890.1	yjcZ	186
cds-AQZ89891.1		40
cds-AQZ89892.1	yhaJ	17
cds-AQZ89893.1	yhaI	67
cds-AQZ89894.1	hpr	74
cds-AQZ89895.1	yhzF	962
cds-AQZ89896.1	trpP	3949
cds-AQZ89897.1	serC	778
cds-AQZ89898.1	hinT	161
cds-AQZ89899.1	ecsA	123
cds-AQZ89900.1	ecsB	1493
cds-AQZ89901.1	ecsC	204
cds-AQZ89902.1	yhaA	2546
cds-AQZ89903.1	yhfA	1092
cds-AQZ89904.1	yhgB	76
cds-AQZ89905.1	yhgC	1696
cds-AQZ89906.1	pbpF	170
cds-AQZ89907.1	hemE	478
cds-AQZ89908.1	hemH	159
cds-AQZ89909.1	hemY	2378
cds-AQZ89910.1	yhgD	359
cds-AQZ89911.1	yhgE	1210
cds-AQZ89912.1	fabHB	126
cds-AQZ89913.1	yhfC	233
cds-AQZ89914.1		27
cds-AQZ89915.1	yhfE	240
cds-AQZ89916.1	yhfF	35
cds-AQZ89917.1	gltT	3079
cds-AQZ89918.1	yhfH	15
cds-AQZ89919.1	yhfI	91
cds-AQZ89920.1	yhfJ	65
cds-AQZ89921.1	yhfK	2148
cds-AQZ89922.1	yhfL	2182
cds-AQZ89923.1	yhfM	60
cds-AQZ89924.1	yhfN	1661
cds-AQZ89925.1	aprE	6114
cds-AQZ89926.1	yhfO	44
cds-AQZ89927.1	yhfP	3343
cds-AQZ89928.1	yhfQ	232
cds-AQZ89929.1	phoE	35
cds-AQZ89930.1	yhfS	228
cds-AQZ89931.1	yhfT	327
cds-AQZ89932.1	bioY	104
cds-AQZ89933.1	hemAT	18
cds-AQZ89934.1	yhfW	94
cds-AQZ89935.1	yhxW	1956
cds-AQZ89936.1	yhzC	101
cds-AQZ89937.1	comK	118
cds-AQZ89938.1	yhxD	2460
cds-AQZ89939.1	yhjA	43
cds-AQZ89940.1	yhjB	491
cds-AQZ89941.1	yhjC	16
cds-AQZ89942.1	yhjD	26
cds-AQZ89943.1	yhjE	1165
cds-AQZ89944.1	sipV	85
cds-AQZ89945.1	yhjG	73
cds-AQZ89946.1	yhjH	28
cds-AQZ89947.1	glcP	3
cds-AQZ89948.1	ntdC	8
cds-AQZ89949.1	ntdB	6
cds-AQZ89950.1	ntdA	4
cds-AQZ89951.1	yhjM	12
cds-AQZ89952.1	yhjN	1934
cds-AQZ89953.1	yhjO	40
cds-AQZ89954.1	yhjP	312
cds-AQZ89955.1	yhjQ	78
cds-AQZ89956.1	yhjR	148
cds-AQZ89957.1	addB	1097
cds-AQZ89958.1	addA	650
cds-AQZ89959.1	sbcD	217
cds-AQZ89960.1	sbcC	1042
cds-AQZ89961.1	yisB	166
cds-AQZ89962.2	gerPF	1020
cds-AQZ89963.1	gerPE	656
cds-AQZ89964.1	gerPD	211
cds-AQZ89965.1	gerPC	115
cds-AQZ89966.1	gerPB	114
cds-AQZ89967.1	gerPA	79
cds-AQZ89968.1	yisI	4
cds-AQZ89969.1	yisJ	42
cds-AQZ89970.1	yisK	125
cds-AQZ89971.1	yisL	643
cds-AQZ89972.1	wprA	580
cds-AQZ89973.1	asnO	1816
cds-AQZ89974.1	yizA	2
cds-AQZ89975.1	yisP	1601
cds-AQZ89976.1	yisQ	208
cds-AQZ89977.1	yisR	48
cds-AQZ89978.1	degA	236
cds-AQZ89979.1	yisS	47
cds-AQZ89980.1	yisU	29
cds-AQZ89981.1	yisV	370
cds-AQZ89982.1	yisX	80
cds-AQZ89983.1	yisY	384
cds-AQZ89984.1	yisZ	1025
cds-AQZ89985.1	sat	2311
cds-AQZ89986.1	yitB	268
cds-AQZ89987.1	yitC	114
cds-AQZ89988.1	yitD	290
cds-AQZ89989.1	yitE	517
cds-AQZ89990.1	yitF	1214
cds-AQZ89991.1	yitG	230
cds-AQZ89992.1	yitH	186
cds-AQZ89993.1	yitI	70
cds-AQZ89994.1	yitJ	232
cds-AQZ89995.1	yitK	6
cds-AQZ89996.1	yitL	37
cds-AQZ89997.1	yitM	24
cds-AQZ89998.1	yitO	8
cds-AQZ89999.1	yitP	113
cds-AQZ90000.1	yizB	13
cds-AQZ90001.1	yitQ	355
cds-AQZ90002.1	yitR	42
cds-AQZ90003.1	nprB	98
cds-AQZ90004.1	yitS	826
cds-AQZ90005.1	yitT	3490
cds-AQZ90006.1	yizC	110
cds-AQZ90007.1	yitU	126
cds-AQZ90008.1	yitV	213
cds-AQZ90009.1	yitW	357
cds-AQZ90010.1		577
cds-AQZ90011.1	yitY	87
cds-AQZ90012.1	argC	3
cds-AQZ90013.1	argJ	99
cds-AQZ90014.1	argB	68
cds-AQZ90015.1	argD	150
cds-AQZ90016.1	carA	150
cds-AQZ90017.1	carB	344
cds-AQZ90018.1	argF	359
cds-AQZ90019.1	yjzC	156
cds-AQZ90020.1	yjzD	22
cds-AQZ90021.1	yjaU	237
cds-AQZ90022.1	yjaV	15
cds-AQZ90023.1	med	35
cds-AQZ90024.1	comZ	14
cds-AQZ90025.1	yjzB	93
cds-AQZ90026.1	fabHA	306
cds-AQZ90027.1	fabF	877
cds-AQZ90028.1	yjaZ	80
cds-AQZ90029.1	appD	452
cds-AQZ90030.1	appF	674
cds-AQZ90031.1		139
cds-AQZ90032.1	appB	77
cds-AQZ90033.1	appC	105
cds-AQZ90034.1	yjbA	18
cds-AQZ90035.1	oppA	357
cds-AQZ90036.1	oppB	695
cds-AQZ90037.1	oppC	268
cds-AQZ90038.1	oppD	544
cds-AQZ90039.1	oppF	1436
cds-AQZ90040.1	yjbB	207
cds-AQZ90041.1	yjbC	35
cds-AQZ90042.1	spxA	516
cds-AQZ90043.1	yjbE	4693
cds-AQZ90044.1	mecA	107
cds-AQZ90045.2	coiA	89
cds-AQZ90046.1	pepF	545
cds-AQZ90047.1	yizD	1985
cds-AQZ90048.1		25
cds-AQZ90049.1	yjbH	438
cds-AQZ90050.1	yjbI	267
cds-AQZ90051.1	yjbK	105
cds-AQZ90052.1	yjbL	2
cds-AQZ90053.1	yjbM	6
cds-AQZ90054.1	ppnK	97
cds-AQZ90055.1	yjbP	79
cds-AQZ90056.1	yjbQ	83
cds-AQZ90057.1	tenA	9
cds-AQZ90058.1	tenI	11
cds-AQZ90059.1	thiO	51
cds-AQZ90060.1	thiG	121
cds-AQZ90061.1	thiF	178
cds-AQZ90062.1	yjbV	175
cds-AQZ90063.1	fabI	1530
cds-AQZ90064.1	cotO	8547
cds-AQZ90065.1	cotZ	300
cds-AQZ90066.1	cotY	3181
cds-AQZ90067.1	cotX	379
cds-AQZ90068.1	cotW	74
cds-AQZ90069.1	cotV	765
cds-AQZ90070.1	yjcA	607
cds-AQZ90071.1	yjzK	31
cds-AQZ90072.1	yjcZ	1360
cds-AQZ90073.1	spoVIF	101
cds-AQZ90074.1	yjzE	12
cds-AQZ90075.1	yjcF	317
cds-AQZ90076.1	yjcG	109
cds-AQZ90077.1	yjcH	1146
cds-AQZ90078.1	yjcJ	911
cds-AQZ90079.1	yjcK	22
cds-AQZ90080.1	yjcL	50
cds-AQZ90081.1	yjcM	1
cds-AQZ90082.1	yjcN	2
cds-AQZ90083.1	yjzF	0
cds-AQZ90084.1	yjzG	0
cds-AQZ90085.1	yjcO	3
cds-AQZ90086.1	yjcP	0
cds-AQZ90087.1	yjcQ	0
cds-AQZ90088.1	yjcR	17
cds-AQZ90089.1	yjcS	0
cds-AQZ90090.1	yjdA	4
cds-AQZ90091.1	yjdB	32
cds-AQZ90092.1	manR	14
cds-AQZ90093.1	manA	34
cds-AQZ90094.1	yjdF	19
cds-AQZ90095.1	yjdG	31
cds-AQZ90096.1	yjdH	910
cds-AQZ90097.1	yjdI	107
cds-AQZ90098.1	yjzH	19
cds-AQZ90099.1	yjdJ	7
cds-AQZ90100.1		1
cds-AQZ90101.1	cotT	15083
cds-AQZ90102.1	yjeA	62
cds-AQZ90103.1	yjfA	296
cds-AQZ90104.1	yjfB	6
cds-AQZ90105.1	yjfC	40
cds-AQZ90106.1	yjgA	470
cds-AQZ90107.1	yjgB	22
cds-AQZ90108.1	yjgC	3206
cds-AQZ90109.1	yjgD	106
cds-AQZ90110.1	yjhA	0
cds-AQZ90111.1	yjhB	502
cds-AQZ90112.1	yjiA	2
cds-AQZ90113.1	yjiB	195
cds-AQZ90114.1	yjiC	667
cds-AQZ90115.1	yjzI	10
cds-AQZ90116.1	hemD	459
cds-AQZ90117.1	yjkA	104
cds-AQZ90118.1	yjkB	64
cds-AQZ90119.1	yjlA	332
cds-AQZ90120.1	yjlB	486
cds-AQZ90121.1	rex	107
cds-AQZ90122.1	ndh	5603
cds-AQZ90123.1	exuM	70
cds-AQZ90124.1	yjmC	365
cds-AQZ90125.1	yjmD	526
cds-AQZ90126.1	uxuA	716
cds-AQZ90127.1	yjmF	593
cds-AQZ90128.1	exuT	730
cds-AQZ90129.1	exuR	181
cds-AQZ90130.1	uxaA	87
cds-AQZ90131.1	yjnA	1036
cds-AQZ90132.1	yjoA	81
cds-AQZ90133.1	yjoB	72
cds-AQZ90134.1	rapA	698
cds-AQZ90135.1	phrA	105
cds-AQZ90136.1	yjpA	30
cds-AQZ90137.1	xlyB	392
cds-AQZ90138.1	yjqA	77
cds-AQZ90139.1	yjqB	83
cds-AQZ90140.1	yjqC	840
cds-AQZ90141.1	xkdA	43
cds-AQZ90142.1	xre	6
cds-AQZ90143.1	yjzJ	0
cds-AQZ90144.1	xkdB	2
cds-AQZ90145.1	xkdC	11
cds-AQZ90146.1	ykzK	2
cds-AQZ90147.1	xkdD	3
cds-AQZ90148.1	xtrA	1
cds-AQZ90149.1	xpf	6
cds-AQZ90150.1	xtmA	33
cds-AQZ90151.1	xtmB	56
cds-AQZ90152.1	xkdF	45
cds-AQZ90153.1	xkdG	23
cds-AQZ90154.1	ykzL	55
cds-AQZ90155.1	xkdH	24
cds-AQZ90156.1	xkdI	15
cds-AQZ90157.1	xkdJ	17
cds-AQZ90158.1	ykzM	4
cds-AQZ90159.1	xkdK	100
cds-AQZ90160.1	xkdM	14
cds-AQZ90161.1	xkdN	1
cds-AQZ90162.1	xkzB	0
cds-AQZ90163.1	xkdO	306
cds-AQZ90164.1	xkdP	5
cds-AQZ90165.1	xkdQ	12
cds-AQZ90166.1	xkdR	2
cds-AQZ90167.1	xkdS	1
cds-AQZ90168.1	xkdT	29
cds-AQZ90169.1	xkdU	13
cds-AQZ90170.1	xkzA	1
cds-AQZ90171.1	xkdV	12
cds-AQZ90172.1	xkdW	7
cds-AQZ90173.1	xkdX	0
cds-AQZ90174.1	xepA	27
cds-AQZ90175.1	xhlA	19
cds-AQZ90176.1	xhlB	26
cds-AQZ90177.1	xlyA	554
cds-AQZ90178.1	spoIISB	7
cds-AQZ90179.1	spoIISA	49
cds-AQZ90180.1	pit	530
cds-AQZ90181.1	ykaA	3
cds-AQZ90182.1	ykbA	77
cds-AQZ90183.1	mhqA	73
cds-AQZ90184.1	ykcB	33
cds-AQZ90185.1	ykcC	28
cds-AQZ90186.1	htrA	65
cds-AQZ90187.1	proG	44
cds-AQZ90188.1	dppA	781
cds-AQZ90189.1	dppB	852
cds-AQZ90190.1	dppC	647
cds-AQZ90191.1	dppD	1392
cds-AQZ90192.1	ykfA	792
cds-AQZ90193.1	ykfB	666
cds-AQZ90194.1	ykfC	412
cds-AQZ90195.1	ykfD	1614
cds-AQZ90196.1	ykgB	2161
cds-AQZ90197.1	ykgA	43
cds-AQZ90198.1	hmp	36
cds-AQZ90199.1	ykzH	5
cds-AQZ90200.1	ykjA	229
cds-AQZ90201.1	ykkA	11
cds-AQZ90202.1	ykkB	24
cds-AQZ90203.1	ykkC	49
cds-AQZ90204.1	ykkD	18
cds-AQZ90205.1	purU	253
cds-AQZ90206.1	proB	54
cds-AQZ90207.1	proA	223
cds-AQZ90208.1	ohrA	24
cds-AQZ90209.1	ohrR	37
cds-AQZ90210.1	ohrB	1549
cds-AQZ90211.1	guaD	748
cds-AQZ90212.1	metE	239
cds-AQZ90213.1	ispA	767
cds-AQZ90214.1	rsbRB	309
cds-AQZ90215.1	thiX	40
cds-AQZ90216.1	thiW	83
cds-AQZ90217.1	thiV	22
cds-AQZ90218.1	thiU	30
cds-AQZ90219.1	ykoG	14
cds-AQZ90220.1	ykoH	48
cds-AQZ90221.1	ykoI	7
cds-AQZ90222.1	ykoJ	497
cds-AQZ90223.1	ykzD	70
cds-AQZ90224.1		1837
cds-AQZ90225.1	mgtE	225
cds-AQZ90226.1	tnrA	3
cds-AQZ90227.1	ykzB	9
cds-AQZ90228.1	ykoL	0
cds-AQZ90229.1	ykoM	708
cds-AQZ90230.1	ykoN	110
cds-AQZ90231.1	ykoQ	4
cds-AQZ90232.1	ykoS	277
cds-AQZ90233.1	ykoT	44
cds-AQZ90234.1	ligD	313
cds-AQZ90235.1	ykoV	121
cds-AQZ90236.1	ykoX	305
cds-AQZ90237.1	ykoY	3628
cds-AQZ90238.1	sigI	7
cds-AQZ90239.1	rsgI	67
cds-AQZ90240.1	sspD	105
cds-AQZ90241.1	ykrK	122
cds-AQZ90242.1	ykrL	7915
cds-AQZ90243.1	ktrD	243
cds-AQZ90244.1	ykzP	7
cds-AQZ90245.1	ykzE	6
cds-AQZ90246.1	ykrP	935
cds-AQZ90247.1	kinE	56
cds-AQZ90248.1	ogt	216
cds-AQZ90249.1	mtnA	108
cds-AQZ90250.1	mtnU	336
cds-AQZ90251.1	ykrV	122
cds-AQZ90252.1	mtnW	110
cds-AQZ90253.1	mtnX	12
cds-AQZ90254.1	mtnB	16
cds-AQZ90255.1	mtnD	61
cds-AQZ90256.1	ykvA	10
cds-AQZ90257.1	spo0E	23
cds-AQZ90258.1	eag	24
cds-AQZ90259.1	kinD	866
cds-AQZ90260.1	mhqR	5
cds-AQZ90261.1	motB	70
cds-AQZ90262.1	motA	68
cds-AQZ90263.1	clpE	40
cds-AQZ90264.1	ykvI	403
cds-AQZ90265.1	queC	63
cds-AQZ90266.1	queD	20
cds-AQZ90267.1	queE	45
cds-AQZ90268.1	ykvM	5
cds-AQZ90269.1	ykvN	0
cds-AQZ90270.1	ykvO	2
cds-AQZ90271.1	ykvP	16
cds-AQZ90272.1	ykzQ	0
cds-AQZ90273.1	ykvQ	17
cds-AQZ90274.1	ykvR	1
cds-AQZ90275.1	ykvS	1
cds-AQZ90276.1	ykzS	41
cds-AQZ90277.1	ykvT	11
cds-AQZ90278.1	ykvU	938
cds-AQZ90279.1	stoA	77
cds-AQZ90280.1	zosA	324
cds-AQZ90281.1		51
cds-AQZ90282.1	ykvY	467
cds-AQZ90283.1	ykvZ	17
cds-AQZ90284.1	glcT	37
cds-AQZ90285.1	ptsG	604
cds-AQZ90286.1	ptsH	19
cds-AQZ90287.1	ptsI	1043
cds-AQZ90288.1	splA	12
cds-AQZ90289.1	splB	45
cds-AQZ90290.1	ykwB	31
cds-AQZ90291.1	mcpC	13
cds-AQZ90292.1	ykwC	14
cds-AQZ90293.1	ykwD	2
cds-AQZ90294.1	kinA	104
cds-AQZ90295.1	patA	1163
cds-AQZ90296.1	ykzT	0
cds-AQZ90297.1	cheV	5
cds-AQZ90298.1	ykyB	30
cds-AQZ90299.1	ykuC	2541
cds-AQZ90300.1	ykuE	395
cds-AQZ90301.1	ykuF	436
cds-AQZ90302.1	ykuH	1
cds-AQZ90303.1	ykuI	140
cds-AQZ90304.1	ykuJ	3
cds-AQZ90305.1	ykuK	114
cds-AQZ90306.1	ykzF	28
cds-AQZ90307.1	ykuL	6
cds-AQZ90308.1	ccpC	13
cds-AQZ90309.1	ykuN	17
cds-AQZ90310.1	ykuO	419
cds-AQZ90311.1	ykuP	25
cds-AQZ90312.1	dapH	156
cds-AQZ90313.1	dapL	253
cds-AQZ90314.1	ykuS	40
cds-AQZ90315.1	ykuT	226
cds-AQZ90316.1	ykuU	95
cds-AQZ90317.1	ykuV	109
cds-AQZ90318.1	rok	77
cds-AQZ90319.1	yknT	93
cds-AQZ90320.1	mobA	5
cds-AQZ90321.1	moeB	233
cds-AQZ90322.1	moeA	795
cds-AQZ90323.1	mobB	233
cds-AQZ90324.1	moaE	37
cds-AQZ90325.1	moaD	6
cds-AQZ90326.1	yknU	303
cds-AQZ90327.1	yknV	188
cds-AQZ90328.1	yknW	293
cds-AQZ90329.1	yknX	66
cds-AQZ90330.1	yknY	294
cds-AQZ90331.1	yknZ	658
cds-AQZ90332.1	fruR	4
cds-AQZ90333.1	fruK	30
cds-AQZ90334.1	fruA	638
cds-AQZ90335.1	sipT	147
cds-AQZ90336.1	ykoA	12
cds-AQZ90337.1	ykpA	635
cds-AQZ90338.1	ykpB	45
cds-AQZ90339.1	ampS	55
cds-AQZ90340.1	ykpC	12
cds-AQZ90341.1	abh	4
cds-AQZ90342.1	kinC	426
cds-AQZ90343.1	ykqA	203
cds-AQZ90344.1	ktrC	46
cds-AQZ90345.1	adeC	61
cds-AQZ90346.1	rnjA	565
cds-AQZ90347.1	ykzG	9
cds-AQZ90348.1	ykrA	28
cds-AQZ90349.1	def	33
cds-AQZ90350.1	ykzV	6178
cds-AQZ90351.1	ykyA	9
cds-AQZ90352.1	pdhA	2002
cds-AQZ90353.1	pdhB	1142
cds-AQZ90354.1	pdhC	570
cds-AQZ90355.1	pdhD	906
cds-AQZ90356.1	slp	5
cds-AQZ90357.1	ykzW	18
cds-AQZ90358.1	speA	81
cds-AQZ90359.1	yktA	2
cds-AQZ90360.1	yktB	45
cds-AQZ90361.1	suhB	54
cds-AQZ90362.1	yktD	8
cds-AQZ90363.1	nprE	348
cds-AQZ90364.1	ylaA	10
cds-AQZ90365.1	ylaB	0
cds-AQZ90366.1	ylaD	4
cds-AQZ90367.1	ylaE	24
cds-AQZ90368.1	ylaF	526
cds-AQZ90369.1	bipA	1844
cds-AQZ90370.1	ylaH	1512
cds-AQZ90371.1	ylaI	3
cds-AQZ90372.1	ylaJ	80
cds-AQZ90373.1	ylaK	409
cds-AQZ90374.1	ylaL	673
cds-AQZ90375.1	ylaM	45
cds-AQZ90376.1	ylaN	70
cds-AQZ90377.1	ftsW	210
cds-AQZ90378.1	pycA	1637
cds-AQZ90379.1	ctaA	678
cds-AQZ90380.1	ctaB	2682
cds-AQZ90381.1	ctaC	222
cds-AQZ90382.1	ctaD	15684
cds-AQZ90383.1	ctaE	3385
cds-AQZ90384.1	ctaF	531
cds-AQZ90385.1	ctaG	2031
cds-AQZ90386.1	ylbA	189
cds-AQZ90387.1	ylbB	78
cds-AQZ90388.1	ylbC	492
cds-AQZ90389.1	ylbD	24
cds-AQZ90390.1	ylbE	12
cds-AQZ90391.1	ylbF	2437
cds-AQZ90392.1	ylbH	81
cds-AQZ90393.1	coaD	154
cds-AQZ90394.1	ylbJ	1342
cds-AQZ90395.1	ylbK	127
cds-AQZ90396.1	ylbL	11
cds-AQZ90397.1	ylbM	50
cds-AQZ90398.1	ylzH	0
cds-AQZ90399.1	ylbN	43
cds-AQZ90400.1	rmpF	140
cds-AQZ90401.1	ylbO	143
cds-AQZ90402.1	ylbP	59
cds-AQZ90403.1	ylbQ	134
cds-AQZ90404.1	yllA	53
cds-AQZ90405.1	mraW	1535
cds-AQZ90406.1	ftsL	399
cds-AQZ90407.1	pbpB	846
cds-AQZ90408.1	spoVD	503
cds-AQZ90409.1	murE	113
cds-AQZ90410.1	mraY	299
cds-AQZ90411.1	murD	1179
cds-AQZ90412.1	spoVE	5519
cds-AQZ90413.1	murG	191
cds-AQZ90414.1	murB	232
cds-AQZ90415.1	divIB	5
cds-AQZ90416.1	ylxW	57
cds-AQZ90417.1	ylxX	44
cds-AQZ90418.1	sbp	1
cds-AQZ90419.1	ftsA	428
cds-AQZ90420.1	ftsZ	672
cds-AQZ90421.1	bpr	3072
cds-AQZ90422.1	sigE	49
cds-AQZ90423.1	sigG	58
cds-AQZ90424.1	ylmA	403
cds-AQZ90425.1	ylmC	33
cds-AQZ90426.1	ylmD	472
cds-AQZ90427.1	ylmE	222
cds-AQZ90428.1	ylmG	1037
cds-AQZ90429.1	ylmH	501
cds-AQZ90430.1	divIVA	6
cds-AQZ90431.1	ileS	229
cds-AQZ90432.1	ylyA	5
cds-AQZ90433.1	lspA	19
cds-AQZ90434.1	rluD	239
cds-AQZ90435.1	pyrR	65
cds-AQZ90436.1	pyrP	320
cds-AQZ90437.1	pyrB	2
cds-AQZ90438.1	pyrC	7
cds-AQZ90439.1	pyrAA	4
cds-AQZ90440.1	carB	36
cds-AQZ90441.1	pyrK	12
cds-AQZ90442.1	pyrD	11
cds-AQZ90443.1	pyrF	7
cds-AQZ90444.1	pyrE	11
cds-AQZ90445.1	cysH	122
cds-AQZ90446.1	cysP	548
cds-AQZ90447.1	sat	26
cds-AQZ90448.1	cysC	99
cds-AQZ90449.1	sumT	398
cds-AQZ90450.1	sirB	109
cds-AQZ90451.1	sirC	107
cds-AQZ90452.1	yloA	170
cds-AQZ90453.1	yloB	11079
cds-AQZ90454.1	yloC	443
cds-AQZ90455.1	ylzA	86
cds-AQZ90456.1	gmk	102
cds-AQZ90457.1	rpoZ	9
cds-AQZ90458.1	coaBC	263
cds-AQZ90459.1	priA	627
cds-AQZ90460.1	def	48
cds-AQZ90461.1	fmt	228
cds-AQZ90462.1	rsmB	335
cds-AQZ90463.1	yloN	119
cds-AQZ90464.1	prpC	150
cds-AQZ90465.1	prkC	102
cds-AQZ90466.1	yloQ	109
cds-AQZ90467.1	rpe	426
cds-AQZ90468.1	thiN	31
cds-AQZ90469.1	spoVM	80
cds-AQZ90470.1	rpmB	171
cds-AQZ90471.1	yloU	22
cds-AQZ90472.1	yloV	642
cds-AQZ90473.1	sdaAB	61
cds-AQZ90474.1	sdaAA	967
cds-AQZ90475.1	recG	229
cds-AQZ90476.1	ylpC	17
cds-AQZ90477.1	plsX	122
cds-AQZ90478.1	fabD	52
cds-AQZ90479.1	fabG	237
cds-AQZ90480.1	acpP	94
cds-AQZ90481.1	rnc	327
cds-AQZ90482.1	smc	317
cds-AQZ90483.1	ftsY	158
cds-AQZ90484.1	ylqB	9
cds-AQZ90485.1	ylxM	17
cds-AQZ90486.1	ffh	1813
cds-AQZ90487.1	rpsP	48
cds-AQZ90488.1	ylqC	34
cds-AQZ90489.1	ylqD	3
cds-AQZ90490.1	rimM	7
cds-AQZ90491.1	trmD	104
cds-AQZ90492.2	rplS	14816
cds-AQZ90493.1	rbgA	280
cds-AQZ90494.1	rnhB	23
cds-AQZ90495.1	ylqG	404
cds-AQZ90496.1	ylqH	3
cds-AQZ90497.1	sucC	36
cds-AQZ90498.1	sucD	291
cds-AQZ90499.1	dprA	50
cds-AQZ90500.1	topA	230
cds-AQZ90501.1	gid	95
cds-AQZ90502.1	xerC	125
cds-AQZ90503.1	clpQ	77
cds-AQZ90504.1	hslU	283
cds-AQZ90505.1	codY	34
cds-AQZ90506.1	flgB	0
cds-AQZ90507.1	flgC	0
cds-AQZ90508.1	fliF	7
cds-AQZ90509.1	fliG	7
cds-AQZ90510.1	fliH	3
cds-AQZ90511.1	fliI	52
cds-AQZ90512.1	fliJ	2
cds-AQZ90513.1	ylxF	2
cds-AQZ90514.1	fliK	7
cds-AQZ90515.1	flgD	0
cds-AQZ90516.1	flgG	1
cds-AQZ90517.1	ylzI	2
cds-AQZ90518.1	fliL	0
cds-AQZ90519.1	fliM	5
cds-AQZ90520.1	fliY	21
cds-AQZ90521.1	cheY	4
cds-AQZ90522.1	fliZ	5
cds-AQZ90523.1	fliP	2
cds-AQZ90524.1	fliQ	5
cds-AQZ90525.1	fliR	4
cds-AQZ90526.1	flhB	5
cds-AQZ90527.1	flhA	29
cds-AQZ90528.1	flhF	48
cds-AQZ90529.1	ylxH	15
cds-AQZ90530.1	cheB	32
cds-AQZ90531.1	cheA	32
cds-AQZ90532.1	cheW	2
cds-AQZ90533.1	cheC	96
cds-AQZ90534.1	cheD	30
cds-AQZ90535.1	sigD	29
cds-AQZ90536.1	ylxL	31
cds-AQZ90537.1	rpsB	123
cds-AQZ90538.1	tsf	168
cds-AQZ90539.1	pyrH	290
cds-AQZ90540.1	frr	11
cds-AQZ90541.1	uppS	25
cds-AQZ90542.1	cdsA	122
cds-AQZ90543.1	dxr	46
cds-AQZ90544.1	rseP	210
cds-AQZ90545.1	proS	435
cds-AQZ90546.1	polC	439
cds-AQZ90547.1	ylxS	224
cds-AQZ90548.1	nusA	159
cds-AQZ90549.1	ylxR	14
cds-AQZ90550.1	ylxQ	17
cds-AQZ90551.1	infB	2034
cds-AQZ90552.1	ylxP	3046
cds-AQZ90553.1	rbfA	66
cds-AQZ90554.1	truB	91
cds-AQZ90555.1	ribC	54
cds-AQZ90556.1	rpsO	106
cds-AQZ90557.1	pnpA	1785
cds-AQZ90558.1	ylxY	13
cds-AQZ90559.1	mlpA	87
cds-AQZ90560.1	ymxH	196
cds-AQZ90561.1	spoVFA	312
cds-AQZ90562.1	spoVFB	144
cds-AQZ90563.1	asd	440
cds-AQZ90564.1	dapG	909
cds-AQZ90565.1	dapA	1595
cds-AQZ90566.1	rnjB	290
cds-AQZ90567.1	tepA	79
cds-AQZ90568.1	ylzJ	2
cds-AQZ90569.1	spoIIIE	263
cds-AQZ90570.1	ymfC	31
cds-AQZ90571.1	ymfF	357
cds-AQZ90572.1	ymfH	461
cds-AQZ90573.1	fabG	70
cds-AQZ90574.1	ymfJ	180
cds-AQZ90575.1		115
cds-AQZ90576.2	ymfM	23
cds-AQZ90577.1	pgsA	79
cds-AQZ90578.1	cinA	242
cds-AQZ90579.1	recA	726
cds-AQZ90580.1	pbpX	6
cds-AQZ90581.1	ymdA	14501
cds-AQZ90582.1	ymdB	72
cds-AQZ90583.1	spoVS	2438
cds-AQZ90584.1	tdh	369
cds-AQZ90585.1	kbl	997
cds-AQZ90586.1	ymcB	86
cds-AQZ90587.1	ymcA	38
cds-AQZ90588.1	cotE	79
cds-AQZ90589.1	mutS	115
cds-AQZ90590.1	mutL	691
cds-AQZ90591.1	ymzD	11
cds-AQZ90592.1	ymcC	35
cds-AQZ90593.1	pksA	47
cds-AQZ90594.1	pksB	4
cds-AQZ90595.1	pksC	22
cds-AQZ90596.1	pksD	14
cds-AQZ90597.1	pksE	15
cds-AQZ90598.1	acpK	6
cds-AQZ90599.1	pksF	100
cds-AQZ90600.1	pksG	128
cds-AQZ90601.1	pksH	30
cds-AQZ90602.1	pksI	23
cds-AQZ90603.1	pksJ	1570
cds-AQZ90604.1	pksL	2427
cds-AQZ90605.1	pksM	1098
cds-AQZ90606.1	pksR	1143
cds-AQZ90607.1	pksS	93
cds-AQZ90608.1	ymzB	13
cds-AQZ90609.1	ymaE	31
cds-AQZ90610.1	aprX	616
cds-AQZ90611.1	ymaC	9
cds-AQZ90612.1	ymaD	32
cds-AQZ90613.1	ebrB	43
cds-AQZ90614.1	ebrA	22
cds-AQZ90615.1	ymaG	3473
cds-AQZ90616.1	ymaF	100
cds-AQZ90617.1	miaA	34
cds-AQZ90618.1	hfq	43
cds-AQZ90619.1	ymzC	7
cds-AQZ90620.1	ymzA	4
cds-AQZ90621.1	nrdI	10
cds-AQZ90622.1	nrdE	96
cds-AQZ90623.1	nrdF	19
cds-AQZ90624.1	ymaB	78
cds-AQZ90625.1	cwlC	92
cds-AQZ90626.1		0
cds-AQZ90627.1	spoVK	47
cds-AQZ90628.1	ynbA	153
cds-AQZ90629.1	ynbB	71
cds-AQZ90630.1	glnR	8
cds-AQZ90631.1	glnA	324
cds-AQZ90632.1	ynxB	1
cds-AQZ90633.1	ynzF	3
cds-AQZ90634.1	ynzG	6
cds-AQZ90635.1	ynaC	4
cds-AQZ90636.1	ynaD	1
cds-AQZ90637.1	ynaE	1
cds-AQZ90638.1	ynaF	0
cds-AQZ90639.1	ynaG	0
cds-AQZ90640.1	ynzI	1
cds-AQZ90641.1	ynaI	1
cds-AQZ90642.1	xynP	1
cds-AQZ90643.1	xynB	16
cds-AQZ90644.2	xylR	10
cds-AQZ90645.1	xylA	28
cds-AQZ90646.1	xylB	9
cds-AQZ90647.1	yncB	1
cds-AQZ90648.1	yncC	37
cds-AQZ90649.1	alrB	118
cds-AQZ90650.1	yncE	3
cds-AQZ90651.1	yncF	97
cds-AQZ90652.1	cotU	1
cds-AQZ90653.1	thyA	6
cds-AQZ90654.1		0
cds-AQZ90655.1	yncM	212
cds-AQZ90656.1	ynzK	0
cds-AQZ90657.1	cotC	4
cds-AQZ90658.1	tatAC	14
cds-AQZ90659.1	yndA	229
cds-AQZ90660.1	yndB	1051
cds-AQZ90661.1		25
cds-AQZ90662.1	ynzB	9
cds-AQZ90663.1	yndD	63
cds-AQZ90664.1	yndE	6
cds-AQZ90665.1	yndF	57
cds-AQZ90666.1	yndG	23
cds-AQZ90667.1	yndH	11
cds-AQZ90668.1	yndJ	96
cds-AQZ90669.1	yndK	12
cds-AQZ90670.1	yndL	207
cds-AQZ90671.1	yndM	33
cds-AQZ90672.1	yndN	2
cds-AQZ90673.1	lexA	80
cds-AQZ90674.1	yneA	1
cds-AQZ90675.1	yneB	4
cds-AQZ90676.1	ynzC	3
cds-AQZ90677.1	tkt	3589
cds-AQZ90678.1	yneE	14
cds-AQZ90679.1	yneF	6
cds-AQZ90680.1	ccdA	178
cds-AQZ90681.1	yneI	22
cds-AQZ90682.1	yneJ	45
cds-AQZ90683.1	yneK	15
cds-AQZ90684.1	cotM	37
cds-AQZ90685.1	sspP	16
cds-AQZ90686.1	citB	5345
cds-AQZ90687.1	yneN	62
cds-AQZ90688.1	ynzL	0
cds-AQZ90689.1	sspN	4
cds-AQZ90690.1	tlp	2
cds-AQZ90691.2	yneP	5
cds-AQZ90692.1	yneQ	9
cds-AQZ90693.1	yneR	141
cds-AQZ90694.1	yneS	71
cds-AQZ90695.1	yneT	402
cds-AQZ90696.1	parE	68
cds-AQZ90697.1	parC	148
cds-AQZ90698.1	ynfC	74
cds-AQZ90699.1	alsT	43
cds-AQZ90700.1	eglS	106
cds-AQZ90701.1	ynfE	1
cds-AQZ90702.1	xynC	31
cds-AQZ90703.1	xynD	168
cds-AQZ90704.1		5
cds-AQZ90705.1	yngA	3
cds-AQZ90706.1	yngB	82
cds-AQZ90707.1	yngC	627
cds-AQZ90708.1	yngD	148
cds-AQZ90709.1	yngE	1545
cds-AQZ90710.1	yngF	375
cds-AQZ90711.1	yngG	318
cds-AQZ90712.1	yngHB	48
cds-AQZ90713.1	yngH	604
cds-AQZ90714.1	yngI	1569
cds-AQZ90715.1	yngJ	2860
cds-AQZ90716.1	ynzE	5
cds-AQZ90717.1	yngK	108
cds-AQZ90718.1	yngL	11
cds-AQZ90719.1	ppsE	743
cds-AQZ90720.1	ppsD	2217
cds-AQZ90721.1	ppsC	1961
cds-AQZ90722.1	ppsB	431
cds-AQZ90723.1	ppsA	1304
cds-AQZ90724.1	dacC	500
cds-AQZ90725.1	yoxA	240
cds-AQZ90726.1	yoeA	767
cds-AQZ90727.1	iseA	13
cds-AQZ90728.1	yoeC	5
cds-AQZ90729.1	yoeD	0
cds-AQZ90730.1	ggt	149
cds-AQZ90731.1	ftsR	69
cds-AQZ90732.1	yogA	58
cds-AQZ90733.1	gltD	226
cds-AQZ90734.1	gltA	1074
cds-AQZ90735.1	gltC	34
cds-AQZ90736.1	proJ	58
cds-AQZ90737.1	proH	84
cds-AQZ90738.1	rtp	2
cds-AQZ90739.1	fabG	178
cds-AQZ90740.1	yoxC	40
cds-AQZ90741.1	yoxB	131
cds-AQZ90742.1	yoaA	28
cds-AQZ90743.1	yoaB	156
cds-AQZ90744.1	yoaC	38
cds-AQZ90745.1	yoaD	7
cds-AQZ90746.1	yoaE	124
cds-AQZ90747.1	yoaF	5
cds-AQZ90748.1	yoaG	6
cds-AQZ90749.1		0
cds-AQZ90750.1	yozQ	3
cds-AQZ90751.1	yoaH	36
cds-AQZ90752.1	yoaI	16
cds-AQZ90753.1	exlX	93
cds-AQZ90754.1	yoaK	4
cds-AQZ90755.1	pelB	10
cds-AQZ90756.1	yoaM	4
cds-AQZ90757.1	yozS	0
cds-AQZ90758.1	yoaN	232
cds-AQZ90759.1	yoaO	8
cds-AQZ90760.1	yoaP	2
cds-AQZ90761.1	yoaQ	2
cds-AQZ90762.1	yozT	2
cds-AQZ90763.1	yozF	18
cds-AQZ90764.1	yoaR	97
cds-AQZ90765.1	yoaS	2
cds-AQZ90766.1	yozG	2
cds-AQZ90767.1	yoaT	173
cds-AQZ90768.1	yoaU	19
cds-AQZ90769.1	cyeA	56
cds-AQZ90770.1	yoaW	4
cds-AQZ90771.1	yoaZ	4
cds-AQZ90772.1	penP	52
cds-AQZ90773.1	yobA	0
cds-AQZ90774.1		1
cds-AQZ90775.1	yobB	162
cds-AQZ90776.1	pps	183
cds-AQZ90777.1	xynA	71
cds-AQZ90778.1	yozV	0
cds-AQZ90779.1	yobD	0
cds-AQZ90780.1	yozI	0
cds-AQZ90781.1	yobE	13
cds-AQZ90782.1	yobF	1
cds-AQZ90783.1	yozW	1
cds-AQZ90784.1	yozX	1
cds-AQZ90785.1	yozJ	0
cds-AQZ90786.1	yozY	19
cds-AQZ90787.1	rapK	6
cds-AQZ90788.1	phrK	4
cds-AQZ90789.1	yozL	0
cds-AQZ90790.1	yozM	1
cds-AQZ90791.1	yobI	3
cds-AQZ90792.1		0
cds-AQZ90793.1	yobJ	4
cds-AQZ90794.1	yobK	0
cds-AQZ90795.1	yobL	69
cds-AQZ90796.1	yobO	489
cds-AQZ90797.1	csaA	327
cds-AQZ90798.1	yobQ	12
cds-AQZ90799.1	yobR	26
cds-AQZ90800.1	yobS	9
cds-AQZ90801.1	yobT	44
cds-AQZ90802.1	yobU	6
cds-AQZ90803.1	yobV	30
cds-AQZ90804.1	yobW	428
cds-AQZ90805.1	czrA	37
cds-AQZ90806.1	yocA	291
cds-AQZ90807.1	yozB	426
cds-AQZ90808.1	yocB	36
cds-AQZ90809.1	yocC	0
cds-AQZ90810.1	yocD	59
cds-AQZ90811.1	des	1702
cds-AQZ90812.1	desK	7
cds-AQZ90813.1	desR	23
cds-AQZ90814.1	yocH	1147
cds-AQZ90815.1	recQ	17
cds-AQZ90816.1		0
cds-AQZ90817.1	azoR1	11
cds-AQZ90818.1	yocK	10
cds-AQZ90819.1	yocL	3
cds-AQZ90820.1	yoyB	7
cds-AQZ90821.1	yocM	151
cds-AQZ90822.1	yozN	116
cds-AQZ90823.1	yocN	115
cds-AQZ90824.1	yozO	8
cds-AQZ90825.1	yozC	4
cds-AQZ90826.1	dhaS	15666
cds-AQZ90827.1	sqhC	1274
cds-AQZ90828.1	sodF	316
cds-AQZ90829.1	yocR	63
cds-AQZ90830.1	yocS	117
cds-AQZ90831.1	odhB	248
cds-AQZ90832.1	sucA	1835
cds-AQZ90833.1	yojO	112
cds-AQZ90834.1	yojN	5
cds-AQZ90835.1	sodC	212
cds-AQZ90836.1	cwlS	102
cds-AQZ90837.1	yojK	8
cds-AQZ90838.1	yojI	339
cds-AQZ90839.1	rsbRC	33
cds-AQZ90840.1	yojG	36
cds-AQZ90841.1	yojF	8
cds-AQZ90842.1	yoyC	31
cds-AQZ90843.1	yojE	189
cds-AQZ90844.1	gerT	33
cds-AQZ90845.1	yojB	4024
cds-AQZ90846.1	yojA	101
cds-AQZ90847.1	yodA	4
cds-AQZ90848.1	yodB	20
cds-AQZ90849.1	yodC	108
cds-AQZ90850.1	yodD	301
cds-AQZ90851.1	yodE	41
cds-AQZ90852.1	yoyD	10
cds-AQZ90853.1	yodF	452
cds-AQZ90854.1	ctpA	60
cds-AQZ90855.1	yodH	551
cds-AQZ90856.1	yodI	26
cds-AQZ90857.1	yodJ	43
cds-AQZ90858.1	deoD	26
cds-AQZ90859.1	yoyE	29
cds-AQZ90860.1	yodL	90
cds-AQZ90861.1	yodM	37
cds-AQZ90862.1	yozD	4
cds-AQZ90863.1	yoyF	13
cds-AQZ90864.1	yodN	88
cds-AQZ90865.1		1
cds-AQZ90866.1	yozE	18
cds-AQZ90867.1	yokU	92
cds-AQZ90868.1	kamA	2021
cds-AQZ90869.1	yodP	462
cds-AQZ90870.1	yodQ	309
cds-AQZ90871.1	yodR	431
cds-AQZ90872.1	yodS	379
cds-AQZ90873.1	yodT	655
cds-AQZ90874.1	yoyG	22
cds-AQZ90875.1	cgeE	32
cds-AQZ90876.1	cgeD	70
cds-AQZ90877.1	cgeC	10
cds-AQZ90878.1	cgeA	939
cds-AQZ90879.1	cgeB	2895
cds-AQZ90880.1	phy	8
cds-AQZ90881.1		156
cds-AQZ90882.1	yotN	2
cds-AQZ90883.1	yotM	0
cds-AQZ90884.1	yotL	0
cds-AQZ90885.1	yotK	4
cds-AQZ90886.1	yotJ	0
cds-AQZ90887.1	yotI	1
cds-AQZ90888.1	yotG	0
cds-AQZ90889.1	yotE	0
cds-AQZ90890.1	yotD	0
cds-AQZ90891.1	yotC	0
cds-AQZ90892.1	yotB	0
cds-AQZ90893.1	sspC	2
cds-AQZ90894.1	yosX	1
cds-AQZ90895.1	yosW	0
cds-AQZ90896.1	yosV	0
cds-AQZ90897.1	yojW	0
cds-AQZ90898.1	yosU	0
cds-AQZ90899.1	yosT	0
cds-AQZ90900.1	yosS	0
cds-AQZ90901.1	yosR	0
cds-AQZ90902.2	nrdFB	1
cds-AQZ90903.1	yosQ	1
cds-AQZ90905.2	nrdEB	16
cds-AQZ90907.1	yosL	0
cds-AQZ90908.1	yosK	2
cds-AQZ90909.1	yosJ	1
cds-AQZ90910.1	yosI	0
cds-AQZ90911.1	yosH	1
cds-AQZ90912.1	yosG	0
cds-AQZ90913.1	yosF	0
cds-AQZ90914.1	yosE	0
cds-AQZ90915.1	yosD	4
cds-AQZ90916.1	yosC	3
cds-AQZ90917.1	yosB	0
cds-AQZ90918.1	yosA	530
cds-AQZ90919.1	yorZ	1
cds-AQZ90920.1	yorY	0
cds-AQZ90921.1	yorX	0
cds-AQZ90922.1	yorW	0
cds-AQZ90923.1	yorV	0
cds-AQZ90924.1	mtbP	3
cds-AQZ90925.1	yorT	0
cds-AQZ90926.1	yorS	0
cds-AQZ90927.1	yorR	0
cds-AQZ90928.1	yorQ	0
cds-AQZ90929.1	yorO	0
cds-AQZ90930.1	yorN	0
cds-AQZ90931.1	yorM	0
cds-AQZ90932.1	yorL	3
cds-AQZ90933.1	yorK	0
cds-AQZ90934.1	yorJ	0
cds-AQZ90935.1	yorI	1
cds-AQZ90936.1	yorH	0
cds-AQZ90937.1	yorG	2
cds-AQZ90938.1	yorF	0
cds-AQZ90939.1	yorE	0
cds-AQZ90940.1	yorD	1
cds-AQZ90941.1	yorC	0
cds-AQZ90942.1	yorB	0
cds-AQZ90943.1	yorA	3
cds-AQZ90944.1	yoqZ	17
cds-AQZ90945.1	yoqY	17
cds-AQZ90946.1	yoqX	1
cds-AQZ90947.1	yoqW	4
cds-AQZ90948.1	ligB	0
cds-AQZ90949.1	yoqU	0
cds-AQZ90950.1	yoqT	0
cds-AQZ90951.1	yoqS	1
cds-AQZ90952.1	yoqR	0
cds-AQZ90953.1	yoqP	0
cds-AQZ90954.1	yoqO	1
cds-AQZ90955.1	yoqN	0
cds-AQZ90956.1	yoqM	39
cds-AQZ90957.1	yoqL	10
cds-AQZ90958.1	yoqK	3
cds-AQZ90959.2	yoqJ	1
cds-AQZ90960.1	yoqI	1
cds-AQZ90961.1	yoqH	3
cds-AQZ90962.1	yoqG	0
cds-AQZ90963.1	yoqF	0
cds-AQZ90964.1	yoqE	0
cds-AQZ90965.1	yoqD	1
cds-AQZ90966.1	yoqC	0
cds-AQZ90967.1	yoqB	0
cds-AQZ90968.1	yoqA	0
cds-AQZ90969.1	yopZ	1
cds-AQZ90970.1	yopY	0
cds-AQZ90971.1	yopX	0
cds-AQZ90972.1	yopW	0
cds-AQZ90973.1	yopV	1
cds-AQZ90974.1	yopU	1
cds-AQZ90975.1	yopT	0
cds-AQZ90976.1	yopS	74
cds-AQZ90977.1	yopR	4
cds-AQZ90978.1	yopQ	3
cds-AQZ90979.1	yopP	2
cds-AQZ90980.1	yopO	0
cds-AQZ90981.1	yopN	0
cds-AQZ90982.1	yopM	0
cds-AQZ90983.1	yopL	0
cds-AQZ90984.1	yopK	0
cds-AQZ90985.1	yopJ	2
cds-AQZ90986.1	yopI	0
cds-AQZ90987.1	yopH	0
cds-AQZ90988.1	yopG	0
cds-AQZ90989.1	yopF	1
cds-AQZ90990.1	yopE	0
cds-AQZ90991.1	yoyH	1
cds-AQZ90992.1	yoyI	0
cds-AQZ90993.1	yopD	7
cds-AQZ90994.1	yopC	12
cds-AQZ90995.1	yopB	0
cds-AQZ90996.1	yopA	2
cds-AQZ90997.1	yonX	0
cds-AQZ90998.1	yonV	1
cds-AQZ90999.1	yonU	1
cds-AQZ91000.1	yoyJ	1
cds-AQZ91001.1	yonT	37
cds-AQZ91002.1	yonS	4
cds-AQZ91003.1	yonR	0
cds-AQZ91004.1	yonP	0
cds-AQZ91005.1	yonO	2
cds-AQZ91006.1	yonN	1
cds-AQZ91007.1	yonK	0
cds-AQZ91008.1	yonJ	1
cds-AQZ91009.1	yonI	1
cds-AQZ91010.1	yonH	0
cds-AQZ91011.1	yonG	0
cds-AQZ91012.1	yonF	1
cds-AQZ91013.1	yonE	3
cds-AQZ91014.1	yonD	0
cds-AQZ91015.1	yonC	0
cds-AQZ91016.1	yonB	0
cds-AQZ91017.1	yonA	0
cds-AQZ91018.1	yomZ	0
cds-AQZ91019.1	yomY	0
cds-AQZ91020.1	yomX	1
cds-AQZ91021.1	yomW	0
cds-AQZ91022.1	yomV	0
cds-AQZ91023.1	yomU	0
cds-AQZ91024.1	youA	0
cds-AQZ91025.1	yomT	0
cds-AQZ91026.1	yomS	2
cds-AQZ91027.1	yomR	4
cds-AQZ91028.1	yomQ	0
cds-AQZ91029.1	yomP	0
cds-AQZ91030.1	yomO	0
cds-AQZ91031.1	yomN	3
cds-AQZ91032.1	yomM	7
cds-AQZ91033.1	yozP	0
cds-AQZ91034.1	yomL	9
cds-AQZ91035.1	youB	1
cds-AQZ91036.1	yomK	0
cds-AQZ91037.1	yomJ	4
cds-AQZ91038.1	yomI	51
cds-AQZ91039.1	yomH	0
cds-AQZ91040.1	yomG	3
cds-AQZ91041.1	yomF	0
cds-AQZ91042.1	yomE	1
cds-AQZ91043.1	yomD	0
cds-AQZ91044.1		0
cds-AQZ91045.1	blyA	0
cds-AQZ91046.1	bhlA	0
cds-AQZ91047.1	bhlB	0
cds-AQZ91048.1	bdbB	0
cds-AQZ91049.1	yolJ	1
cds-AQZ91050.1	bdbA	0
cds-AQZ91051.1	sunT	1
cds-AQZ91052.1	sunA	39
cds-AQZ91053.1	sunI	1
cds-AQZ91054.1	uvrX	0
cds-AQZ91055.1	yolD	0
cds-AQZ91056.1	yolC	1
cds-AQZ91057.1	yolB	6
cds-AQZ91058.1	yolA	5
cds-AQZ91059.1	yokL	2
cds-AQZ91060.1	yokK	1
cds-AQZ91061.1	yokJ	0
cds-AQZ91062.1	yokI	37
cds-AQZ91063.1	yokH	7
cds-AQZ91064.1		2
cds-AQZ91065.1	yokG	2
cds-AQZ91066.1	yokF	0
cds-AQZ91067.1	yokE	1
cds-AQZ91068.1	yokD	13
cds-AQZ91069.1	yokC	1
cds-AQZ91070.1	yokB	0
cds-AQZ91071.1	yokA	6
cds-AQZ91072.1	yppQ	41
cds-AQZ91073.1	msrA	38
cds-AQZ91074.1	ypoP	3
cds-AQZ91075.1	dinF	149
cds-AQZ91076.1	ypmT	7
cds-AQZ91077.1	ypmS	3
cds-AQZ91078.1	ypmR	6
cds-AQZ91079.1	scuA	8
cds-AQZ91080.1	ypmP	60
cds-AQZ91081.1	ilvA	101
cds-AQZ91082.1	yplP	36
cds-AQZ91083.1	yplQ	538
cds-AQZ91084.1	ypkP	680
cds-AQZ91085.1	dfrA	103
cds-AQZ91086.1	thyA	145
cds-AQZ91087.1	ypjQ	203
cds-AQZ91088.1	ypjP	1091
cds-AQZ91089.1	ypiP	255
cds-AQZ91090.1	yphP	319
cds-AQZ91091.1	ilvD	877
cds-AQZ91092.1	ypgR	195
cds-AQZ91093.1	ypgQ	22
cds-AQZ91094.1	bsaA	1
cds-AQZ91095.1	metA	21
cds-AQZ91096.1	ugtP	376
cds-AQZ91097.1	cspD	30
cds-AQZ91098.1	degR	1
cds-AQZ91099.1	ypzA	158
cds-AQZ91100.1	ypeQ	1
cds-AQZ91101.1	ypeP	66
cds-AQZ91102.1	ypdP	307
cds-AQZ91103.1	rnhA	7
cds-AQZ91104.1	sspL	21
cds-AQZ91105.1	exoA	289
cds-AQZ91106.1	ypzF	35
cds-AQZ91107.1	ypbS	13
cds-AQZ91108.1	ypbR	69
cds-AQZ91109.1		0
cds-AQZ91110.1	ypbQ	50
cds-AQZ91111.2	bcsA	143
cds-AQZ91112.1	pbuX	70
cds-AQZ91113.1	xpt	16
cds-AQZ91114.1	ypwA	279
cds-AQZ91115.1	kdgT	370
cds-AQZ91116.1	kdgA	66
cds-AQZ91117.1	kdgK	42
cds-AQZ91118.1	kdgR	10
cds-AQZ91119.1	kduI	64
cds-AQZ91120.1	kduD	64
cds-AQZ91121.1	ypvA	489
cds-AQZ91122.1	ypzG	31
cds-AQZ91123.1	ypsC	106
cds-AQZ91124.1	gpsB	27
cds-AQZ91125.1	ypsA	44
cds-AQZ91126.1	cotD	3252
cds-AQZ91127.1	yprB	1307
cds-AQZ91128.1	yprA	58
cds-AQZ91129.1	ypqA	17
cds-AQZ91130.1	yppG	259
cds-AQZ91131.1	yppF	23
cds-AQZ91132.1	yppE	60
cds-AQZ91133.1	yppD	19
cds-AQZ91134.1	sspM	19
cds-AQZ91135.1	yppC	61
cds-AQZ91136.1	recU	15
cds-AQZ91137.1	ponA	205
cds-AQZ91138.1	ypoC	209
cds-AQZ91139.1	nth	219
cds-AQZ91140.1	dnaD	16
cds-AQZ91141.1	aspB	79
cds-AQZ91142.1	ypmB	8
cds-AQZ91143.1	ypmA	0
cds-AQZ91144.1	dinG	2747
cds-AQZ91145.1	panD	13
cds-AQZ91146.1	panC	89
cds-AQZ91147.1	panB	119
cds-AQZ91148.1	birA	66
cds-AQZ91149.1	cca	196
cds-AQZ91150.1	ypjH	166
cds-AQZ91151.1	ypjG	73
cds-AQZ91152.1	mgsA	350
cds-AQZ91153.1	dapB	52
cds-AQZ91154.1	ypjD	2
cds-AQZ91155.1	ypjC	552
cds-AQZ91156.1	ypjB	173
cds-AQZ91157.1	qcrC	5831
cds-AQZ91158.1	qcrB	2110
cds-AQZ91159.1	qcrA	446
cds-AQZ91160.1	ypiF	10
cds-AQZ91161.1	ypiB	109
cds-AQZ91162.1	tyrA	34
cds-AQZ91163.1	hisC	320
cds-AQZ91164.1	trpA	68
cds-AQZ91165.1	trpB	280
cds-AQZ91166.1	trpF	9
cds-AQZ91167.1	trpC	9
cds-AQZ91168.1	trpE	29
cds-AQZ91169.1	aroH	7
cds-AQZ91170.1	aroB	162
cds-AQZ91171.1	aroF	117
cds-AQZ91172.1	cheR	14
cds-AQZ91173.1	ndk	10
cds-AQZ91174.1	hepT	29
cds-AQZ91175.1	ubiE	26
cds-AQZ91176.1	hepS	17
cds-AQZ91177.1	mtrB	15
cds-AQZ91178.1	folE	77
cds-AQZ91179.1	hbs	88
cds-AQZ91180.1	spoIVA	4537
cds-AQZ91181.1	yphF	45
cds-AQZ91182.1	yphE	4
cds-AQZ91183.1	gpsA	216
cds-AQZ91184.1	engA	49
cds-AQZ91185.1	ypzH	2
cds-AQZ91186.1	seaA	116
cds-AQZ91187.1	yphA	46
cds-AQZ91188.1	ypzI	5
cds-AQZ91189.1	rpsA	988
cds-AQZ91190.1	cmk	10
cds-AQZ91191.1	ypfB	4
cds-AQZ91192.1	dgrA	45
cds-AQZ91193.1	ypeB	23
cds-AQZ91194.1	sleB	78
cds-AQZ91195.1	prsW	488
cds-AQZ91196.1	ypdA	172
cds-AQZ91197.1	gudB	299
cds-AQZ91198.1	ypbH	298
cds-AQZ91199.1	ypbG	20
cds-AQZ91200.1	ypbF	30
cds-AQZ91201.1	ypbE	20
cds-AQZ91202.1	recS	470
cds-AQZ91203.1	ypbB	699
cds-AQZ91204.1	fer	5
cds-AQZ91205.1	fmnP	60
cds-AQZ91206.1	serA	53
cds-AQZ91207.1	aroD	29
cds-AQZ91208.1	rsiX	79
cds-AQZ91209.1	sigX	11
cds-AQZ91210.1	resE	313
cds-AQZ91211.1	resD	40
cds-AQZ91212.1	resC	2860
cds-AQZ91213.1	resB	275
cds-AQZ91214.1	resA	36
cds-AQZ91215.1	rluB	59
cds-AQZ91216.1	spmB	4508
cds-AQZ91217.1	spmA	757
cds-AQZ91218.1	dacB	55
cds-AQZ91219.1	ypuI	362
cds-AQZ91220.1	scpB	8
cds-AQZ91221.1	ypuF	55
cds-AQZ91222.1	ribT	54
cds-AQZ91223.1	ribH	8
cds-AQZ91224.1	ribA	259
cds-AQZ91225.1	ribE	13
cds-AQZ91226.1	ribD	540
cds-AQZ91227.1	ypuD	1
cds-AQZ91228.1	sipS	182
cds-AQZ91229.1	ypzC	1
cds-AQZ91230.1	ypzJ	1
cds-AQZ91231.1		43
cds-AQZ91232.1	ypuB	21
cds-AQZ91233.1	ypzD	2
cds-AQZ91234.1	ppiB	177
cds-AQZ91235.1	ypuA	23
cds-AQZ91236.1	spoVAF	1097
cds-AQZ91237.1	spoVAEA	455
cds-AQZ91238.1	spoVAEB	276
cds-AQZ91239.1	spoVAD	457
cds-AQZ91240.1	spoVAC	40
cds-AQZ91241.1	spoVAB	23
cds-AQZ91242.1	sigF	330
cds-AQZ91243.1	spoIIAB	249
cds-AQZ91244.1	spoIIAA	311
cds-AQZ91245.1	dacF	43
cds-AQZ91246.1	pupG	1366
cds-AQZ91247.1	drm	387
cds-AQZ91248.1	xerD	256
cds-AQZ91249.1	yqzK	2
cds-AQZ91250.1	fur	13
cds-AQZ91251.1	spoIIM	101
cds-AQZ91252.1	yqkK	13
cds-AQZ91253.1	mleA	424
cds-AQZ91254.1	mleN	36
cds-AQZ91255.1	ansB	116
cds-AQZ91256.1	ansA	17
cds-AQZ91257.1	ansR	276
cds-AQZ91258.1	yqxK	474
cds-AQZ91259.1	nudF	14
cds-AQZ91260.1		2
cds-AQZ91261.1	yqkF	425
cds-AQZ91262.1	yqkD	125
cds-AQZ91263.1	yqkC	99
cds-AQZ91264.1	yqkB	57
cds-AQZ91265.1	yqkA	94
cds-AQZ91266.1	yqjZ	11
cds-AQZ91267.1	yqjY	5
cds-AQZ91268.1	yqjX	3
cds-AQZ91269.1	polY2	38
cds-AQZ91270.1	yqzH	7
cds-AQZ91271.1	yqjV	1282
cds-AQZ91272.1	yqjU	131
cds-AQZ91273.1	yqjT	219
cds-AQZ91274.1	coaA	76
cds-AQZ91275.1	dsdA	413
cds-AQZ91276.1	yqjQ	265
cds-AQZ91277.1	yqjP	192
cds-AQZ91278.1	proI	99
cds-AQZ91279.1	yqjN	102
cds-AQZ91280.1	yqjM	1333
cds-AQZ91281.1	yqjL	108
cds-AQZ91282.1	yqjK	13
cds-AQZ91283.1	zwf	200
cds-AQZ91284.1	yqjI	858
cds-AQZ91285.1	polY1	115
cds-AQZ91286.1	yqjG	245
cds-AQZ91287.1	yqjF	455
cds-AQZ91288.1	yqjE	370
cds-AQZ91289.1	yqjC	7
cds-AQZ91290.1	yqjB	654
cds-AQZ91291.1	yqjA	31
cds-AQZ91292.1	artR	190
cds-AQZ91293.1	artQ	67
cds-AQZ91294.1	artP	1
cds-AQZ91295.1	yqiW	266
cds-AQZ91296.1	bmrU	291
cds-AQZ91297.1	bmr	5192
cds-AQZ91298.1	bmrR	30
cds-AQZ91299.1	bkdB	3295
cds-AQZ91300.1	bkdAB	2464
cds-AQZ91301.1	buk	616
cds-AQZ91302.1	bcd	1484
cds-AQZ91303.1	ptb	2930
cds-AQZ91304.1	bkdR	102
cds-AQZ91305.1	yqzF	3087
cds-AQZ91306.1	prpB	4634
cds-AQZ91307.1	prpD	2305
cds-AQZ91308.1	mmgD	1221
cds-AQZ91309.1	mmgC	646
cds-AQZ91310.1	mmgB	483
cds-AQZ91311.1	yqiK	31
cds-AQZ91312.1	yqiI	16
cds-AQZ91313.1	yqiH	3
cds-AQZ91314.1	yqiG	586
cds-AQZ91315.1	spo0A	314
cds-AQZ91316.1	spoIVB	42
cds-AQZ91317.1	recN	780
cds-AQZ91318.1	ahrC	14
cds-AQZ91319.1	yqxC	2478
cds-AQZ91320.1	dxs	3915
cds-AQZ91321.1	ispA	88
cds-AQZ91322.1	xseB	2
cds-AQZ91323.1	xseA	129
cds-AQZ91324.1	folD	219
cds-AQZ91325.1	nusB	56
cds-AQZ91326.1	yqhY	378
cds-AQZ91327.1	accC	5184
cds-AQZ91328.1	accB	15
cds-AQZ91329.1	spoIIIAH	74
cds-AQZ91330.1	spoIIIAG	34
cds-AQZ91331.1	spoIIIAF	194
cds-AQZ91332.1	spoIIIAE	2011
cds-AQZ91333.1	spoIIIAD	21
cds-AQZ91334.1	spoIIIAC	7
cds-AQZ91335.1	spoIIIAB	339
cds-AQZ91336.1	spoIIIAA	861
cds-AQZ91337.1	yqhV	35
cds-AQZ91338.1	efp	119
cds-AQZ91339.1	yqhT	2228
cds-AQZ91340.1	yqhS	400
cds-AQZ91341.1	yqhR	26
cds-AQZ91342.1	yqhQ	761
cds-AQZ91343.1	yqhP	207
cds-AQZ91344.1	yqhO	675
cds-AQZ91345.1	mntR	114
cds-AQZ91346.1	lipM	8
cds-AQZ91347.1	yqhL	86
cds-AQZ91348.1	gcvPB	327
cds-AQZ91349.1	gcvPA	394
cds-AQZ91350.1	gcvT	128
cds-AQZ91351.1	yqhH	41
cds-AQZ91352.1	yqhG	7
cds-AQZ91353.1	sinI	9
cds-AQZ91354.1	sinR	25
cds-AQZ91355.1	tasA	9
cds-AQZ91356.1	tapA	4
cds-AQZ91357.1	yqzE	15
cds-AQZ91358.1	comGG	10
cds-AQZ91359.1	comGF	5
cds-AQZ91360.1	comGE	2
cds-AQZ91361.1	comGD	3
cds-AQZ91362.1	comGC	0
cds-AQZ91363.2	comGB	29
cds-AQZ91364.1	comGA	18
cds-AQZ91365.1	corA	23
cds-AQZ91366.1	yqhB	82
cds-AQZ91367.1	rsbRD	52
cds-AQZ91368.1	mgsR	90
cds-AQZ91369.1	yqgY	97
cds-AQZ91370.1	yqgX	810
cds-AQZ91371.1	yqgW	4965
cds-AQZ91372.1	yqgV	39
cds-AQZ91373.1	yqgU	91
cds-AQZ91374.1	yqgT	80
cds-AQZ91375.1	yqgS	236
cds-AQZ91376.1	glcK	93
cds-AQZ91377.1	yqgQ	2
cds-AQZ91378.1	gluP	101
cds-AQZ91379.1	ypgO	22
cds-AQZ91380.1	ypgN	44
cds-AQZ91381.1	rpmGA	13
cds-AQZ91382.1	yqgM	79
cds-AQZ91383.1	yqgL	5
cds-AQZ91384.1	yqzD	2
cds-AQZ91385.1	yqzC	12
cds-AQZ91386.1	pstBB	139
cds-AQZ91387.1	pstBA	222
cds-AQZ91388.1	pstA	1102
cds-AQZ91389.1	pstC	2333
cds-AQZ91390.1	pstS	232
cds-AQZ91391.1	pbpA	54
cds-AQZ91392.1	yqgE	137
cds-AQZ91393.1	sodA	8060
cds-AQZ91394.1	yqgC	221
cds-AQZ91395.1	yqgB	3
cds-AQZ91396.1	yqgA	26
cds-AQZ91397.1	yqfZ	3
cds-AQZ91398.1	ispG	765
cds-AQZ91399.1	yqfW	13
cds-AQZ91400.1	zur	49
cds-AQZ91401.1	yqfU	43
cds-AQZ91402.1	yqfT	6
cds-AQZ91403.1	nfo	101
cds-AQZ91404.1	cshB	112
cds-AQZ91405.1	yqfQ	1137
cds-AQZ91406.1	ispH	33
cds-AQZ91407.1	yqfO	112
cds-AQZ91408.1	cccA	33
cds-AQZ91409.1		0
cds-AQZ91410.1	sigA	659
cds-AQZ91411.1	dnaG	3260
cds-AQZ91412.1	yqxD	51
cds-AQZ91413.1	yqfL	66
cds-AQZ91414.1	glyS	146
cds-AQZ91415.1	recO	72
cds-AQZ91416.1	yqzL	8
cds-AQZ91417.1	era	207
cds-AQZ91418.1	cdd	470
cds-AQZ91419.1	dgkA	44
cds-AQZ91420.1	yqfG	17
cds-AQZ91421.1	yqfF	258
cds-AQZ91422.1	phoH	630
cds-AQZ91423.1	yqfD	68
cds-AQZ91424.1	yqfC	27
cds-AQZ91425.1	yqfB	383
cds-AQZ91426.1	yqeZ	6101
cds-AQZ91427.1	yqeY	122
cds-AQZ91428.1	rpsU	19
cds-AQZ91429.1	yqeW	507
cds-AQZ91430.1	rimO	392
cds-AQZ91431.1	yqeU	81
cds-AQZ91432.1	prmA	105
cds-AQZ91433.1	dnaJ	167
cds-AQZ91434.1	dnaK	704
cds-AQZ91435.1	grpE	108
cds-AQZ91436.1	hrcA	94
cds-AQZ91437.1	hemN	35
cds-AQZ91438.1	lepA	915
cds-AQZ91439.1	yqxA	16
cds-AQZ91440.1	spoIIP	317
cds-AQZ91441.1	gpr	34
cds-AQZ91442.1	rpsT	15
cds-AQZ91443.1	holA	38
cds-AQZ91444.1	yqzM	2997
cds-AQZ91445.1	comEC	387
cds-AQZ91446.1	comEB	18
cds-AQZ91447.1	comEA	4
cds-AQZ91448.1	comER	1710
cds-AQZ91449.1	yqeM	192
cds-AQZ91450.1	yqeL	32
cds-AQZ91451.1	yqeK	65
cds-AQZ91452.1	nadD	18
cds-AQZ91453.1	yqeI	4
cds-AQZ91454.1	aroE	23
cds-AQZ91455.1	yqeH	60
cds-AQZ91456.1	yqeG	43
cds-AQZ91457.1	sda	11
cds-AQZ91458.1	yqeF	272
cds-AQZ91459.1	cwlH	85
cds-AQZ91460.1	yqeD	22
cds-AQZ91461.1	yqeC	41
cds-AQZ91462.1	yqeB	381
cds-AQZ91463.1	nucB	263
cds-AQZ91464.1	sigKN	70
cds-AQZ91465.1	spoIVCA	32
cds-AQZ91466.1		2
cds-AQZ91467.1	arsC	2
cds-AQZ91468.1	arsB	13
cds-AQZ91469.1	yqcK	1
cds-AQZ91470.1	arsR	0
cds-AQZ91471.1	yqcI	1
cds-AQZ91472.1	rapE	1
cds-AQZ91473.1	phrE	46
cds-AQZ91474.1	yqzI	0
cds-AQZ91475.1	yqcG	26
cds-AQZ91476.1	yqcF	6
cds-AQZ91477.1	yqxJ	1
cds-AQZ91478.1	yqxI	0
cds-AQZ91479.1	cwlA	92
cds-AQZ91480.1	yqxH	7
cds-AQZ91481.1	yqxG	1
cds-AQZ91482.1	yqcE	2
cds-AQZ91483.1	yqcD	0
cds-AQZ91484.1	yqcC	18
cds-AQZ91485.1	yqcB	0
cds-AQZ91486.1	yqcA	6
cds-AQZ91487.1	yqbT	2
cds-AQZ91488.1	yqbS	0
cds-AQZ91489.1	yqbR	1
cds-AQZ91490.1	yqbQ	14
cds-AQZ91491.1	yqbP	11
cds-AQZ91492.1	yqbO	56
cds-AQZ91493.1		0
cds-AQZ91494.1		0
cds-AQZ91495.1	yqdB	747
cds-AQZ91496.1		9674
cds-AQZ91497.1	yqbM	3
cds-AQZ91498.1	yqbK	11
cds-AQZ91499.1	yqzN	0
cds-AQZ91500.1	yqbJ	3
cds-AQZ91501.1	yqbI	23
cds-AQZ91502.1	yqbH	0
cds-AQZ91503.1	yqbG	0
cds-AQZ91504.1	yqbF	1
cds-AQZ91505.1	yqbE	11
cds-AQZ91506.1	yqbD	1
cds-AQZ91507.1	yqbC	2
cds-AQZ91508.1	yqbB	4
cds-AQZ91509.1	yqbA	2
cds-AQZ91510.1	yqaT	4
cds-AQZ91511.1	yqaS	2
cds-AQZ91512.1	yqaR	1
cds-AQZ91513.1	yqaQ	0
cds-AQZ91514.1	yqaP	26
cds-AQZ91515.1	yqaO	34
cds-AQZ91516.1	yqaN	0
cds-AQZ91517.1	yqzO	0
cds-AQZ91518.2	yqaM	0
cds-AQZ91519.2	yqaL	5
cds-AQZ91520.1	yqaK	6
cds-AQZ91521.1	yqaJ	9
cds-AQZ91522.1	yqaI	2
cds-AQZ91523.1	yqaH	1
cds-AQZ91524.1	yqaG	1
cds-AQZ91525.1	yqdA	1
cds-AQZ91526.1	yqaF	1
cds-AQZ91527.1	yqaE	0
cds-AQZ91528.1	yqaC	6
cds-AQZ91529.1	yqaB	1
cds-AQZ91530.1	sigKC	14
cds-AQZ91531.1		13
cds-AQZ91532.1	yrkS	2
cds-AQZ91533.1	yrkR	0
cds-AQZ91534.1	yrkQ	19
cds-AQZ91535.1	ykrP	3
cds-AQZ91536.1	yrkO	167
cds-AQZ91537.1	yrkN	6
cds-AQZ91538.1	yrkL	5
cds-AQZ91539.1	yrkK	4
cds-AQZ91540.1	yrkJ	25
cds-AQZ91541.1	yrkI	19
cds-AQZ91542.1		0
cds-AQZ91543.1	yrkF	3
cds-AQZ91544.1	yrkE	0
cds-AQZ91545.1	yrkD	2
cds-AQZ91546.1		0
cds-AQZ91547.1		0
cds-AQZ91548.1	yrkC	19
cds-AQZ91549.1		2
cds-AQZ91550.1	yrkB	0
cds-AQZ91551.1	bltR	5
cds-AQZ91552.1	blt	15
cds-AQZ91553.1	bltD	2
cds-AQZ91554.1	yrkA	24
cds-AQZ91555.1	yrzO	0
cds-AQZ91556.1	yrdR	0
cds-AQZ91557.1	yrdQ	0
cds-AQZ91558.1	yrdP	0
cds-AQZ91559.1	czcD	0
cds-AQZ91560.1	yrdN	0
cds-AQZ91561.1	gltR	7
cds-AQZ91562.1	brnQ	10
cds-AQZ91563.1	azlC	14
cds-AQZ91564.1	azlB	1
cds-AQZ91565.1	yrdF	0
cds-AQZ91566.1	cypA	160
cds-AQZ91567.1	yrdC	0
cds-AQZ91568.1	yrdA	10
cds-AQZ91569.1	aadK	1
cds-AQZ91570.1	yrpB	57
cds-AQZ91571.1		0
cds-AQZ91572.1		0
cds-AQZ91573.1	yprC	1
cds-AQZ91574.1	yrpD	628
cds-AQZ91575.1	yrpE	4
cds-AQZ91576.1	sigZ	3
cds-AQZ91577.1	yraO	4
cds-AQZ91578.1	yraN	2
cds-AQZ91579.1	yraM	128
cds-AQZ91580.1	csn	608
cds-AQZ91581.1	yraL	2
cds-AQZ91582.1	yraK	90
cds-AQZ91583.1	yraJ	309
cds-AQZ91584.1	yraI	77
cds-AQZ91585.1	yraH	0
cds-AQZ91586.1	yraG	4
cds-AQZ91587.1	yraF	20
cds-AQZ91588.1	adhB	62
cds-AQZ91589.1	yraE	1
cds-AQZ91590.1	yraD	2
cds-AQZ91591.1	yraB	9
cds-AQZ91592.1		1
cds-AQZ91593.1	adhA	161
cds-AQZ91594.1	yraA	67
cds-AQZ91595.1	sacC	291
cds-AQZ91596.1	levG	12
cds-AQZ91597.1	levF	60
cds-AQZ91598.1	levE	8
cds-AQZ91599.1	levD	1
cds-AQZ91600.1	levR	41
cds-AQZ91601.1	aapA	58
cds-AQZ91602.1	yrhP	2
cds-AQZ91603.1	yrhO	85
cds-AQZ91604.1	sigV	1
cds-AQZ91605.1	rsiV	1
cds-AQZ91606.1	oatA	50
cds-AQZ91607.1	yrkH	0
cds-AQZ91608.1	cypB	339
cds-AQZ91609.1	bscR	1
cds-AQZ91610.1	yrhH	1
cds-AQZ91611.1	yrzI	12
cds-AQZ91612.1	yrhG	35
cds-AQZ91613.1	yrhF	3
cds-AQZ91614.1	yrhD	26
cds-AQZ91615.1	yrhC	42
cds-AQZ91616.1	yrhB	381
cds-AQZ91617.1	mccA	107
cds-AQZ91618.1	mtn	818
cds-AQZ91619.1	yrrT	71
cds-AQZ91620.1	yrzA	6
cds-AQZ91621.1	yrrS	112
cds-AQZ91622.1	pbpI	199
cds-AQZ91623.1	greA	85
cds-AQZ91624.1	udk	16
cds-AQZ91625.1	yrrO	178
cds-AQZ91626.1	yrrN	59
cds-AQZ91627.1	yrrM	4
cds-AQZ91628.1	yrrL	51
cds-AQZ91629.1	yrzB	11
cds-AQZ91630.1	yrrK	26
cds-AQZ91631.1	yrzL	20
cds-AQZ91632.1	alaS	189
cds-AQZ91633.1	yrrI	268
cds-AQZ91634.1	glnQ	569
cds-AQZ91635.1	glnH	127
cds-AQZ91636.1	glnM	274
cds-AQZ91637.1	glnP	707
cds-AQZ91638.1	yrzQ	61
cds-AQZ91639.1	yrzR	171
cds-AQZ91640.1	yrrD	668
cds-AQZ91641.1	yrrC	616
cds-AQZ91642.2	yrrB	70
cds-AQZ91643.1	mnmA	364
cds-AQZ91644.1	iscS	458
cds-AQZ91645.1	yrvN	120
cds-AQZ91646.1	yrvM	77
cds-AQZ91647.1	aspS	697
cds-AQZ91648.1	hisS	56
cds-AQZ91649.1	yrzK	6
cds-AQZ91650.1	yrvJ	590
cds-AQZ91651.1	yrvI	11
cds-AQZ91652.1	relA	134
cds-AQZ91653.1	apt	222
cds-AQZ91654.1	recJ	510
cds-AQZ91655.1	yrvD	1
cds-AQZ91656.1	yrvC	6
cds-AQZ91657.1	secDF	707
cds-AQZ91658.1	comN	30
cds-AQZ91659.1	spoVB	3960
cds-AQZ91660.1	yrbG	94
cds-AQZ91661.1	yrzE	205
cds-AQZ91662.1	yajC	403
cds-AQZ91663.1	tgt	335
cds-AQZ91664.1	queA	59
cds-AQZ91665.1	yrzS	0
cds-AQZ91666.1	ruvB	451
cds-AQZ91667.1	ruvA	13
cds-AQZ91668.1	bofC	1093
cds-AQZ91669.1	csbX	2003
cds-AQZ91670.1	yrbE	2576
cds-AQZ91671.1	yrzF	66
cds-AQZ91672.1	yrzT	1
cds-AQZ91673.1	yrbD	2273
cds-AQZ91674.1	coxA	97
cds-AQZ91675.1	safA	48158
cds-AQZ91676.1	nadA	235
cds-AQZ91677.1	nadC	42
cds-AQZ91678.1	nadB	25
cds-AQZ91679.1	nifS	29
cds-AQZ91680.1	nadR	367
cds-AQZ91681.1	pheA	52
cds-AQZ91682.1	pheB	19
cds-AQZ91683.1	obgE	1379
cds-AQZ91684.1	spo0B	23
cds-AQZ91685.1	rpmA	1906
cds-AQZ91686.1	ysxB	3989
cds-AQZ91687.1	rplU	181
cds-AQZ91688.1	spoIVFB	1211
cds-AQZ91689.1	spoIVFA	111
cds-AQZ91690.1	minD	348
cds-AQZ91691.1	minC	39
cds-AQZ91692.1	mreD	86
cds-AQZ91693.1	mreC	43
cds-AQZ91694.1	mreB	154
cds-AQZ91695.1	radC	39
cds-AQZ91696.1	maf	28
cds-AQZ91697.1	spoIIB	152
cds-AQZ91698.1	comC	20
cds-AQZ91699.1	folC	48
cds-AQZ91700.1	valS	874
cds-AQZ91701.1	yszA	162
cds-AQZ91702.1	ysxE	2285
cds-AQZ91703.1	spoVID	1392
cds-AQZ91704.1	hemL	4253
cds-AQZ91705.1	hemB	341
cds-AQZ91706.1	hemD	266
cds-AQZ91707.1	hemC	170
cds-AQZ91708.1	hemX	211
cds-AQZ91709.1	hemA	490
cds-AQZ91710.1	ysxD	31
cds-AQZ91711.1	engB	11
cds-AQZ91712.1	lonA	95
cds-AQZ91713.1	lonB	652
cds-AQZ91714.1	clpX	3867
cds-AQZ91715.1	tig	81
cds-AQZ91716.1	ysoA	63
cds-AQZ91717.1	leuD	17
cds-AQZ91718.1	leuC	281
cds-AQZ91719.1	leuB	120
cds-AQZ91720.1	leuA	496
cds-AQZ91721.1	ilvC	488
cds-AQZ91722.1	ilvH	39
cds-AQZ91723.1	ilvB	221
cds-AQZ91724.1	ysnD	1671
cds-AQZ91725.1	ysnE	39
cds-AQZ91726.1	ysnF	79
cds-AQZ91727.1	ysnB	402
cds-AQZ91728.1	ysnA	63
cds-AQZ91729.1	rph	204
cds-AQZ91730.1	gerM	1101
cds-AQZ91731.1	racE	414
cds-AQZ91732.1	ysmB	30
cds-AQZ91733.1	gerE	68
cds-AQZ91734.1	ysmA	53
cds-AQZ91735.1	sdhB	499
cds-AQZ91736.1	sdhA	1157
cds-AQZ91737.1	sdhC	151
cds-AQZ91738.1	yslB	26
cds-AQZ91739.1	lysC	85
cds-AQZ91740.1		300
cds-AQZ91741.1	uvrC	150
cds-AQZ91742.1	trxA	211
cds-AQZ91743.1		10
cds-AQZ91744.1	etfA	5399
cds-AQZ91745.1	etfB	1983
cds-AQZ91746.1	ysiB	5276
cds-AQZ91747.1	fadR	196
cds-AQZ91748.1	lcfA	5911
cds-AQZ91749.1	yshE	86
cds-AQZ91750.1	mutSB	689
cds-AQZ91751.1	yshC	237
cds-AQZ91752.1	yshB	188
cds-AQZ91753.1	yshA	10
cds-AQZ91754.1	rnhC	201
cds-AQZ91755.1	pheT	331
cds-AQZ91756.1	pheS	30
cds-AQZ91757.1		3335
cds-AQZ91758.1	ysgA	815
cds-AQZ91759.1	sspI	4
cds-AQZ91760.1	ysfB	223
cds-AQZ91761.1	glcD	219
cds-AQZ91762.1	glcF	429
cds-AQZ91763.2	ysfE	30
cds-AQZ91764.1	cstA	778
cds-AQZ91765.1	abfA	105
cds-AQZ91766.1	araQ	78
cds-AQZ91767.1	araP	603
cds-AQZ91768.1	araN	75
cds-AQZ91769.1	araM	279
cds-AQZ91770.1	araD	17
cds-AQZ91771.1	araB	144
cds-AQZ91772.1	araA	55
cds-AQZ91773.1	abnA	147
cds-AQZ91774.1	ysdC	830
cds-AQZ91775.1	ysdB	6
cds-AQZ91776.1	ysdA	155
cds-AQZ91777.1	rplT	375
cds-AQZ91778.1	rplI	45
cds-AQZ91779.1	infC	728
cds-AQZ91780.1	yscB	5
cds-AQZ91781.1	ysbB	50
cds-AQZ91782.1	ysbA	4
cds-AQZ91783.1	lytT	2
cds-AQZ91784.1	lytS	225
cds-AQZ91785.1	ysaA	91
cds-AQZ91786.1	thrS	234
cds-AQZ91787.1	ytxC	959
cds-AQZ91788.1	dnaI	60
cds-AQZ91789.1	dnaB	55
cds-AQZ91790.1	nrdR	26
cds-AQZ91791.1	speD	295
cds-AQZ91792.1	gapB	2239
cds-AQZ91793.1	ytcD	3
cds-AQZ91794.1	ytbD	54
cds-AQZ91795.1	ytbE	114
cds-AQZ91796.1	coaE	25
cds-AQZ91797.1	ytaF	138
cds-AQZ91798.1	mutM	228
cds-AQZ91799.1	polA	361
cds-AQZ91800.1	phoR	506
cds-AQZ91801.1	phoP	16
cds-AQZ91802.1	mdh	595
cds-AQZ91803.1	icd	375
cds-AQZ91804.1	citZ	6916
cds-AQZ91805.1	ytvI	5646
cds-AQZ91806.1	fxsA	448
cds-AQZ91807.1	pyk	5450
cds-AQZ91808.1	pfkA	127
cds-AQZ91809.1	accA	491
cds-AQZ91810.1	accD	75
cds-AQZ91811.1	ytsJ	2834
cds-AQZ91812.1	dnaE	1014
cds-AQZ91813.1	ytrH	126
cds-AQZ91814.1	ytrI	32
cds-AQZ91815.1	ytzJ	1560
cds-AQZ91816.1	nrnA	2400
cds-AQZ91817.1	ytpI	442
cds-AQZ91818.1	ytoI	1024
cds-AQZ91819.1	ytnM	97
cds-AQZ91820.1	ytnL	29
cds-AQZ91821.1	rbfK	4
cds-AQZ91822.1	ytnJ	19
cds-AQZ91823.1	ytnI	0
cds-AQZ91824.1	ytmO	51
cds-AQZ91825.1	tcyN	6
cds-AQZ91826.1	tcyM	23
cds-AQZ91827.1	tcyL	12
cds-AQZ91828.1	tcyK	28
cds-AQZ91829.1	tcyJ	7
cds-AQZ91830.1	ytmI	8
cds-AQZ91831.1	ytlI	10
cds-AQZ91832.1	ytkL	1759
cds-AQZ91833.1	fabG	430
cds-AQZ91834.1	ytzD	17
cds-AQZ91835.1	argH	437
cds-AQZ91836.1	argG	307
cds-AQZ91837.1	moaB	78
cds-AQZ91838.1		0
cds-AQZ91839.1	ytxK	164
cds-AQZ91840.1	tpx	588
cds-AQZ91841.1	ytfJ	54
cds-AQZ91842.1	ytfI	31
cds-AQZ91843.1	yteJ	194
cds-AQZ91844.1	sppA	69
cds-AQZ91845.1	ppnK	567
cds-AQZ91846.1	ytcJ	1965
cds-AQZ91847.1	ytcI	401
cds-AQZ91848.1	sspA	504
cds-AQZ91849.1	ytbJ	89
cds-AQZ91850.1	iscS	118
cds-AQZ91851.1	braB	35
cds-AQZ91852.1	ezrA	14
cds-AQZ91853.1	hisJ	70
cds-AQZ91854.1	yttP	275
cds-AQZ91855.1	ytsP	158
cds-AQZ91856.1	dgcP	124
cds-AQZ91857.1		372
cds-AQZ91858.1	rpsD	4714
cds-AQZ91859.1	tyrS	45
cds-AQZ91860.1	ytzK	124
cds-AQZ91861.1	acsA	569
cds-AQZ91862.1	acuA	69
cds-AQZ91863.1	acuB	149
cds-AQZ91864.1	acuC	1338
cds-AQZ91865.1	ytxE	3
cds-AQZ91866.1	ytxD	34
cds-AQZ91867.1	ccpA	559
cds-AQZ91868.1	aroA	222
cds-AQZ91869.1	ytxJ	423
cds-AQZ91870.1	ytxH	266
cds-AQZ91871.1	ytxG	190
cds-AQZ91872.1	murC	327
cds-AQZ91873.1	ytpS	874
cds-AQZ91874.1	ytpR	926
cds-AQZ91875.1	ytpQ	183
cds-AQZ91876.1	ytpP	29
cds-AQZ91877.1	ytoQ	210
cds-AQZ91878.1	ytoP	315
cds-AQZ91879.1	ytzB	203
cds-AQZ91880.1	malS	2043
cds-AQZ91881.1	trmB	72
cds-AQZ91882.1	ytzH	147
cds-AQZ91883.1	amyX	691
cds-AQZ91884.1	ytlR	517
cds-AQZ91885.1	ytlQ	60
cds-AQZ91886.1	ytlP	63
cds-AQZ91887.1	ytkP	342
cds-AQZ91888.1	ytjP	858
cds-AQZ91889.1	pbuO	983
cds-AQZ91890.1	ythQ	255
cds-AQZ91891.1	ythP	502
cds-AQZ91892.1	ytzE	22
cds-AQZ91893.1	ytzG	122
cds-AQZ91894.1	ytgP	1963
cds-AQZ91895.1	opuD	1398
cds-AQZ91896.1	yteV	14
cds-AQZ91897.1	yteU	110
cds-AQZ91898.1	yteT	61
cds-AQZ91899.1	yteS	20
cds-AQZ91900.1	yteR	19
cds-AQZ91901.1	yteP	7
cds-AQZ91902.1	ytdP	49
cds-AQZ91903.1	ytcQ	14
cds-AQZ91904.1	ytbQ	266
cds-AQZ91905.1	bioB	52
cds-AQZ91906.1	bioD	57
cds-AQZ91907.1	bioF	782
cds-AQZ91908.1	bioA	754
cds-AQZ91909.1	bioW	124
cds-AQZ91910.1	ytaP	237
cds-AQZ91911.1	msmR	32
cds-AQZ91912.1	msmE	55
cds-AQZ91913.1	amyD	68
cds-AQZ91914.1	amyC	44
cds-AQZ91915.1	melA	151
cds-AQZ91916.1	ytwF	113
cds-AQZ91917.1	leuS	769
cds-AQZ91918.1	ytvA	29
cds-AQZ91919.1	yttB	268
cds-AQZ91920.1	yttA	9
cds-AQZ91921.1	bceB	20
cds-AQZ91922.1	bceA	11
cds-AQZ91923.1	bceS	32
cds-AQZ91924.1	bceR	54
cds-AQZ91925.1	ytrF	1156
cds-AQZ91926.1	ytrE	219
cds-AQZ91927.1	ytrD	102
cds-AQZ91928.1	ytrC	95
cds-AQZ91929.1	ytrB	66
cds-AQZ91930.1	ytrA	1
cds-AQZ91931.1	ytzC	17
cds-AQZ91932.1	ytqA	464
cds-AQZ91933.1	ytqB	278
cds-AQZ91934.1	ytpB	302
cds-AQZ91935.1	ytpA	326
cds-AQZ91936.1	ytoA	1195
cds-AQZ91937.1	ytnA	356
cds-AQZ91938.1	asnB	734
cds-AQZ91939.1	metK	2155
cds-AQZ91940.1	pckA	21190
cds-AQZ91941.1	ytmB	27
cds-AQZ91942.1	ytmA	127
cds-AQZ91943.1	ytlA	108
cds-AQZ91944.1	ytlC	178
cds-AQZ91945.1	ytlD	881
cds-AQZ91946.1	ytkD	35
cds-AQZ91947.1	ytkC	14
cds-AQZ91948.1	dps	19
cds-AQZ91949.1	ytzI	55
cds-AQZ91950.1	ytkA	26
cds-AQZ91951.1	luxS	88
cds-AQZ91952.1	ytjA	25
cds-AQZ91953.1	ytiB	75
cds-AQZ91954.1	rpmE2	23
cds-AQZ91955.1	ythA	464
cds-AQZ91956.1	ythB	540
cds-AQZ91957.1	ytzL	1231
cds-AQZ91958.1	mntD	7863
cds-AQZ91959.1	mntC	14102
cds-AQZ91960.1	mntB	3160
cds-AQZ91961.1	mntA	710
cds-AQZ91962.1		4
cds-AQZ91963.1	menC	120
cds-AQZ91964.1	menE	1385
cds-AQZ91965.1	menB	1369
cds-AQZ91966.1	ytxM	312
cds-AQZ91967.1	menD	1278
cds-AQZ91968.1	menF	455
cds-AQZ91969.1		1
cds-AQZ91970.1	yteA	452
cds-AQZ91971.1	ytdA	256
cds-AQZ91972.1	ytcA	693
cds-AQZ91973.1	ytcB	640
cds-AQZ91974.1	ytcC	390
cds-AQZ91975.1	ytxO	30
cds-AQZ91976.1	cotS	196
cds-AQZ91977.1	cotSA	206
cds-AQZ91978.1	cotI	385
cds-AQZ91979.1	ytaB	119
cds-AQZ91980.1	glgP	974
cds-AQZ91981.1	glgA	648
cds-AQZ91982.1	glgD	628
cds-AQZ91983.1	glgC	195
cds-AQZ91984.1	glgB	213
cds-AQZ91985.1	thiT	38
cds-AQZ91986.1	yuaI	324
cds-AQZ91987.1	yuaG	145
cds-AQZ91988.1	yuaE	371
cds-AQZ91989.1	yuaD	343
cds-AQZ91990.1	gbsA	24
cds-AQZ91991.1	yuaC	4
cds-AQZ91992.1	yuaB	306
cds-AQZ91993.1	ktrA	5
cds-AQZ91994.1	ktrB	43
cds-AQZ91995.1	yubF	3
cds-AQZ91996.1	lytG	17
cds-AQZ91997.1	yubD	40
cds-AQZ91998.1	cdoA	13
cds-AQZ91999.1	yubB	1334
cds-AQZ92000.1	yubA	212
cds-AQZ92001.1	yulF	185
cds-AQZ92002.1	yulE	149
cds-AQZ92003.1	yulD	2
cds-AQZ92004.1	yulC	23
cds-AQZ92005.1	yulB	17
cds-AQZ92006.1	yuxG	49
cds-AQZ92007.1	tlpB	21
cds-AQZ92008.1	mcpA	64
cds-AQZ92009.1	tlpA	31
cds-AQZ92010.1	mcpB	43
cds-AQZ92011.1	tgl	71
cds-AQZ92012.1	yuzH	74
cds-AQZ92013.1	yugU	184
cds-AQZ92014.1	yugT	165
cds-AQZ92015.1	yugS	60
cds-AQZ92016.1	yugP	2148
cds-AQZ92017.1	yuzI	41
cds-AQZ92018.1	mstX	5
cds-AQZ92019.1	yugO	364
cds-AQZ92020.1	yugN	409
cds-AQZ92021.1	pgi	350
cds-AQZ92022.1	yugK	139
cds-AQZ92023.1	yugJ	332
cds-AQZ92024.1	yuzA	2099
cds-AQZ92025.1	yugI	11
cds-AQZ92026.1	alaT	1503
cds-AQZ92027.1	yugG	57
cds-AQZ92028.1	yugF	59
cds-AQZ92029.1	yugE	147
cds-AQZ92030.1	patB	249
cds-AQZ92031.1	kinB	261
cds-AQZ92032.1	kapB	176
cds-AQZ92033.1	kapD	49
cds-AQZ92034.1	yuxJ	3530
cds-AQZ92035.1	pbpD	406
cds-AQZ92036.1	yuxK	841
cds-AQZ92037.1	yufK	86
cds-AQZ92038.1	yufL	135
cds-AQZ92039.1	yufM	8
cds-AQZ92040.1	yufN	89
cds-AQZ92041.1	yufO	312
cds-AQZ92042.1	yufP	405
cds-AQZ92043.1	yufQ	519
cds-AQZ92044.1	maeN	82
cds-AQZ92045.1	yufS	62
cds-AQZ92046.1	mrpA	1345
cds-AQZ92047.1	mrpB	186
cds-AQZ92048.1	mrpC	170
cds-AQZ92049.1	mrpD	1064
cds-AQZ92050.1	mrpE	69
cds-AQZ92051.1	mrpF	95
cds-AQZ92052.1	mrpG	170
cds-AQZ92053.1	yuxO	101
cds-AQZ92054.1	comA	46
cds-AQZ92055.1	comP	264
cds-AQZ92056.1	comX	0
cds-AQZ92057.1	comQ	7
cds-AQZ92058.1	degQ	2
cds-AQZ92059.1	yuzC	3524
cds-AQZ92060.1	pdeH	519
cds-AQZ92061.1	yueK	329
cds-AQZ92062.1	pncA	34
cds-AQZ92063.1	yueI	84
cds-AQZ92064.1	yueH	26
cds-AQZ92065.1	yueG	336
cds-AQZ92066.1	yueF	1041
cds-AQZ92067.1	yuzE	214
cds-AQZ92068.1	yuzF	183
cds-AQZ92069.1	yueE	119
cds-AQZ92070.1	yueD	344
cds-AQZ92071.1	yueB	1083
cds-AQZ92072.1	yukB	1156
cds-AQZ92073.1	yukC	92
cds-AQZ92074.1	yukD	3
cds-AQZ92075.1	yukE	40
cds-AQZ92076.1	yukF	86
cds-AQZ92077.1	ald	1455
cds-AQZ92078.1	yukJ	163
cds-AQZ92079.1	ybdZ	103
cds-AQZ92080.1	dhbF	8568
cds-AQZ92081.1	dhbB	142
cds-AQZ92082.1	dhbE	1736
cds-AQZ92083.1	dhbC	2801
cds-AQZ92084.1	besA	2092
cds-AQZ92085.1	yuiH	113
cds-AQZ92086.1	bioYB	1276
cds-AQZ92087.1	yuiF	340
cds-AQZ92088.1	yuiE	693
cds-AQZ92089.1	yuiD	222
cds-AQZ92090.1	yuiC	796
cds-AQZ92091.1	yuiB	284
cds-AQZ92092.1	yuiA	39
cds-AQZ92093.1	yumC	1509
cds-AQZ92094.1	yuzG	5
cds-AQZ92095.1	guaC	52
cds-AQZ92096.1	paiB	1
cds-AQZ92097.1	paiA	1
cds-AQZ92098.1	dapF	45
cds-AQZ92099.1	yutK	327
cds-AQZ92100.1	yuzB	200
cds-AQZ92101.1	yutJ	639
cds-AQZ92102.1	yuzD	61
cds-AQZ92103.2	yutI	1139
cds-AQZ92104.1	yuxL	942
cds-AQZ92105.1	thrB	4653
cds-AQZ92106.1	hom	711
cds-AQZ92107.1	yutH	179
cds-AQZ92108.1	yutG	138
cds-AQZ92109.1	yutF	526
cds-AQZ92110.1	yutE	50
cds-AQZ92111.1	yutC	158
cds-AQZ92112.1	lipA	289
cds-AQZ92113.1	lytH	487
cds-AQZ92114.1	yunB	189
cds-AQZ92115.1	yunC	1637
cds-AQZ92116.1	yunD	626
cds-AQZ92117.1	yunE	308
cds-AQZ92118.1	yunG	83
cds-AQZ92119.1	pucH	684
cds-AQZ92120.1	pucR	110
cds-AQZ92121.1	pucJ	149
cds-AQZ92122.1	pucK	102
cds-AQZ92123.1	pucL	41
cds-AQZ92124.1	pucM	136
cds-AQZ92125.1	yuzJ	120
cds-AQZ92126.1	pucE	13
cds-AQZ92127.1	pucD	38
cds-AQZ92128.1	pucC	11
cds-AQZ92129.1	pucB	12
cds-AQZ92130.1	pucA	7
cds-AQZ92131.1	pucG	121
cds-AQZ92132.1	yurH	73
cds-AQZ92133.1	bsn	446
cds-AQZ92134.1	yurJ	14
cds-AQZ92135.1	frlD	131
cds-AQZ92136.1	frlM	17
cds-AQZ92137.1	frlN	55
cds-AQZ92138.1	frlO	34
cds-AQZ92139.1	frlB	9
cds-AQZ92140.1	yurQ	4
cds-AQZ92141.1	yurR	332
cds-AQZ92142.1	sspG	8
cds-AQZ92143.1	yurS	7
cds-AQZ92144.1	yurT	12
cds-AQZ92145.1	yuzN	7
cds-AQZ92146.1	sufB	1246
cds-AQZ92147.1	iscU	260
cds-AQZ92148.1	sufS	4249
cds-AQZ92149.1	sufD	969
cds-AQZ92150.1	sufC	309
cds-AQZ92151.1		0
cds-AQZ92152.1	yuzK	9
cds-AQZ92153.1	yurZ	17
cds-AQZ92154.1	metN	19
cds-AQZ92155.1	metP	119
cds-AQZ92156.1	metQ	191
cds-AQZ92157.1	yusD	24
cds-AQZ92158.1	yusE	5
cds-AQZ92159.1	yusF	7
cds-AQZ92160.1	yusG	166
cds-AQZ92161.1	yusH	85
cds-AQZ92162.1	yusI	2
cds-AQZ92163.1	fadE	3386
cds-AQZ92164.1	yusK	9556
cds-AQZ92165.1	fadN	4210
cds-AQZ92166.1	yuzL	151
cds-AQZ92167.1	fadM	388
cds-AQZ92168.1	yuzM	119
cds-AQZ92169.1	yusN	203
cds-AQZ92170.1	yusO	42
cds-AQZ92171.1	yusP	2115
cds-AQZ92172.1	yusQ	8
cds-AQZ92173.1	yusT	214
cds-AQZ92174.1	yusU	40
cds-AQZ92175.1	yusV	3976
cds-AQZ92176.1	yusW	69
cds-AQZ92177.1		304
cds-AQZ92178.1		23
cds-AQZ92179.1	yusZ	110
cds-AQZ92180.1	mrgA	447
cds-AQZ92181.1	htrB	225
cds-AQZ92182.1	cssR	104
cds-AQZ92183.1	cssS	117
cds-AQZ92184.1	yuzO	11
cds-AQZ92185.1	yuxN	103
cds-AQZ92186.1	fumC	903
cds-AQZ92187.1	yvzF	0
cds-AQZ92188.1	gerAA	268
cds-AQZ92189.1	gerAB	66
cds-AQZ92190.1	gerAC	112
cds-AQZ92191.1	liaR	232
cds-AQZ92192.1	liaS	368
cds-AQZ92193.1	liaF	117
cds-AQZ92194.1	liaG	259
cds-AQZ92195.1	liaH	18
cds-AQZ92196.1	liaI	251
cds-AQZ92197.1	yvqJ	582
cds-AQZ92198.1	yvqK	80
cds-AQZ92199.1	btuC	552
cds-AQZ92200.1	yvrC	190
cds-AQZ92201.1	yvrD	248
cds-AQZ92202.1	yvrG	28
cds-AQZ92203.1	yvrH	11
cds-AQZ92204.1	rsoA	0
cds-AQZ92205.1	yvrJ	0
cds-AQZ92206.1	oxdC	144
cds-AQZ92207.1	yvrL	6
cds-AQZ92208.1	yvrN	469
cds-AQZ92209.1	yvrO	29
cds-AQZ92210.1	yvrP	24
cds-AQZ92211.1	fecE	268
cds-AQZ92212.1	fhuG	612
cds-AQZ92213.1	fhuD	221
cds-AQZ92214.1		0
cds-AQZ92215.1	lysP	1133
cds-AQZ92216.1		598
cds-AQZ92217.1	sspJ	46
cds-AQZ92218.1	yvsG	54
cds-AQZ92219.1	yvgJ	829
cds-AQZ92220.1	yvgL	28
cds-AQZ92221.1	yvgM	765
cds-AQZ92222.1	yvgN	193
cds-AQZ92223.1	yvgO	8868
cds-AQZ92224.1	nhaK	1904
cds-AQZ92225.1	yvgQ	469
cds-AQZ92226.1	cysJ	453
cds-AQZ92227.1	helD	267
cds-AQZ92228.1	yvgT	191
cds-AQZ92229.1	bdbC	197
cds-AQZ92230.1	bdbD	47
cds-AQZ92231.1	copB	253
cds-AQZ92232.1	copA	332
cds-AQZ92233.1	copZ	8
cds-AQZ92234.1	csoR	1
cds-AQZ92235.1	yvaA	300
cds-AQZ92236.1	yvaB	173
cds-AQZ92237.1	yvaC	375
cds-AQZ92238.1	yvaD	53
cds-AQZ92239.1	yvaE	13
cds-AQZ92240.1	yvaF	6
cds-AQZ92241.1	yvaG	1217
cds-AQZ92242.1	smpB	263
cds-AQZ92243.1	rnr	2051
cds-AQZ92244.1	yvaK	24
cds-AQZ92245.1	secG	2309
cds-AQZ92246.1	yvaM	585
cds-AQZ92247.1	yvzC	3
cds-AQZ92248.1	rghRA	16
cds-AQZ92249.1	rghRB	78
cds-AQZ92250.1	yvaP	38
cds-AQZ92251.1	yvaQ	289
cds-AQZ92252.1	opuBD	1072
cds-AQZ92253.1	opuBC	2359
cds-AQZ92254.1	opuBB	2111
cds-AQZ92255.1	oppBA	738
cds-AQZ92256.1	yvaV	51
cds-AQZ92257.1	sdpA	3
cds-AQZ92258.1	sdpB	14
cds-AQZ92259.1	spbC	401
cds-AQZ92260.1	sdpI	20
cds-AQZ92261.1	sdpR	10
cds-AQZ92262.1	opuCD	447
cds-AQZ92263.1	opuCB	94
cds-AQZ92264.1	opuCA	174
cds-AQZ92265.1	yvbF	5
cds-AQZ92266.1	yvbG	249
cds-AQZ92267.1	yvbH	7
cds-AQZ92268.1	yvbI	22
cds-AQZ92269.1	yvbJ	13
cds-AQZ92270.1	yvbK	9
cds-AQZ92271.1	eno	1328
cds-AQZ92272.1	pgm	2694
cds-AQZ92273.1	tpiA	1615
cds-AQZ92274.1	pgk	4534
cds-AQZ92275.1	gapA	562
cds-AQZ92276.1	cggR	2237
cds-AQZ92277.1	araE	197
cds-AQZ92278.1	yvbT	1812
cds-AQZ92279.1	yvbU	34
cds-AQZ92280.1	cyeB	140
cds-AQZ92281.1	yvbW	107
cds-AQZ92282.1	yvbX	28
cds-AQZ92283.1	yvbY	511
cds-AQZ92284.1	yvfW	327
cds-AQZ92285.1	yvfV	60
cds-AQZ92286.1	yvfU	16
cds-AQZ92287.1	yvfS	158
cds-AQZ92288.1	yvfR	27
cds-AQZ92289.1	rsbQ	284
cds-AQZ92290.1	rsbP	104
cds-AQZ92291.1	ganB	20
cds-AQZ92292.1	ganA	374
cds-AQZ92293.1	ganQ	42
cds-AQZ92294.1	ganP	126
cds-AQZ92295.1	cycB	28
cds-AQZ92296.1	ganR	18
cds-AQZ92297.2	yvfI	78
cds-AQZ92298.1	yvfH	1263
cds-AQZ92299.1	sigL	775
cds-AQZ92300.1	yvfG	62
cds-AQZ92301.1	epsO	140
cds-AQZ92302.1	epsN	208
cds-AQZ92303.1	epsM	175
cds-AQZ92304.1	epsL	88
cds-AQZ92305.1	epsK	366
cds-AQZ92306.1	epsJ	45
cds-AQZ92307.1	epsI	56
cds-AQZ92308.1	epsH	23
cds-AQZ92309.1	epsG	169
cds-AQZ92310.1	epsF	165
cds-AQZ92311.1	epsE	70
cds-AQZ92312.1	epsD	131
cds-AQZ92313.1	epsC	98
cds-AQZ92314.1	epsB	916
cds-AQZ92315.1	epsA	349
cds-AQZ92316.1	slrR	0
cds-AQZ92317.1	pnbA	1788
cds-AQZ92318.1		84
cds-AQZ92319.1	padC	1
cds-AQZ92320.2	yveG	4
cds-AQZ92321.1	racX	110
cds-AQZ92322.1	pbpE	194
cds-AQZ92323.1	sacB	11
cds-AQZ92324.1	levB	46
cds-AQZ92325.1	yveA	1872
cds-AQZ92326.1	yvdT	141
cds-AQZ92327.1	yvdS	60
cds-AQZ92328.1	yvdR	427
cds-AQZ92329.1	yvdQ	2016
cds-AQZ92330.1	yvdP	158
cds-AQZ92331.1	cotR	517
cds-AQZ92332.1	clpP	7692
cds-AQZ92333.1	pgcM	160
cds-AQZ92334.1	malL	38
cds-AQZ92335.1	yvdK	35
cds-AQZ92336.1	yvdJ	10
cds-AQZ92337.1	mdxG	114
cds-AQZ92338.1	mdxF	35
cds-AQZ92339.1	mdxE	29
cds-AQZ92340.1	mdxD	16
cds-AQZ92341.1	mdxR	53
cds-AQZ92342.1	yvdD	5
cds-AQZ92343.1	yvdC	4
cds-AQZ92344.1	yvdB	457
cds-AQZ92345.1	yvdA	15
cds-AQZ92346.1	yvcT	102
cds-AQZ92347.1	yvcS	46
cds-AQZ92348.1	yvcR	15
cds-AQZ92349.1	yvcQ	40
cds-AQZ92350.1	yvcP	22
cds-AQZ92351.1	yvzJ	0
cds-AQZ92352.1	yvcN	287
cds-AQZ92353.1	crh	6
cds-AQZ92354.1	whiA	22
cds-AQZ92355.1	yvcJ	450
cds-AQZ92356.1	yvcI	59
cds-AQZ92357.1	trxB	38
cds-AQZ92358.1	cwlO	3452
cds-AQZ92359.1	yvcD	1027
cds-AQZ92360.1	bmrA	288
cds-AQZ92361.1	yvcB	8
cds-AQZ92362.1	yvcA	2
cds-AQZ92363.1	hisI	69
cds-AQZ92364.1	hisF	157
cds-AQZ92365.1	hisA	100
cds-AQZ92366.1	hisH	44
cds-AQZ92367.1	hisB	21
cds-AQZ92368.1	hisD	150
cds-AQZ92369.1	hisG	25
cds-AQZ92370.1	yvpB	67
cds-AQZ92371.1	pelC	23
cds-AQZ92372.1	yvoF	125
cds-AQZ92373.1	hprP	102
cds-AQZ92374.1	yvoD	447
cds-AQZ92375.1	lgt	159
cds-AQZ92376.1	hprK	228
cds-AQZ92377.1	nagA	243
cds-AQZ92378.1	nagBA	67
cds-AQZ92379.1	yvoA	224
cds-AQZ92380.1	yvnB	141
cds-AQZ92381.1	yvnA	8
cds-AQZ92382.1	cypX	2385
cds-AQZ92383.1	yvmC	68
cds-AQZ92384.1	yvmB	3
cds-AQZ92385.1	yvmA	248
cds-AQZ92386.1	yvlD	720
cds-AQZ92387.1	yvlC	51
cds-AQZ92388.1	yvlB	96
cds-AQZ92389.1	yvlA	46
cds-AQZ92390.1	yvkN	4
cds-AQZ92391.1		1
cds-AQZ92392.1	uvrA	4918
cds-AQZ92393.1	uvrB	1362
cds-AQZ92394.1	csbA	65
cds-AQZ92395.1	yvkC	80
cds-AQZ92396.1	yvkB	48
cds-AQZ92397.1	yvkA	217
cds-AQZ92398.1	minJ	1253
cds-AQZ92399.1	swrA	3
cds-AQZ92400.1	ctpB	70
cds-AQZ92401.1	ftsE	6
cds-AQZ92402.1	cccB	39
cds-AQZ92403.1	yvjA	38
cds-AQZ92404.1	secA	1355
cds-AQZ92405.1	yvyD	196
cds-AQZ92406.1	yvzG	2
cds-AQZ92407.1	fliT	2
cds-AQZ92408.1	fliS	5
cds-AQZ92409.1	fliD	15
cds-AQZ92410.1	yvyC	1
cds-AQZ92411.1	hag	40
cds-AQZ92412.1	csrA	8
cds-AQZ92413.1	fliW	1
cds-AQZ92414.1	yviE	15
cds-AQZ92415.1	flgL	25
cds-AQZ92416.1	flgK	43
cds-AQZ92417.1	flgN	7
cds-AQZ92418.1	flgM	3
cds-AQZ92419.1	yvyF	10
cds-AQZ92420.1	comFB	0
cds-AQZ92421.1	comFA	25
cds-AQZ92422.1	degV	23
cds-AQZ92423.1	degU	51
cds-AQZ92424.1	degS	9
cds-AQZ92425.1	yvyE	39
cds-AQZ92426.1	tagV	36
cds-AQZ92427.1	tagO	335
cds-AQZ92428.1	tuaG	84
cds-AQZ92429.1	tuaF	147
cds-AQZ92430.1	tuaE	778
cds-AQZ92431.1	tuaC	2397
cds-AQZ92432.1		302
cds-AQZ92433.1	lytC	13
cds-AQZ92434.1	lytB	6
cds-AQZ92435.1	lytA	0
cds-AQZ92436.1	tagU	30
cds-AQZ92437.1	mnaA	309
cds-AQZ92438.1	gtaB	1005
cds-AQZ92439.1		3
cds-AQZ92440.1	ggaA	10
cds-AQZ92441.1		0
cds-AQZ92442.1		0
cds-AQZ92443.1		1
cds-AQZ92444.1		109
cds-AQZ92445.1	tagH	74
cds-AQZ92446.1	tagG	40
cds-AQZ92447.1	tagF	11
cds-AQZ92448.1	tagE	9
cds-AQZ92449.1	tagD	6
cds-AQZ92450.1	tagA	25
cds-AQZ92451.1	tagB	7
cds-AQZ92452.1	tagC	1
cds-AQZ92453.1	lytD	217
cds-AQZ92454.1	pmi	59
cds-AQZ92455.1	gerBA	290
cds-AQZ92456.1	gerBB	22
cds-AQZ92457.1	gerBC	79
cds-AQZ92458.1	ywtG	461
cds-AQZ92459.1	tagT	20
cds-AQZ92460.1	ywtE	14
cds-AQZ92461.1	pgdS	38
cds-AQZ92462.1	capE	0
cds-AQZ92463.1	capA	7
cds-AQZ92464.1	capC	10
cds-AQZ92465.1	capB	175
cds-AQZ92466.1		5
cds-AQZ92467.1	rbsR	295
cds-AQZ92468.1	rbsK	316
cds-AQZ92469.1	rbsD	24
cds-AQZ92470.1	rbsA	188
cds-AQZ92471.1	rbsC	133
cds-AQZ92472.1	rbsB	31
cds-AQZ92473.1	ywsB	266
cds-AQZ92474.1	ywsA	64
cds-AQZ92475.1	ywrO	968
cds-AQZ92476.1	alsD	4
cds-AQZ92477.1	alsS	61
cds-AQZ92478.1	alsR	68
cds-AQZ92479.1	ywrK	244
cds-AQZ92480.1	ywrJ	5
cds-AQZ92481.1	cotB	15
cds-AQZ92482.1	cotH	65
cds-AQZ92483.1	cotG	251
cds-AQZ92484.1	ywrF	110
cds-AQZ92485.1	ywrE	65
cds-AQZ92486.1	ywrD	375
cds-AQZ92487.1	ywrC	10
cds-AQZ92488.1	ywrB	100
cds-AQZ92489.1	ywrA	175
cds-AQZ92490.1	ywqO	32
cds-AQZ92491.1	ywqN	13
cds-AQZ92492.1	ywqM	16
cds-AQZ92493.1	ywqL	836
cds-AQZ92494.1	ywqK	8
cds-AQZ92495.1	ywqJ	147
cds-AQZ92496.1	ywqI	1
cds-AQZ92497.1	ywqH	0
cds-AQZ92498.1		0
cds-AQZ92499.1	ywqG	6
cds-AQZ92500.1	ywqF	540
cds-AQZ92501.1	ywqE	35
cds-AQZ92502.1	ptkA	49
cds-AQZ92503.1	ywqC	47
cds-AQZ92504.1	ywzD	4
cds-AQZ92505.1	ywqB	193
cds-AQZ92506.1	ywqA	2010
cds-AQZ92507.1		4
cds-AQZ92508.1	ywpJ	342
cds-AQZ92509.1	glcR	42
cds-AQZ92510.1	ssbB	140
cds-AQZ92511.1	ywpG	0
cds-AQZ92512.1	ywpF	7
cds-AQZ92513.2	ywpE	3
cds-AQZ92514.2	ywpD	10
cds-AQZ92515.1	fabZ	159
cds-AQZ92516.1	rapD	37
cds-AQZ92517.1	flhP	334
cds-AQZ92518.1	flhO	106
cds-AQZ92519.1	mbl	1974
cds-AQZ92520.1	spoIIID	29
cds-AQZ92521.1	usd	5
cds-AQZ92522.1	ywoH	27
cds-AQZ92523.1	ywoG	436
cds-AQZ92524.1	ywoF	31
cds-AQZ92525.1	pucI	16
cds-AQZ92526.1	ywoC	182
cds-AQZ92527.1	ywoB	12
cds-AQZ92528.1	amtB	106
cds-AQZ92529.1	glnK	62
cds-AQZ92530.1	bcrC	237
cds-AQZ92531.1	ywnJ	233
cds-AQZ92532.1	spoIIQ	433
cds-AQZ92533.1	ywnG	2381
cds-AQZ92534.1	ywnF	176
cds-AQZ92535.1	clsA	273
cds-AQZ92536.1	mta	10
cds-AQZ92537.1	ywnC	2
cds-AQZ92538.1	ywnB	7
cds-AQZ92539.1	ywnA	5
cds-AQZ92540.1	ureC	1554
cds-AQZ92541.1	ureB	125
cds-AQZ92542.1	ureA	16
cds-AQZ92543.1		2
cds-AQZ92544.1	csbD	4
cds-AQZ92545.1	rapB	29
cds-AQZ92546.1		0
cds-AQZ92547.1	moaA	388
cds-AQZ92548.1	fdhD	291
cds-AQZ92549.1	ywmE	1067
cds-AQZ92550.1	ywmD	14
cds-AQZ92551.1		1
cds-AQZ92552.1	ywmC	1
cds-AQZ92553.1	spoIID	943
cds-AQZ92554.1	murAA	6930
cds-AQZ92555.1	ywmB	40
cds-AQZ92556.1	ywzB	53
cds-AQZ92557.1	ywmA	9
cds-AQZ92558.1	atpC	9959
cds-AQZ92559.1	atpD	12185
cds-AQZ92560.1	atpG	1811
cds-AQZ92561.1	atpA	12986
cds-AQZ92562.1	atpH	128
cds-AQZ92563.1	atpF	233
cds-AQZ92564.1	atpE	244
cds-AQZ92565.1	atpB	1086
cds-AQZ92566.1	atpI	36
cds-AQZ92567.1	upp	239
cds-AQZ92568.1	glyA	218
cds-AQZ92569.1	ywlG	1014
cds-AQZ92570.1	ywlF	235
cds-AQZ92571.1	ywlE	69
cds-AQZ92572.1	ywlD	884
cds-AQZ92573.1	ywlC	546
cds-AQZ92574.1	ywlB	1143
cds-AQZ92575.1	spoIIR	20
cds-AQZ92576.1	ywlA	19
cds-AQZ92577.1	ywkF	240
cds-AQZ92578.1	prmC	51
cds-AQZ92579.1	prfA	190
cds-AQZ92580.1	ywkD	33
cds-AQZ92581.1	racA	773
cds-AQZ92582.1	ywkB	148
cds-AQZ92583.1	ywkA	10
cds-AQZ92584.1	tdk	67
cds-AQZ92585.1	rpmE	62
cds-AQZ92586.1	rho	2253
cds-AQZ92587.1	glpX	1577
cds-AQZ92588.1	murAB	1725
cds-AQZ92589.1	ywjH	970
cds-AQZ92590.1	fbaA	461
cds-AQZ92591.1	spo0F	61
cds-AQZ92592.1	ywjG	81
cds-AQZ92593.1	pyrG	907
cds-AQZ92594.1	rpoE	253
cds-AQZ92595.1	acdA	1189
cds-AQZ92596.1	fadF	2855
cds-AQZ92597.1	clsB	392
cds-AQZ92598.1	uvsE	36
cds-AQZ92599.1	ywjC	5
cds-AQZ92600.1	ywjB	327
cds-AQZ92601.1	ywjA	1122
cds-AQZ92602.1	ywiE	540
cds-AQZ92603.1	narI	195
cds-AQZ92604.1	narJ	25
cds-AQZ92605.1	narH	121
cds-AQZ92606.1	narG	116
cds-AQZ92607.1	arfM	1
cds-AQZ92608.1	ywiC	149
cds-AQZ92609.1	fnr	29
cds-AQZ92610.1	narK	55
cds-AQZ92611.1	argS	1433
cds-AQZ92612.1	ywiB	0
cds-AQZ92613.1	sboA	223
cds-AQZ92614.1	sboX	4
cds-AQZ92615.1	albA	844
cds-AQZ92616.1	albB	41
cds-AQZ92617.1	albC	456
cds-AQZ92618.1	albD	867
cds-AQZ92619.1	albF	249
cds-AQZ92620.1	albG	410
cds-AQZ92621.1	ywhL	294
cds-AQZ92622.1	ywhK	117
cds-AQZ92623.1		0
cds-AQZ92624.1	rapF	28
cds-AQZ92625.1	phrF	11
cds-AQZ92626.1	ywhH	189
cds-AQZ92627.1	speB	663
cds-AQZ92628.1	speE	28
cds-AQZ92629.1	pbpG	3538
cds-AQZ92630.1	ywhD	37
cds-AQZ92631.1	ywhC	262
cds-AQZ92632.1	ywhB	32
cds-AQZ92633.1	ywhA	19
cds-AQZ92634.1	thrZ	243
cds-AQZ92635.1	mmr	182
cds-AQZ92636.1	ywgB	8
cds-AQZ92637.1	ywgA	16
cds-AQZ92638.1	ywfO	356
cds-AQZ92639.1	ywzC	4
cds-AQZ92640.1	rsfA	443
cds-AQZ92641.1	ywfM	503
cds-AQZ92642.1	ywfL	253
cds-AQZ92643.1	cysL	61
cds-AQZ92644.1	eutD	176
cds-AQZ92645.1	ywfH	94
cds-AQZ92646.1	ywfG	154
cds-AQZ92647.1	bacE	148
cds-AQZ92648.1	bacD	135
cds-AQZ92649.1	bacC	102
cds-AQZ92650.1	bacB	56
cds-AQZ92651.1	bacA	7
cds-AQZ92652.1	ywfA	2365
cds-AQZ92653.1	rocC	834
cds-AQZ92654.1	rocB	133
cds-AQZ92655.1	rocA	629
cds-AQZ92656.1	rocG	175
cds-AQZ92657.1	yweA	66
cds-AQZ92658.1	spsL	267
cds-AQZ92659.1	spsK	896
cds-AQZ92660.1	spsJ	845
cds-AQZ92661.1	spsI	249
cds-AQZ92662.1	spsG	463
cds-AQZ92663.1	spsF	1041
cds-AQZ92664.1	spsE	2354
cds-AQZ92665.1	spsD	885
cds-AQZ92666.1	spsC	1090
cds-AQZ92667.1	spsB	1108
cds-AQZ92668.1	spsA	163
cds-AQZ92669.1		0
cds-AQZ92670.1	gerQ	4865
cds-AQZ92671.1	ywdK	593
cds-AQZ92672.1	ywdJ	850
cds-AQZ92673.1	ywdI	90
cds-AQZ92674.1	ywdH	206
cds-AQZ92675.1	ung	487
cds-AQZ92676.1	ywdF	95
cds-AQZ92677.1	ywdE	54
cds-AQZ92678.1	ywdD	71
cds-AQZ92679.1	ywzG	6
cds-AQZ92680.1	thiD	115
cds-AQZ92681.1	ywdA	1
cds-AQZ92682.1	sacA	240
cds-AQZ92683.1	sacP	101
cds-AQZ92684.1	ywcJ	90
cds-AQZ92685.1	sacT	12929
cds-AQZ92686.1	vpr	1517
cds-AQZ92687.1	ywcH	169
cds-AQZ92688.1	nfrA	836
cds-AQZ92689.1	rodA	80
cds-AQZ92690.1	ywcE	264
cds-AQZ92691.1	qoxD	3832
cds-AQZ92692.1	qoxC	1839
cds-AQZ92693.1	qoxB	2663
cds-AQZ92694.1	galT	1292
cds-AQZ92695.1	galK	33
cds-AQZ92696.1	ywcD	27
cds-AQZ92697.1	ywcC	5
cds-AQZ92698.1	slrA	8
cds-AQZ92699.1	ywcB	1415
cds-AQZ92700.1	ywcA	10162
cds-AQZ92701.1	ywbO	137
cds-AQZ92702.1	efeN	558
cds-AQZ92703.1	efeM	34
cds-AQZ92704.1	efeU	314
cds-AQZ92705.1	thiE	147
cds-AQZ92706.1	thiM	160
cds-AQZ92707.1	ywbI	131
cds-AQZ92708.1	ywbH	19
cds-AQZ92709.1	lrgB	220
cds-AQZ92710.1	ywbF	244
cds-AQZ92711.1	ywbE	1
cds-AQZ92712.1	ywbD	196
cds-AQZ92713.1	ywbC	85
cds-AQZ92714.1	ywbB	5
cds-AQZ92715.1	ywbA	1363
cds-AQZ92716.1	epr	524
cds-AQZ92717.1	sacX	273
cds-AQZ92718.1	sacY	14
cds-AQZ92719.1	gspA	352
cds-AQZ92720.1	ywaF	55
cds-AQZ92721.1	ywaE	2124
cds-AQZ92722.1	tyrZ	76
cds-AQZ92723.1	ywaD	287
cds-AQZ92724.1	ywaC	4
cds-AQZ92725.1	menA	458
cds-AQZ92726.1	ywzH	6
cds-AQZ92727.1	dltA	1716
cds-AQZ92728.1	dltB	914
cds-AQZ92729.1	dltC	8
cds-AQZ92730.1	dltD	161
cds-AQZ92731.1	dltE	791
cds-AQZ92732.1	ywaA	114
cds-AQZ92733.1	licH	3868
cds-AQZ92734.1	licA	72
cds-AQZ92735.1	licC	3590
cds-AQZ92736.1	licB	99
cds-AQZ92737.1	licR	200
cds-AQZ92738.1	yxzF	37
cds-AQZ92739.1	yxlJ	57
cds-AQZ92740.1	katX	766
cds-AQZ92741.1	yxlH	624
cds-AQZ92742.1	yxlG	511
cds-AQZ92743.1	yxlF	80
cds-AQZ92744.1	yxlE	5
cds-AQZ92745.1	yxlD	1
cds-AQZ92746.1	yxlC	21
cds-AQZ92747.1	sigY	109
cds-AQZ92748.1	yxlA	333
cds-AQZ92749.1	yxkO	761
cds-AQZ92750.1	cydD	2347
cds-AQZ92751.1	cydC	3501
cds-AQZ92752.1	cydB	3602
cds-AQZ92753.1	cydA	59
cds-AQZ92754.1	cimH	128
cds-AQZ92755.1	yxkI	438
cds-AQZ92756.1	yxzE	410
cds-AQZ92757.1	yxkH	368
cds-AQZ92758.1	msmX	298
cds-AQZ92759.1	yxkF	41
cds-AQZ92760.1	aldY	1231
cds-AQZ92761.1	yxkD	5
cds-AQZ92762.1	yxkC	4
cds-AQZ92763.1	galE	1177
cds-AQZ92764.1	yxkA	19
cds-AQZ92765.1	yxjO	161
cds-AQZ92766.1	yxjN	69
cds-AQZ92767.1	yxjM	185
cds-AQZ92768.1	yxjL	31
cds-AQZ92769.1	pepT	758
cds-AQZ92770.1	yxjJ	66
cds-AQZ92771.1	yxjI	4
cds-AQZ92772.1	yxjH	380
cds-AQZ92773.1	yxjG	736
cds-AQZ92774.1	yxjF	1633
cds-AQZ92775.1	scoB	873
cds-AQZ92776.1	scoA	373
cds-AQZ92777.1	yxjC	2778
cds-AQZ92778.1	yxjB	205
cds-AQZ92779.1	yxjA	368
cds-AQZ92780.1	yxiS	215
cds-AQZ92781.1	katE	3500
cds-AQZ92782.1	citH	4951
cds-AQZ92783.1	bglS	60
cds-AQZ92784.1	licT	46
cds-AQZ92785.1	yxiP	18
cds-AQZ92786.1	yxiO	1971
cds-AQZ92787.1	deaD	356
cds-AQZ92788.1	yxiM	144
cds-AQZ92789.1		3
cds-AQZ92790.1	yxzJ	1
cds-AQZ92791.1	yxiK	8
cds-AQZ92792.1	yxiJ	4
cds-AQZ92793.1	yxiI	6
cds-AQZ92794.1	yxzG	3
cds-AQZ92795.1	yxiH	1
cds-AQZ92796.1	yxiG	1
cds-AQZ92797.1	yxzC	0
cds-AQZ92798.1	yxiF	2
cds-AQZ92799.1	wapI	3
cds-AQZ92800.1	wapA	144
cds-AQZ92801.1	yxiE	151
cds-AQZ92802.1	bglP	1067
cds-AQZ92803.1	yxxE	0
cds-AQZ92804.1	yxxD	0
cds-AQZ92805.1	yxiD	19
cds-AQZ92806.1	yxiC	7
cds-AQZ92807.1	yxiB	3
cds-AQZ92808.1	abnB	589
cds-AQZ92809.1	yxzL	2
cds-AQZ92810.1	hutP	323
cds-AQZ92811.1	hutH	532
cds-AQZ92812.1	hutU	1010
cds-AQZ92813.1	hutI	501
cds-AQZ92814.1	hutG	475
cds-AQZ92815.1	hutM	1427
cds-AQZ92816.1	pdp	1257
cds-AQZ92817.1	nupC	196
cds-AQZ92818.1	deoC	63
cds-AQZ92819.1	deoR	279
cds-AQZ92820.1	yxxB	154
cds-AQZ92821.1	yxeR	327
cds-AQZ92822.1	yxeQ	194
cds-AQZ92823.1	yxeP	74
cds-AQZ92824.1	yxeO	11
cds-AQZ92825.1	yxeN	30
cds-AQZ92826.1	yxeM	42
cds-AQZ92827.1	yxeL	91
cds-AQZ92828.1	yxeK	102
cds-AQZ92829.1	yxeJ	1
cds-AQZ92830.1	yxeI	251
cds-AQZ92831.1	yxeH	63
cds-AQZ92832.1	yxeG	57
cds-AQZ92833.1	yxeF	68
cds-AQZ92834.1	yxeE	1833
cds-AQZ92835.1	yxeD	36
cds-AQZ92836.1	yxeC	10
cds-AQZ92837.1	yxeB	20
cds-AQZ92838.1	yxeA	7
cds-AQZ92839.1	yxdM	40
cds-AQZ92840.1	yxdL	44
cds-AQZ92841.1	yxdK	189
cds-AQZ92842.1	yxdJ	184
cds-AQZ92843.1	iolJ	444
cds-AQZ92844.1	iolI	20
cds-AQZ92845.1	iolH	28
cds-AQZ92846.1	iolG	52
cds-AQZ92847.1	iolF	254
cds-AQZ92848.1	iolE	154
cds-AQZ92849.1	iolD	110
cds-AQZ92850.1	iolC	26
cds-AQZ92851.1	iolB	10
cds-AQZ92852.1	mmsA	69
cds-AQZ92853.1	iolR	14
cds-AQZ92854.1	iolS	74
cds-AQZ92855.1	yxcE	19
cds-AQZ92856.1	yxcD	0
cds-AQZ92857.1	csbC	6478
cds-AQZ92858.1	htpG	77
cds-AQZ92859.1	yxcA	29
cds-AQZ92860.1	yxbG	394
cds-AQZ92861.1	yxbF	110
cds-AQZ92862.1	aldX	158
cds-AQZ92863.1	yxbD	6
cds-AQZ92864.1	yxbC	572
cds-AQZ92865.1	yxbB	27
cds-AQZ92866.1	aslA	2
cds-AQZ92867.1	yxnB	6
cds-AQZ92868.1	asnH	33
cds-AQZ92869.1	yxaM	10
cds-AQZ92870.1	yxaL	676
cds-AQZ92871.1	yxaJ	30
cds-AQZ92872.1	yxaI	3
cds-AQZ92873.1	yxaH	72
cds-AQZ92874.1	qodI	65
cds-AQZ92875.1	yxaF	7
cds-AQZ92876.1	yxnA	3634
cds-AQZ92877.1	yxaD	21
cds-AQZ92878.1	yxzK	3
cds-AQZ92879.1	yxaC	46
cds-AQZ92880.1	yxaB	55
cds-AQZ92881.1	glxK	186
cds-AQZ92882.1	gntR	5
cds-AQZ92883.1	gntK	140
cds-AQZ92884.1	gntP	337
cds-AQZ92885.1	gntZ	947
cds-AQZ92886.1	ahpC	796
cds-AQZ92887.1	ahpF	15267
cds-AQZ92888.1	bglA	46
cds-AQZ92889.1	yyzE	4
cds-AQZ92890.1		5
cds-AQZ92891.1	yydK	7
cds-AQZ92892.1	yyzN	1
cds-AQZ92893.1	yydJ	4
cds-AQZ92894.1	yydI	2
cds-AQZ92895.1	yydH	1
cds-AQZ92896.1	yydG	3
cds-AQZ92897.1	yydF	5
cds-AQZ92898.1	fbp	246
cds-AQZ92899.1	yydD	0
cds-AQZ92900.1	yydC	0
cds-AQZ92901.1	yydB	3
cds-AQZ92902.1	yydA	60
cds-AQZ92903.1	yyzF	10
cds-AQZ92904.1	yycS	9
cds-AQZ92905.1	yycR	7611
cds-AQZ92906.1	yyzG	5
cds-AQZ92907.1	yycQ	8
cds-AQZ92908.1	yycP	734
cds-AQZ92909.1	yycO	302
cds-AQZ92910.1	yycN	172
cds-AQZ92911.1	rapG	159
cds-AQZ92912.1	phrG	57
cds-AQZ92913.1	argI	838
cds-AQZ92914.1	rocE	914
cds-AQZ92915.1	rocD	239
cds-AQZ92916.1	rocR	168
cds-AQZ92917.1		5
cds-AQZ92918.1	htrC	294
cds-AQZ92919.1	walJ	73
cds-AQZ92920.1	walI	13
cds-AQZ92921.1	walK	61
cds-AQZ92922.1	purA	1357
cds-AQZ92923.1	yycE	53
cds-AQZ92924.1	dnaC	258
cds-AQZ92925.1	yycD	25
cds-AQZ92926.1	yyzB	3
cds-AQZ92927.1	yycC	144
cds-AQZ92928.1	yycB	2718
cds-AQZ92929.1	yycA	464
cds-AQZ92930.1	rplI	22
cds-AQZ92931.1	yybT	299
cds-AQZ92932.1	yybS	44
cds-AQZ92933.1	yyzH	4
cds-AQZ92934.1	cotF	454
cds-AQZ92935.1	yybR	180
cds-AQZ92936.1	ppaC	153
cds-AQZ92937.1	yybP	46
cds-AQZ92938.1		1025
cds-AQZ92939.1	yybO	291
cds-AQZ92940.1		1
cds-AQZ92941.1		30
cds-AQZ92942.1	yybN	11
cds-AQZ92943.1	yybM	2
cds-AQZ92944.1	yybL	0
cds-AQZ92945.1	yybK	0
cds-AQZ92946.1	yybJ	2
cds-AQZ92947.1	yybI	53
cds-AQZ92948.1	yybH	0
cds-AQZ92949.1	yybG	160
cds-AQZ92950.1	yybF	718
cds-AQZ92951.1	yybE	23
cds-AQZ92952.1	yybD	9
cds-AQZ92953.1	yybC	32
cds-AQZ92954.1	yybB	9
cds-AQZ92955.1	yybA	2
cds-AQZ92956.1	yyaT	15
cds-AQZ92957.1	yyaS	0
cds-AQZ92958.1	yyaR	2
cds-AQZ92959.1	yyaQ	13
cds-AQZ92960.1	yyaP	4
cds-AQZ92961.1	tetB	54
cds-AQZ92962.1	yyaO	9
cds-AQZ92963.1	yyaN	0
cds-AQZ92964.1	yyaM	10
cds-AQZ92965.1	yyaL	490
cds-AQZ92966.1	yyaK	52
cds-AQZ92967.1	yyaJ	207
cds-AQZ92968.1	maa	84
cds-AQZ92969.1	yyaH	5
cds-AQZ92970.1	ccpB	57
cds-AQZ92971.1	exoAA	81
cds-AQZ92972.1	rpsR	712
cds-AQZ92973.1	ssbA	142
cds-AQZ92974.1	rpsF	43
cds-AQZ92975.1	yyaF	58
cds-AQZ92976.1	yyaE	58
cds-AQZ92977.1	yyzM	4
cds-AQZ92978.1	yyaC	224
cds-AQZ92979.1	parB	37
cds-AQZ92980.1	parA	4
cds-AQZ92981.1	yyaB	0
cds-AQZ92982.1	noc	71
cds-AQZ92983.1	gidB	8
cds-AQZ92984.1	gidA	236
cds-AQZ92985.1	trmE	64
cds-AQZ92986.1	jag	33
cds-AQZ92987.1	spoIIIJ	94
cds-AQZ92988.1	rnpA	21
cds-AQZ92989.1	rpmH	194
cds-AQZ92990.1	rpsE	251
cds-AQZ92991.1	ybdK	2
cds-AQZ92992.1	ybeC	499
cds-AQZ92993.1	ybfB	109
cds-AQZ92994.1	glnJ	21
cds-AQZ92995.1	ycbO	129
cds-AQZ92996.1	ycbR	15
cds-AQZ92997.1	ycdC	128
cds-AQZ92998.1	tmrB	167
cds-AQZ92999.1	ycgM	36
cds-AQZ93000.1	nucA	13
cds-AQZ93001.1	ycnC	496
cds-AQZ93002.1	gabD	2605
cds-AQZ93003.1	ycsI	170
cds-AQZ93004.1	kipA	93
cds-AQZ93005.1	ydaC	79
cds-AQZ93006.1	ydaL	32
cds-AQZ93007.1	ydaS	10786
cds-AQZ93008.1	murF	263
cds-AQZ93009.1	ydcC	1318
cds-AQZ93010.1	ydcF	1
cds-AQZ93011.1	yddJ	2
cds-AQZ93012.1	ydeB	7
cds-AQZ93013.1	ydeG	21
cds-AQZ93014.1	ydfB	7
cds-AQZ93015.1	ydhK	5
cds-AQZ93016.1	guaA	678
cds-AQZ93017.1	yezG	5
cds-AQZ93018.1	yetG	313
cds-AQZ93019.1	ltaSA	145
cds-AQZ93020.1	yfjE	94
cds-AQZ93021.1	ssuB	98
cds-AQZ93022.1	ygaN	12
cds-AQZ93023.1	ygzD	31
cds-AQZ93024.1	cueR	918
cds-AQZ93025.1	yhaN	415
cds-AQZ93026.1	yhaH	33
cds-AQZ93027.1	yisN	139
cds-AQZ93028.1	yisT	543
cds-AQZ93029.1	ipi	46
cds-AQZ93030.1	yitZ	64
cds-AQZ93031.1	trpS	157
cds-AQZ93032.1	yjbJ	223
cds-AQZ93033.1	yjbO	1830
cds-AQZ93034.1	thiS	0
cds-AQZ93035.1	yjcD	382
cds-AQZ93036.1	yjcI	180
cds-AQZ93037.1	ctaO	550
cds-AQZ93038.1	uxaC	16
cds-AQZ93039.1	dppE	194
cds-AQZ93040.1	ykhA	21
cds-AQZ93041.1	ykzN	146
cds-AQZ93042.1	ykoP	9
cds-AQZ93043.1	dgcW	10
cds-AQZ93044.1	mtnK	30
cds-AQZ93045.1	ykzR	2
cds-AQZ93046.1	pbpH	82
cds-AQZ93047.1	ykuD	314
cds-AQZ93048.1	fadG	30
cds-AQZ93049.1	ykzU	3
cds-AQZ93050.1	mreBH	150
cds-AQZ93051.1	ykzI	6
cds-AQZ93052.1	ykzC	45
cds-AQZ93053.1	ylaC	4
cds-AQZ93054.1	ylbG	57
cds-AQZ93055.1	yllB	278
cds-AQZ93056.1	spoIIGA	97
cds-AQZ93057.1	ylmB	55
cds-AQZ93058.1	sepF	1387
cds-AQZ93059.1	fliE	1
cds-AQZ93060.1	ymfD	621
cds-AQZ93061.1		0
cds-AQZ93062.1	pksN	1691
cds-AQZ93063.1	ynaB	4
cds-AQZ93064.1	ynzD	59
cds-AQZ93065.1	sspO	3
cds-AQZ93066.1	yozH	1
cds-AQZ93067.1	yobN	101
cds-AQZ93068.1	yobM	5
cds-AQZ93069.1	yojJ	43
cds-AQZ93070.1	yotH	0
cds-AQZ93071.1	yotF	0
cds-AQZ93072.1	nrdI	0
cds-AQZ93073.1	yorP	0
cds-AQZ93074.1		488
cds-AQZ93075.1	yptA	107
cds-AQZ93076.1	ypqE	154
cds-AQZ93077.1	asnC	1325
cds-AQZ93078.1	ypjA	85
cds-AQZ93079.1	ypiA	196
cds-AQZ93080.1	aroE	547
cds-AQZ93081.1	fni	531
cds-AQZ93082.1	ypbD	40
cds-AQZ93083.1	scpA	32
cds-AQZ93084.1	lysA	153
cds-AQZ93085.1	spoVAA	31
cds-AQZ93086.1	yqkE	3
cds-AQZ93087.1	yqzJ	10
cds-AQZ93088.1	yqjD	3019
cds-AQZ93089.1	sipW	6
cds-AQZ93090.1	yqzG	1076
cds-AQZ93091.1	yqfX	2798
cds-AQZ93092.1	trmK	65
cds-AQZ93093.1	ccpN	48
cds-AQZ93094.1	glyQ	138
cds-AQZ93095.1	yrdK	4
cds-AQZ93096.1	yrdB	1
cds-AQZ93097.1		726
cds-AQZ93098.1	yrpG	12
cds-AQZ93099.1	yrhE	252
cds-AQZ93100.1	cymR	28
cds-AQZ93101.1	yrzH	0
cds-AQZ93102.1	yrbC	69
cds-AQZ93103.1	xsa	87
cds-AQZ93104.1	araL	24
cds-AQZ93105.1	ytxB	300
cds-AQZ93106.1	ytwI	474
cds-AQZ93107.1	ackA	411
cds-AQZ93108.1	ytnP	127
cds-AQZ93109.1	ytmP	623
cds-AQZ93110.1	ytfP	159
cds-AQZ93111.1	ytcP	32
cds-AQZ93112.1	bioI	121
cds-AQZ93113.1	ytvB	723
cds-AQZ93114.1	yuaF	394
cds-AQZ93115.1	gbsB	160
cds-AQZ93116.1	yugM	411
cds-AQZ93117.1		0
cds-AQZ93118.1	yueC	26
cds-AQZ93119.1	dhbA	529
cds-AQZ93120.1	yumB	1723
cds-AQZ93121.1	yutM	2513
cds-AQZ93122.1	thrC	1034
cds-AQZ93123.1	yutD	11
cds-AQZ93124.1	yunF	515
cds-AQZ93125.1	frlR	268
cds-AQZ93126.1	yvrA	186
cds-AQZ93127.1	sigO	1
cds-AQZ93128.1	fhuB	269
cds-AQZ93129.1	yvgK	251
cds-AQZ93130.1	opuCC	77
cds-AQZ93131.1	araR	85
cds-AQZ93132.1	yveF	3
cds-AQZ93133.1	yvcK	1367
cds-AQZ93134.1	hisZ	24
cds-AQZ93135.1	ftsX	482
cds-AQZ93136.1	comFC	14
cds-AQZ93137.1	tuaH	473
cds-AQZ93138.1	tuaD	588
cds-AQZ93139.1	tuaB	1880
cds-AQZ93140.1	mscL	18
cds-AQZ93141.1	ywoD	700
cds-AQZ93142.1	ywnH	435
cds-AQZ93143.1	ywmF	5
cds-AQZ93144.1	albE	338
cds-AQZ93145.1	ywfI	1154
cds-AQZ93146.1	ywcI	26079
cds-AQZ93147.1	qoxA	173
cds-AQZ93148.1	ywzA	4995
cds-AQZ93149.1	yxxF	328
cds-AQZ93150.1	bglH	91
cds-AQZ93151.1	walH	10
cds-AQZ93152.1	walR	115
cds-AQZ93153.1	yaaD	271
cds-B4U62_00615	cysE	11
cds-B4U62_01670		0
cds-B4U62_01720	yceC	32
cds-B4U62_01755		79
cds-B4U62_02485		3
cds-B4U62_02610		166
cds-B4U62_02700		0
cds-B4U62_02950		0
cds-B4U62_03065		0
cds-B4U62_03355		91
cds-B4U62_03465		36
cds-B4U62_03470		1
cds-B4U62_03500		869
cds-B4U62_03525		0
cds-B4U62_03795	yerH	152
cds-B4U62_03805	sapB	504
cds-B4U62_04080		126
cds-B4U62_04535	acoL	26563
cds-B4U62_05450	yheH	163
cds-B4U62_06590		1
cds-B4U62_06655	manP	45
cds-B4U62_06855	uxaB	25
cds-B4U62_06970	xkdE	116
cds-B4U62_09575		0
cds-B4U62_09710		8
cds-B4U62_10255		0
cds-B4U62_10310		0
cds-B4U62_10325	yobH	1
cds-B4U62_12305	trpD	12
cds-B4U62_12640		0
cds-B4U62_12665		5
cds-B4U62_12920		3
cds-B4U62_13030	lpdV	2277
cds-B4U62_13085	mmgA	415
cds-B4U62_13370		2
cds-B4U62_13705	yqfA	824
cds-B4U62_14220	yqaD	0
cds-B4U62_14295	yrkH	5
cds-B4U62_14310		0
cds-B4U62_14415	azlD	11
cds-B4U62_14440		6
cds-B4U62_15270		4567
cds-B4U62_16885		0
cds-B4U62_17770	yusR	27
cds-B4U62_17925	yvrE	625
cds-B4U62_18345		3
cds-B4U62_18390	yvfT	158
cds-B4U62_18780	yvzA	4
cds-B4U62_19010	prfB	706
cds-B4U62_19210		1
cds-B4U62_19750		18
cds-B4U62_20060		10
cds-B4U62_20205		285
cds-B4U62_20710		1
cds-B4U62_20985		195
cds-B4U62_21690		1
cds-B4U62_21845		4
cds-B4U62_21945		1
__no_feature		4556939
__ambiguous		27810
__too_low_aQual		71938
__not_aligned		435940
__alignment_not_unique		0
