BS1321_00005	0
BS1321_00010	0
BS1321_00015	0
BS1321_00020	0
BS1321_00035	0
BS1321_00040	0
BS1321_00050	0
BS1321_00055	0
BS1321_00060	0
BS1321_00065	0
BS1321_00070	0
BS1321_00075	0
BS1321_00080	0
BS1321_00085	0
BS1321_00090	0
BS1321_00095	0
BS1321_00105	0
BS1321_00110	0
BS1321_00115	0
BS1321_00120	0
BS1321_00125	0
BS1321_00130	0
BS1321_00140	68
BS1321_00145	0
BS1321_00150	0
BS1321_00155	322
BS1321_00160	126
BS1321_00165	24
BS1321_00170	33
BS1321_00175	0
BS1321_00180	0
BS1321_00185	0
BS1321_00190	11
BS1321_00195	0
BS1321_00200	0
BS1321_00205	0
BS1321_00210	1886
BS1321_00215	489
BS1321_00220	0
BS1321_00225	0
BS1321_00230	0
BS1321_00235	0
BS1321_00240	0
BS1321_00245	0
BS1321_00250	0
BS1321_00255	0
BS1321_00265	0
BS1321_00270	0
BS1321_00280	0
BS1321_00285	0
BS1321_00290	0
BS1321_00295	0
BS1321_00300	0
BS1321_00305	0
BS1321_00310	21
BS1321_00315	3
BS1321_00320	0
BS1321_00325	4
BS1321_00330	2
BS1321_00335	1
BS1321_00340	0
BS1321_00345	0
BS1321_00350	0
BS1321_00360	0
BS1321_00365	0
BS1321_00370	93
BS1321_00375	863
BS1321_00380	94
BS1321_00385	9
BS1321_00390	0
BS1321_00395	0
BS1321_00400	0
BS1321_00405	0
BS1321_00410	0
BS1321_00415	0
BS1321_00420	0
BS1321_00425	105
BS1321_00430	60
BS1321_00435	49
BS1321_00440	190
BS1321_00445	61
BS1321_00450	30
BS1321_00455	4
BS1321_00460	7
BS1321_00465	4
BS1321_00470	23
BS1321_00475	403
BS1321_00480	14
BS1321_00485	75
BS1321_00490	64
BS1321_00495	141
BS1321_00500	462
BS1321_00505	147
BS1321_00510	10
BS1321_00515	11
BS1321_00520	19
BS1321_00525	7
BS1321_00530	1
BS1321_00535	25
BS1321_00540	72
BS1321_00545	187
BS1321_00550	644
BS1321_00555	24
BS1321_00560	36
BS1321_00565	38
BS1321_00570	14
BS1321_00575	5
BS1321_00580	15
BS1321_00585	4
BS1321_00590	10
BS1321_00595	27
BS1321_00610	2
BS1321_00615	1
BS1321_00620	289
BS1321_00625	15
BS1321_00630	8
BS1321_00635	10
BS1321_00640	4
BS1321_00645	2
BS1321_00650	15
BS1321_00655	35
BS1321_00660	1295
BS1321_00665	711
BS1321_00670	1152
BS1321_00675	720
BS1321_00680	64
BS1321_00685	48
BS1321_00690	0
BS1321_00695	10
BS1321_00700	390
BS1321_00705	38
BS1321_00710	90
BS1321_00715	1
BS1321_00720	0
BS1321_00725	4
BS1321_00730	3765
BS1321_00735	21836
BS1321_00740	1
BS1321_00745	1
BS1321_00750	2
BS1321_00755	29
BS1321_00760	40
BS1321_00765	4
BS1321_00770	30
BS1321_00775	11
BS1321_00780	12
BS1321_00785	32
BS1321_00790	9
BS1321_00795	7
BS1321_00800	0
BS1321_00805	12
BS1321_00810	2
BS1321_00815	10
BS1321_00820	7
BS1321_00825	1
BS1321_00830	5
BS1321_00835	1
BS1321_00840	7
BS1321_00845	3
BS1321_00850	1
BS1321_00855	13
BS1321_00860	1
BS1321_00865	121
BS1321_00875	281
BS1321_00880	578
BS1321_00885	36
BS1321_00890	52
BS1321_00895	231
BS1321_00900	176
BS1321_00905	85
BS1321_00910	282
BS1321_00915	62
BS1321_00920	108
BS1321_00925	160
BS1321_00930	208
BS1321_00935	82
BS1321_00940	108
BS1321_00945	302
BS1321_00950	23
BS1321_00955	183
BS1321_00960	110
BS1321_00965	130
BS1321_00970	152
BS1321_00975	9
BS1321_00980	165
BS1321_00985	87
BS1321_00990	77
BS1321_00995	163
BS1321_01000	8
BS1321_01005	5
BS1321_01010	61
BS1321_01015	102
BS1321_01020	87
BS1321_01025	74
BS1321_01030	307
BS1321_01035	99
BS1321_01040	0
BS1321_01045	41
BS1321_01050	27
BS1321_01055	2
BS1321_01060	62
BS1321_01065	71
BS1321_01070	198
BS1321_01075	21
BS1321_01080	4
BS1321_01085	9
BS1321_01090	1
BS1321_01095	8
BS1321_01100	9
BS1321_01105	11
BS1321_01110	23
BS1321_01115	52
BS1321_01120	254
BS1321_01125	30
BS1321_01130	92
BS1321_01135	704
BS1321_01140	1468
BS1321_01145	212
BS1321_01150	1308
BS1321_01155	91
BS1321_01160	1202
BS1321_01165	1056
BS1321_01170	3031
BS1321_01175	682
BS1321_01180	12
BS1321_01185	36
BS1321_01190	30
BS1321_01195	29
BS1321_01200	48
BS1321_01205	95
BS1321_01210	60
BS1321_01215	19
BS1321_01220	11
BS1321_01225	15
BS1321_01230	909
BS1321_01235	40
BS1321_01240	1
BS1321_01245	13
BS1321_01250	33
BS1321_01255	20
BS1321_01260	18
BS1321_01265	12
BS1321_01270	35
BS1321_01275	168
BS1321_01280	72
BS1321_01285	0
BS1321_01290	0
BS1321_01295	0
BS1321_01300	0
BS1321_01305	0
BS1321_01310	3
BS1321_01315	209
BS1321_01320	81
BS1321_01325	211
BS1321_01330	320
BS1321_01335	375
BS1321_01340	26
BS1321_01345	459
BS1321_01355	78
BS1321_01360	11
BS1321_01365	91
BS1321_01370	0
BS1321_01375	0
BS1321_01380	0
BS1321_01385	0
BS1321_01390	0
BS1321_01395	404
BS1321_01400	5
BS1321_01405	7
BS1321_01410	10
BS1321_01415	17
BS1321_01420	1
BS1321_01425	1
BS1321_01430	5
BS1321_01435	0
BS1321_01440	18
BS1321_01445	10
BS1321_01450	66
BS1321_01460	0
BS1321_01465	0
BS1321_01475	0
BS1321_01480	0
BS1321_01485	22
BS1321_01490	17
BS1321_01495	43
BS1321_01500	182
BS1321_01505	149
BS1321_01510	25
BS1321_01515	74
BS1321_01520	0
BS1321_01525	0
BS1321_01530	0
BS1321_01535	0
BS1321_01540	0
BS1321_01545	0
BS1321_01550	0
BS1321_01555	0
BS1321_01560	0
BS1321_01575	0
BS1321_01580	0
BS1321_01585	0
BS1321_01590	0
BS1321_01595	0
BS1321_01600	0
BS1321_01605	0
BS1321_01610	0
BS1321_01615	0
BS1321_01620	30
BS1321_01625	326
BS1321_01630	473
BS1321_01635	0
BS1321_01640	0
BS1321_01645	0
BS1321_01650	0
BS1321_01655	0
BS1321_01660	0
BS1321_01665	0
BS1321_01670	0
BS1321_01675	0
BS1321_01680	0
BS1321_01685	0
BS1321_01690	0
BS1321_01695	0
BS1321_01700	0
BS1321_01705	0
BS1321_01710	0
BS1321_01715	0
BS1321_01720	8
BS1321_01725	0
BS1321_01735	4
BS1321_01740	23
BS1321_01745	559
BS1321_01750	80
BS1321_01755	61
BS1321_01760	169
BS1321_01765	21
BS1321_01770	148
BS1321_01775	77
BS1321_01780	12
BS1321_01790	0
BS1321_01795	0
BS1321_01800	0
BS1321_01805	0
BS1321_01810	0
BS1321_01815	0
BS1321_01825	0
BS1321_01830	264
BS1321_01835	0
BS1321_01840	0
BS1321_01845	0
BS1321_01850	692
BS1321_01855	0
BS1321_01860	0
BS1321_01865	49
BS1321_01875	0
BS1321_01880	70
BS1321_01885	0
BS1321_01890	0
BS1321_01900	50
BS1321_01905	44
BS1321_01910	0
BS1321_01915	0
BS1321_01920	0
BS1321_01925	0
BS1321_01930	0
BS1321_01935	0
BS1321_01940	8459
BS1321_01945	9
BS1321_01950	0
BS1321_01960	112
BS1321_01965	22
BS1321_01970	25
BS1321_01975	2
BS1321_01980	10
BS1321_01985	2
BS1321_01990	4
BS1321_01995	5
BS1321_02000	1
BS1321_02005	2
BS1321_02010	1
BS1321_02020	0
BS1321_02025	0
BS1321_02030	0
BS1321_02035	0
BS1321_02040	47
BS1321_02045	28
BS1321_02050	30
BS1321_02055	3
BS1321_02060	17
BS1321_02065	11
BS1321_02075	24
BS1321_02080	69
BS1321_02085	97
BS1321_02090	7
BS1321_02095	3
BS1321_02100	2
BS1321_02105	12
BS1321_02110	6
BS1321_02115	23
BS1321_02120	4
BS1321_02125	14
BS1321_02130	35
BS1321_02135	25
BS1321_02140	0
BS1321_02145	0
BS1321_02150	0
BS1321_02155	0
BS1321_02160	51
BS1321_02165	11
BS1321_02170	3
BS1321_02175	0
BS1321_02185	0
BS1321_02190	0
BS1321_02195	0
BS1321_02205	0
BS1321_02210	0
BS1321_02215	0
BS1321_02220	0
BS1321_02225	0
BS1321_02230	0
BS1321_02235	0
BS1321_02240	0
BS1321_02245	0
BS1321_02250	0
BS1321_02255	0
BS1321_02260	0
BS1321_02265	0
BS1321_02270	0
BS1321_02275	0
BS1321_02280	0
BS1321_02285	0
BS1321_02290	0
BS1321_02295	0
BS1321_02300	0
BS1321_02305	0
BS1321_02310	0
BS1321_02315	0
BS1321_02320	3
BS1321_02325	7
BS1321_02330	2
BS1321_02335	10
BS1321_02340	12
BS1321_02345	7
BS1321_02350	1
BS1321_02355	31
BS1321_02360	33
BS1321_02365	118
BS1321_02370	45
BS1321_02375	26
BS1321_02380	17
BS1321_02385	14
BS1321_02390	5
BS1321_02395	5
BS1321_02400	10
BS1321_02405	496
BS1321_02410	145
BS1321_02415	10
BS1321_02420	10
BS1321_02425	20
BS1321_02430	7
BS1321_02435	10
BS1321_02440	18
BS1321_02445	0
BS1321_02450	0
BS1321_02455	0
BS1321_02460	0
BS1321_02465	0
BS1321_02470	0
BS1321_02475	0
BS1321_02480	0
BS1321_02485	0
BS1321_02490	0
BS1321_02495	0
BS1321_02500	0
BS1321_02505	0
BS1321_02510	0
BS1321_02515	0
BS1321_02520	0
BS1321_02525	0
BS1321_02530	0
BS1321_02535	0
BS1321_02540	0
BS1321_02545	28
BS1321_02555	222
BS1321_02560	0
BS1321_02565	221
BS1321_02575	0
BS1321_02580	134
BS1321_02585	125
BS1321_02590	29
BS1321_02600	29
BS1321_02605	161
BS1321_02615	697
BS1321_02620	2
BS1321_02625	0
BS1321_02630	110
BS1321_02635	93
BS1321_02640	0
BS1321_02645	0
BS1321_02655	0
BS1321_02660	0
BS1321_02665	0
BS1321_02675	0
BS1321_02680	0
BS1321_02685	0
BS1321_02690	0
BS1321_02695	5
BS1321_02705	0
BS1321_02710	0
BS1321_02715	0
BS1321_02720	24
BS1321_02725	0
BS1321_02730	0
BS1321_02735	0
BS1321_02740	170
BS1321_02745	0
BS1321_02750	0
BS1321_02755	0
BS1321_02760	0
BS1321_02765	0
BS1321_02770	0
BS1321_02775	0
BS1321_02780	0
BS1321_02785	0
BS1321_02790	0
BS1321_02795	0
BS1321_02800	0
BS1321_02805	0
BS1321_02810	11
BS1321_02815	828
BS1321_02820	429
BS1321_02825	264
BS1321_02830	116
BS1321_02835	757
BS1321_02840	1349
BS1321_02845	823
BS1321_02855	810
BS1321_02860	10
BS1321_02865	207
BS1321_02870	251
BS1321_02875	70
BS1321_02880	31
BS1321_02885	280
BS1321_02890	3381
BS1321_02895	107
BS1321_02900	5993
BS1321_02905	277
BS1321_02910	471
BS1321_02915	888
BS1321_02920	5067
BS1321_02925	0
BS1321_02930	0
BS1321_02935	109
BS1321_02940	0
BS1321_02945	19
BS1321_02950	98
BS1321_02955	9
BS1321_02960	0
BS1321_02965	72
BS1321_02970	37
BS1321_02975	38
BS1321_02980	70
BS1321_02985	1373
BS1321_02990	995
BS1321_02995	1499
BS1321_03000	374
BS1321_03005	848
BS1321_03010	660
BS1321_03015	261
BS1321_03020	76
BS1321_03025	11
BS1321_03030	125
BS1321_03035	32
BS1321_03040	151
BS1321_03050	7
BS1321_03055	12
BS1321_03060	6
BS1321_03065	8
BS1321_03070	0
BS1321_03075	0
BS1321_03080	0
BS1321_03085	0
BS1321_03090	38
BS1321_03095	1370
BS1321_03100	743
BS1321_03110	0
BS1321_03115	0
BS1321_03120	11
BS1321_03125	60
BS1321_03130	108
BS1321_03135	27
BS1321_03140	0
BS1321_03145	0
BS1321_03150	0
BS1321_03155	121
BS1321_03160	177
BS1321_03165	15
BS1321_03170	8
BS1321_03175	13
BS1321_03180	0
BS1321_03185	0
BS1321_03190	0
BS1321_03195	0
BS1321_03205	48
BS1321_03210	1
BS1321_03215	0
BS1321_03220	0
BS1321_03225	0
BS1321_03230	0
BS1321_03235	0
BS1321_03240	0
BS1321_03245	0
BS1321_03250	440
BS1321_03255	0
BS1321_03260	0
BS1321_03265	0
BS1321_03270	0
BS1321_03275	0
BS1321_03280	0
BS1321_03285	0
BS1321_03290	0
BS1321_03295	0
BS1321_03300	0
BS1321_03305	1
BS1321_03310	43
BS1321_03315	0
BS1321_03320	15
BS1321_03325	1
BS1321_03330	0
BS1321_03335	7
BS1321_03340	49
BS1321_03345	15
BS1321_03350	11
BS1321_03355	0
BS1321_03360	0
BS1321_03365	19
BS1321_03370	0
BS1321_03375	1
BS1321_03380	30
BS1321_03385	1188
BS1321_03390	17
BS1321_03395	12
BS1321_03400	76
BS1321_03405	443
BS1321_03410	62
BS1321_03415	16
BS1321_03420	13
BS1321_03425	59
BS1321_03430	48
BS1321_03435	2
BS1321_03440	5
BS1321_03445	4
BS1321_03450	8
BS1321_03455	4
BS1321_03460	0
BS1321_03465	361
BS1321_03470	75
BS1321_03480	4003
BS1321_03485	0
BS1321_03490	0
BS1321_03495	0
BS1321_03500	0
BS1321_03505	0
BS1321_03510	0
BS1321_03515	23
BS1321_03520	159
BS1321_03525	347
BS1321_03530	1
BS1321_03535	0
BS1321_03540	0
BS1321_03545	15
BS1321_03550	6
BS1321_03555	179
BS1321_03560	402
BS1321_03565	47
BS1321_03570	11
BS1321_03580	0
BS1321_03590	7
BS1321_03595	0
BS1321_03600	0
BS1321_03605	13
BS1321_03610	10908
BS1321_03615	3270
BS1321_03620	218
BS1321_03625	1782
BS1321_03630	1275
BS1321_03635	294
BS1321_03640	572
BS1321_03645	54
BS1321_03650	255
BS1321_03655	449
BS1321_03660	127
BS1321_03665	43
BS1321_03670	158
BS1321_03675	118
BS1321_03680	5
BS1321_03685	39
BS1321_03690	1020
BS1321_03695	3232
BS1321_03700	33
BS1321_03705	106
BS1321_03715	17
BS1321_03720	1
BS1321_03725	181
BS1321_03730	31
BS1321_03735	45
BS1321_03745	247
BS1321_03750	882
BS1321_03760	1139
BS1321_03765	714
BS1321_03770	34
BS1321_03775	762
BS1321_03780	2422
BS1321_03785	23
BS1321_03790	5835
BS1321_03795	6992
BS1321_03800	254
BS1321_03805	17
BS1321_03810	30
BS1321_03815	11778
BS1321_03820	5266
BS1321_03825	486
BS1321_03830	191
BS1321_03835	1538
BS1321_03840	2150
BS1321_03845	198
BS1321_03855	667
BS1321_03860	213
BS1321_03865	525
BS1321_03870	139
BS1321_03875	315
BS1321_03880	1291
BS1321_03885	339
BS1321_03890	1267
BS1321_03895	4197
BS1321_03900	10
BS1321_03905	32
BS1321_03910	2167
BS1321_03915	3560
BS1321_03920	1427
BS1321_03925	1249
BS1321_03930	72
BS1321_03935	1
BS1321_03940	16
BS1321_03945	754
BS1321_03950	256
BS1321_03955	2603
BS1321_03960	23201
BS1321_03965	1809
BS1321_03970	328
BS1321_03975	1800
BS1321_03980	978
BS1321_03985	3728
BS1321_03990	227
BS1321_03995	239
BS1321_04005	500
BS1321_04015	2133
BS1321_04020	1385
BS1321_04025	795
BS1321_04030	407
BS1321_04035	250
BS1321_04040	846
BS1321_04045	363
BS1321_04050	7166
BS1321_04055	23596
BS1321_04060	27
BS1321_04065	53
BS1321_04070	44
BS1321_04075	73
BS1321_04080	0
BS1321_04085	0
BS1321_04095	0
BS1321_04100	0
BS1321_04105	0
BS1321_04110	0
BS1321_04115	0
BS1321_04120	0
BS1321_04125	0
BS1321_04130	0
BS1321_04135	0
BS1321_04140	0
BS1321_04145	0
BS1321_04150	0
BS1321_04155	0
BS1321_04160	0
BS1321_04165	0
BS1321_04170	0
BS1321_04175	0
BS1321_04180	0
BS1321_04185	0
BS1321_04190	0
BS1321_04195	0
BS1321_04200	39
BS1321_04205	230
BS1321_04210	40
BS1321_04215	45
BS1321_04220	45
BS1321_04225	2299
BS1321_04230	1665
BS1321_04235	301
BS1321_04240	1120
BS1321_04245	835
BS1321_04250	2412
BS1321_04255	10
BS1321_04260	104
BS1321_04265	35
BS1321_04270	36
BS1321_04275	240
BS1321_04280	56
BS1321_04285	1825
BS1321_04290	437
BS1321_04295	58984
BS1321_04300	530
BS1321_04305	182
BS1321_04310	143
BS1321_04315	11166
BS1321_04320	20642
BS1321_04325	23857
BS1321_04330	4023
BS1321_04335	850
BS1321_04340	992
BS1321_04345	269
BS1321_04350	1890
BS1321_04355	296
BS1321_04360	475
BS1321_04365	139
BS1321_04370	430
BS1321_04375	153
BS1321_04380	98
BS1321_04385	185
BS1321_04390	2059
BS1321_04395	1797
BS1321_04400	8933
BS1321_04410	1398
BS1321_04415	702
BS1321_04420	766
BS1321_04425	615
BS1321_04430	628
BS1321_04435	1546
BS1321_04440	702
BS1321_04445	445
BS1321_04450	263
BS1321_04455	594
BS1321_04460	425
BS1321_04465	71
BS1321_04470	686
BS1321_04475	619
BS1321_04480	159
BS1321_04485	579
BS1321_04490	16
BS1321_04495	1722
BS1321_04500	219
BS1321_04505	124
BS1321_04510	174
BS1321_04515	143
BS1321_04520	716
BS1321_04525	212
BS1321_04530	149
BS1321_04535	108
BS1321_04540	178
BS1321_04545	507
BS1321_04550	722
BS1321_04555	170
BS1321_04560	1365
BS1321_04565	1111
BS1321_04570	389
BS1321_04575	288
BS1321_04580	692
BS1321_04585	437
BS1321_04590	316
BS1321_04595	9
BS1321_04600	59
BS1321_04605	15
BS1321_04610	34
BS1321_04615	2687
BS1321_04620	859
BS1321_04625	123
BS1321_04630	74
BS1321_04635	282
BS1321_04640	1115
BS1321_04645	605
BS1321_04650	34
BS1321_04660	1484
BS1321_04665	2372
BS1321_04670	81
BS1321_04675	379
BS1321_04680	352
BS1321_04685	763
BS1321_04690	847
BS1321_04695	485
BS1321_04700	39
BS1321_04705	136
BS1321_04710	2633
BS1321_04715	69
BS1321_04720	22
BS1321_04725	28184
BS1321_04730	30031
BS1321_04735	352
BS1321_04740	298
BS1321_04745	14
BS1321_04750	25
BS1321_04755	89
BS1321_04760	217
BS1321_04765	4
BS1321_04770	715
BS1321_04775	83
BS1321_04780	15
BS1321_04785	726
BS1321_04790	8
BS1321_04795	8
BS1321_04800	3
BS1321_04805	154
BS1321_04810	3028
BS1321_04815	7753
BS1321_04820	1945
BS1321_04825	1486
BS1321_04830	2037
BS1321_04835	4026
BS1321_04840	1681
BS1321_04845	13722
BS1321_04850	2231
BS1321_04855	1207
BS1321_04860	2611
BS1321_04865	825
BS1321_04870	297
BS1321_04875	59
BS1321_04880	59
BS1321_04885	1815
BS1321_04890	1521
BS1321_04895	9042
BS1321_04900	1447
BS1321_04905	512
BS1321_04910	98
BS1321_04915	1389
BS1321_04920	34
BS1321_04925	23
BS1321_04930	10
BS1321_04935	2
BS1321_04940	9
BS1321_04945	5
BS1321_04950	39
BS1321_04955	52
BS1321_04960	42
BS1321_04965	4323
BS1321_04970	72
BS1321_04975	208
BS1321_04980	59
BS1321_04985	19306
BS1321_04990	6633
BS1321_04995	4212
BS1321_05000	7737
BS1321_05005	367
BS1321_05010	42
BS1321_05015	1940
BS1321_05020	425
BS1321_05025	1371
BS1321_05030	12332
BS1321_05035	123
BS1321_05040	139
BS1321_05045	996
BS1321_05050	69
BS1321_05060	155
BS1321_05065	2586
BS1321_05070	735
BS1321_05075	476
BS1321_05080	392
BS1321_05085	51
BS1321_05090	245
BS1321_05095	1098
BS1321_05100	820
BS1321_05105	1039
BS1321_05110	236
BS1321_05115	250
BS1321_05120	19
BS1321_05125	1991
BS1321_05130	176
BS1321_05135	87
BS1321_05140	436
BS1321_05145	334
BS1321_05150	334
BS1321_05155	186
BS1321_05160	8175
BS1321_05165	1101
BS1321_05170	86
BS1321_05175	10
BS1321_05180	279
BS1321_05185	66
BS1321_05190	110
BS1321_05195	44
BS1321_05200	126
BS1321_05205	61
BS1321_05210	193
BS1321_05215	380
BS1321_05220	257
BS1321_05225	444
BS1321_05230	265
BS1321_05235	63
BS1321_05240	185
BS1321_05245	732
BS1321_05250	2663
BS1321_05255	56
BS1321_05260	75
BS1321_05265	24
BS1321_05270	11
BS1321_05275	14
BS1321_05280	54
BS1321_05285	29
BS1321_05290	29
BS1321_05295	20
BS1321_05300	16
BS1321_05305	63
BS1321_05310	19
BS1321_05315	23
BS1321_05320	71
BS1321_05325	2040
BS1321_05330	101
BS1321_05335	175
BS1321_05340	280
BS1321_05345	71689
BS1321_05350	66
BS1321_05355	408
BS1321_05360	612
BS1321_05365	600
BS1321_05370	432
BS1321_05375	131
BS1321_05380	137
BS1321_05385	0
BS1321_05390	3528
BS1321_05395	2027
BS1321_05400	433
BS1321_05405	111
BS1321_05410	1829
BS1321_05415	1010
BS1321_05420	75
BS1321_05425	24
BS1321_05430	3
BS1321_05435	0
BS1321_05440	1463
BS1321_05445	2924
BS1321_05450	79
BS1321_05455	8
BS1321_05460	1846
BS1321_05465	781
BS1321_05470	399
BS1321_05475	1312
BS1321_05480	523
BS1321_05485	200
BS1321_05490	329
BS1321_05495	330
BS1321_05500	9581
BS1321_05505	1205
BS1321_05510	57
BS1321_05515	166
BS1321_05520	507
BS1321_05525	149
BS1321_05530	920
BS1321_05535	228
BS1321_05540	122
BS1321_05545	48
BS1321_05550	15
BS1321_05555	80
BS1321_05560	33
BS1321_05565	45
BS1321_05570	36
BS1321_05575	639
BS1321_05580	610
BS1321_05585	9695
BS1321_05590	115
BS1321_05595	138
BS1321_05600	342
BS1321_05605	123
BS1321_05610	304
BS1321_05615	179
BS1321_05620	8033
BS1321_05625	19539
BS1321_05630	1216
BS1321_05635	148
BS1321_05640	228
BS1321_05645	163
BS1321_05650	66
BS1321_05655	53
BS1321_05660	109
BS1321_05665	191
BS1321_05670	17
BS1321_05675	155
BS1321_05680	361
BS1321_05685	405
BS1321_05690	284
BS1321_05695	555
BS1321_05700	65
BS1321_05705	38
BS1321_05710	815
BS1321_05715	197
BS1321_05720	551
BS1321_05725	111
BS1321_05730	209
BS1321_05735	26
BS1321_05740	11
BS1321_05745	45
BS1321_05750	35
BS1321_05755	12
BS1321_05760	38
BS1321_05765	173
BS1321_05770	29
BS1321_05775	48
BS1321_05780	59
BS1321_05785	48
BS1321_05790	228
BS1321_05795	28
BS1321_05800	43
BS1321_05805	14
BS1321_05810	25
BS1321_05815	11
BS1321_05820	499
BS1321_05825	604
BS1321_05830	853
BS1321_05835	1703
BS1321_05840	1136
BS1321_05845	68
BS1321_05850	42
BS1321_05855	50
BS1321_05860	474
BS1321_05865	26
BS1321_05870	3
BS1321_05875	11
BS1321_05880	8
BS1321_05885	3
BS1321_05890	8
BS1321_05895	6
BS1321_05900	4
BS1321_05905	0
BS1321_05910	757
BS1321_05915	171
BS1321_05920	59
BS1321_05925	825
BS1321_05930	419
BS1321_05935	167
BS1321_05940	210
BS1321_05945	252
BS1321_05950	192
BS1321_05955	1025
BS1321_05960	26
BS1321_05965	1752
BS1321_05970	205
BS1321_05975	739
BS1321_05980	2186
BS1321_05985	6688
BS1321_05990	1
BS1321_05995	374
BS1321_06000	245
BS1321_06005	1834
BS1321_06010	3561
BS1321_06015	35
BS1321_06020	20
BS1321_06025	891
BS1321_06030	120
BS1321_06035	53
BS1321_06040	884
BS1321_06045	17
BS1321_06050	54
BS1321_06055	7429
BS1321_06060	2692
BS1321_06065	25
BS1321_06070	13
BS1321_06075	3
BS1321_06080	4
BS1321_06085	349
BS1321_06090	50
BS1321_06095	54
BS1321_06100	35
BS1321_06105	17
BS1321_06110	5
BS1321_06115	6
BS1321_06120	8
BS1321_06125	7
BS1321_06130	218
BS1321_06135	2492
BS1321_06140	3004
BS1321_06145	269
BS1321_06150	212
BS1321_06155	226
BS1321_06160	301
BS1321_06165	47
BS1321_06170	1227
BS1321_06175	1279
BS1321_06180	848
BS1321_06185	102
BS1321_06190	53
BS1321_06195	349
BS1321_06200	820
BS1321_06205	18
BS1321_06210	682
BS1321_06215	45
BS1321_06220	10
BS1321_06225	243
BS1321_06230	74
BS1321_06235	24
BS1321_06240	57
BS1321_06245	2
BS1321_06250	1
BS1321_06255	3
BS1321_06260	0
BS1321_06265	2
BS1321_06270	4
BS1321_06275	31
BS1321_06280	1965
BS1321_06285	1989
BS1321_06290	679
BS1321_06295	273
BS1321_06300	71
BS1321_06305	104
BS1321_06310	645
BS1321_06315	204
BS1321_06320	1587
BS1321_06325	75
BS1321_06330	924
BS1321_06335	243
BS1321_06340	133
BS1321_06345	1426
BS1321_06350	46
BS1321_06355	255
BS1321_06360	212
BS1321_06365	392
BS1321_06370	2416
BS1321_06375	3628
BS1321_06380	1809
BS1321_06385	213
BS1321_06390	21
BS1321_06395	3117
BS1321_06400	399
BS1321_06405	1062
BS1321_06410	312
BS1321_06415	479
BS1321_06420	1794
BS1321_06425	8129
BS1321_06430	37
BS1321_06435	3420
BS1321_06440	382
BS1321_06445	92
BS1321_06450	712
BS1321_06455	1441
BS1321_06460	124
BS1321_06470	19
BS1321_06475	2829
BS1321_06480	2022
BS1321_06485	2049
BS1321_06490	94
BS1321_06495	203
BS1321_06500	374
BS1321_06505	1310
BS1321_06510	79
BS1321_06515	115
BS1321_06520	62
BS1321_06525	19
BS1321_06530	201
BS1321_06535	2
BS1321_06540	195
BS1321_06545	60
BS1321_06550	13
BS1321_06555	25
BS1321_06560	19
BS1321_06570	51
BS1321_06575	21
BS1321_06580	11
BS1321_06585	2596
BS1321_06590	86
BS1321_06595	193
BS1321_06600	2374
BS1321_06605	381
BS1321_06610	13
BS1321_06615	32
BS1321_06620	45
BS1321_06625	16
BS1321_06630	161
BS1321_06635	100
BS1321_06640	83
BS1321_06645	0
BS1321_06650	0
BS1321_06655	287
BS1321_06660	68
BS1321_06665	29
BS1321_06670	24
BS1321_06675	34
BS1321_06680	51
BS1321_06685	155
BS1321_06690	362
BS1321_06695	38
BS1321_06700	2788
BS1321_06705	118
BS1321_06710	197
BS1321_06715	30
BS1321_06720	757
BS1321_06725	1522
BS1321_06730	124
BS1321_06735	28
BS1321_06740	4798
BS1321_06745	435
BS1321_06750	115
BS1321_06755	293
BS1321_06760	144
BS1321_06765	204
BS1321_06770	252
BS1321_06775	1021
BS1321_06780	225
BS1321_06785	27
BS1321_06790	4077
BS1321_06795	2446
BS1321_06800	2447
BS1321_06805	289
BS1321_06810	57
BS1321_06815	13
BS1321_06820	16
BS1321_06825	16
BS1321_06830	0
BS1321_06835	41
BS1321_06840	1739
BS1321_06845	256
BS1321_06850	693
BS1321_06855	14
BS1321_06860	162
BS1321_06865	1710
BS1321_06870	82
BS1321_06875	10
BS1321_06880	1
BS1321_06885	3332
BS1321_06890	19
BS1321_06895	1160
BS1321_06900	74
BS1321_06905	42
BS1321_06910	51
BS1321_06915	57
BS1321_06920	27
BS1321_06925	12518
BS1321_06930	169
BS1321_06935	19
BS1321_06940	1825
BS1321_06945	5
BS1321_06950	0
BS1321_06955	0
BS1321_06960	0
BS1321_06965	0
BS1321_06970	0
BS1321_06975	0
BS1321_06980	205
BS1321_06985	0
BS1321_06990	244
BS1321_06995	8504
BS1321_07000	1342
BS1321_07005	1264
BS1321_07010	843
BS1321_07015	20916
BS1321_07020	365
BS1321_07025	43
BS1321_07030	106
BS1321_07035	1567
BS1321_07040	411
BS1321_07045	70
BS1321_07050	716
BS1321_07055	388
BS1321_07060	3
BS1321_07065	105
BS1321_07070	50
BS1321_07075	780
BS1321_07080	62
BS1321_07085	32
BS1321_07090	4
BS1321_07095	5
BS1321_07100	0
BS1321_07105	4
BS1321_07110	0
BS1321_07115	6
BS1321_07120	4
BS1321_07125	0
BS1321_07130	4
BS1321_07140	3
BS1321_07155	6
BS1321_07160	0
BS1321_07165	50
BS1321_07170	1
BS1321_07175	0
BS1321_07180	0
BS1321_07185	0
BS1321_07190	0
BS1321_07195	0
BS1321_07200	0
BS1321_07205	10
BS1321_07210	9
BS1321_07215	0
BS1321_07220	328
BS1321_07225	0
BS1321_07230	83
BS1321_07240	0
BS1321_07245	101
BS1321_07250	157
BS1321_07255	119
BS1321_07260	377
BS1321_07265	253
BS1321_07270	125
BS1321_07275	0
BS1321_07280	0
BS1321_07285	0
BS1321_07290	0
BS1321_07295	0
BS1321_07300	0
BS1321_07305	0
BS1321_07310	0
BS1321_07315	0
BS1321_07320	19
BS1321_07325	0
BS1321_07330	0
BS1321_07335	21
BS1321_07340	0
BS1321_07345	0
BS1321_07350	0
BS1321_07355	0
BS1321_07360	14
BS1321_07365	0
BS1321_07370	25572
BS1321_07375	1723
BS1321_07380	0
BS1321_07385	0
BS1321_07390	12
BS1321_07395	0
BS1321_07400	0
BS1321_07405	0
BS1321_07410	0
BS1321_07415	0
BS1321_07420	0
BS1321_07425	0
BS1321_07430	409
BS1321_07435	110
BS1321_07440	188
BS1321_07445	26
BS1321_07450	0
BS1321_07455	0
BS1321_07465	0
BS1321_07470	0
BS1321_07475	0
BS1321_07480	0
BS1321_07485	0
BS1321_07490	19
BS1321_07495	2
BS1321_07500	33
BS1321_07505	8
BS1321_07510	12
BS1321_07515	24
BS1321_07520	698
BS1321_07525	0
BS1321_07530	28
BS1321_07535	14
BS1321_07540	1251
BS1321_07545	1938
BS1321_07550	8674
BS1321_07555	144
BS1321_07560	272
BS1321_07565	136
BS1321_07570	328
BS1321_07575	1467
BS1321_07580	2400
BS1321_07585	475
BS1321_07590	2933
BS1321_07595	1434
BS1321_07600	245
BS1321_07605	131
BS1321_07610	614
BS1321_07615	105
BS1321_07620	262
BS1321_07625	447
BS1321_07630	24
BS1321_07635	260
BS1321_07640	203
BS1321_07645	270
BS1321_07650	1
BS1321_07655	542
BS1321_07660	135
BS1321_07665	74
BS1321_07670	16
BS1321_07675	331
BS1321_07680	810
BS1321_07685	117
BS1321_07690	1879
BS1321_07695	53
BS1321_07700	71
BS1321_07705	0
BS1321_07715	4
BS1321_07720	24
BS1321_07725	20
BS1321_07730	24
BS1321_07735	33
BS1321_07740	258
BS1321_07745	841
BS1321_07750	1334
BS1321_07755	0
BS1321_07760	0
BS1321_07765	0
BS1321_07770	0
BS1321_07775	0
BS1321_07785	0
BS1321_07790	0
BS1321_07800	0
BS1321_07805	0
BS1321_07810	0
BS1321_07815	0
BS1321_07820	0
BS1321_07825	23
BS1321_07830	1726
BS1321_07835	50
BS1321_07840	55
BS1321_07845	24
BS1321_07850	4
BS1321_07855	35
BS1321_07860	47
BS1321_07865	749
BS1321_07870	515
BS1321_07875	1596
BS1321_07880	4642
BS1321_07885	1309
BS1321_07890	745
BS1321_07895	0
BS1321_07900	471
BS1321_07905	100
BS1321_07910	4
BS1321_07915	407
BS1321_07925	636
BS1321_07930	497
BS1321_07935	441
BS1321_07940	28
BS1321_07945	0
BS1321_07950	9
BS1321_07955	269
BS1321_07960	0
BS1321_07965	0
BS1321_07970	0
BS1321_07975	0
BS1321_07980	0
BS1321_07985	0
BS1321_07990	0
BS1321_07995	0
BS1321_08005	0
BS1321_08010	60
BS1321_08015	6
BS1321_08020	5
BS1321_08025	52
BS1321_08035	326
BS1321_08040	0
BS1321_08045	236
BS1321_08050	80
BS1321_08055	34
BS1321_08060	34
BS1321_08065	22
BS1321_08070	16
BS1321_08075	662
BS1321_08080	762
BS1321_08085	4
BS1321_08090	12
BS1321_08095	6
BS1321_08100	7
BS1321_08105	2
BS1321_08110	9
BS1321_08115	7
BS1321_08120	15
BS1321_08125	4
BS1321_08130	15
BS1321_08135	15
BS1321_08140	20
BS1321_08145	149
BS1321_08150	38
BS1321_08155	36
BS1321_08160	1
BS1321_08165	137
BS1321_08170	107
BS1321_08175	16
BS1321_08180	20
BS1321_08185	3
BS1321_08190	8
BS1321_08195	51
BS1321_08200	58
BS1321_08205	18
BS1321_08210	2
BS1321_08215	1
BS1321_08220	53
BS1321_08225	185
BS1321_08230	32
BS1321_08235	50
BS1321_08240	36
BS1321_08245	641
BS1321_08250	1
BS1321_08255	4
BS1321_08265	0
BS1321_08270	46
BS1321_08275	7
BS1321_08280	17
BS1321_08285	10
BS1321_08290	18
BS1321_08295	117
BS1321_08300	620
BS1321_08305	0
BS1321_08310	1232
BS1321_08315	88
BS1321_08320	1121
BS1321_08325	55
BS1321_08330	60
BS1321_08335	45
BS1321_08340	32
BS1321_08345	144
BS1321_08350	775
BS1321_08355	14
BS1321_08360	1400
BS1321_08365	41
BS1321_08370	77
BS1321_08375	925
BS1321_08390	196
BS1321_08395	253
BS1321_08400	106
BS1321_08405	0
BS1321_08410	137
BS1321_08415	179
BS1321_08420	51
BS1321_08425	75
BS1321_08430	19
BS1321_08435	62
BS1321_08440	667
BS1321_08450	6
BS1321_08455	198
BS1321_08460	89
BS1321_08465	136
BS1321_08470	20
BS1321_08475	36
BS1321_08480	69
BS1321_08485	9
BS1321_08490	158
BS1321_08495	68
BS1321_08500	44
BS1321_08505	73
BS1321_08510	277
BS1321_08515	59
BS1321_08520	172
BS1321_08525	6
BS1321_08535	0
BS1321_08540	0
BS1321_08545	477
BS1321_08550	391
BS1321_08555	1554
BS1321_08560	30
BS1321_08565	281
BS1321_08570	297
BS1321_08575	3
BS1321_08580	190
BS1321_08585	25
BS1321_08590	162
BS1321_08595	97
BS1321_08600	262
BS1321_08605	48
BS1321_08610	1160
BS1321_08615	628
BS1321_08620	1171
BS1321_08625	2182
BS1321_08630	92
BS1321_08635	145
BS1321_08640	42
BS1321_08645	23
BS1321_08650	617
BS1321_08655	670
BS1321_08660	2377
BS1321_08665	175
BS1321_08670	535
BS1321_08675	426
BS1321_08680	26
BS1321_08685	0
BS1321_08690	300
BS1321_08695	2053
BS1321_08700	1700
BS1321_08705	486
BS1321_08710	659
BS1321_08715	501
BS1321_08720	441
BS1321_08725	11
BS1321_08730	58
BS1321_08735	30
BS1321_08740	9
BS1321_08745	10
BS1321_08750	29
BS1321_08755	16148
BS1321_08760	1539
BS1321_08765	15219
BS1321_08770	1047
BS1321_08775	562
BS1321_08780	375
BS1321_08785	2693
BS1321_08790	648
BS1321_08795	379
BS1321_08800	119
BS1321_08805	236
BS1321_08810	0
BS1321_08815	0
BS1321_08820	38
BS1321_08825	16
BS1321_08830	2
BS1321_08835	1732
BS1321_08840	485
BS1321_08845	30
BS1321_08850	36
BS1321_08855	98
BS1321_08860	79
BS1321_08865	287
BS1321_08870	0
BS1321_08875	1
BS1321_08880	2
BS1321_08885	27
BS1321_08890	1231
BS1321_08895	92
BS1321_08900	1433
BS1321_08905	595
BS1321_08910	948
BS1321_08915	384
BS1321_08920	4
BS1321_08925	24
BS1321_08930	44
BS1321_08935	60
BS1321_08940	10
BS1321_08945	54
BS1321_08950	841
BS1321_08955	440
BS1321_08960	634
BS1321_08965	1089
BS1321_08970	821
BS1321_08975	537
BS1321_08980	381
BS1321_08985	97
BS1321_08990	134
BS1321_08995	76
BS1321_09000	10
BS1321_09005	3
BS1321_09010	10
BS1321_09015	14
BS1321_09020	24
BS1321_09025	29
BS1321_09030	7
BS1321_09035	9
BS1321_09040	34
BS1321_09045	22
BS1321_09050	11
BS1321_09055	11
BS1321_09060	2
BS1321_09065	84
BS1321_09070	32
BS1321_09075	15
BS1321_09080	16
BS1321_09085	22
BS1321_09090	255
BS1321_09095	109
BS1321_09100	23
BS1321_09105	990
BS1321_09110	31
BS1321_09115	54
BS1321_09120	43
BS1321_09125	30
BS1321_09130	21
BS1321_09135	16
BS1321_09140	146
BS1321_09145	117
BS1321_09150	101
BS1321_09155	846
BS1321_09160	44
BS1321_09165	48
BS1321_09170	51
BS1321_09175	161
BS1321_09180	319
BS1321_09185	75
BS1321_09195	3566
BS1321_09200	317
BS1321_09205	91
BS1321_09210	9
BS1321_09215	85
BS1321_09220	139
BS1321_09225	51
BS1321_09230	0
BS1321_09235	49
BS1321_09240	998
BS1321_09245	753
BS1321_09250	4
BS1321_09255	2
BS1321_09260	5536
BS1321_09265	618
BS1321_09270	1792
BS1321_09275	117
BS1321_09280	261
BS1321_09285	996
BS1321_09290	1767
BS1321_09295	729
BS1321_09300	653
BS1321_09305	157
BS1321_09310	171
BS1321_09315	26
BS1321_09320	153
BS1321_09325	1966
BS1321_09330	1543
BS1321_09335	15
BS1321_09340	41
BS1321_09345	72
BS1321_09350	531
BS1321_09355	4304
BS1321_09360	306
BS1321_09365	143
BS1321_09370	486
BS1321_09375	0
BS1321_09380	286
BS1321_09385	381
BS1321_09390	697
BS1321_09400	445
BS1321_09405	42
BS1321_09410	271
BS1321_09415	0
BS1321_09420	400
BS1321_09425	134
BS1321_09430	461
BS1321_09435	541
BS1321_09440	0
BS1321_09445	50
BS1321_09450	50
BS1321_09455	25
BS1321_09460	67
BS1321_09465	156
BS1321_09470	18
BS1321_09475	2
BS1321_09480	1322
BS1321_09485	1114
BS1321_09490	61
BS1321_09495	218
BS1321_09500	277
BS1321_09505	390
BS1321_09510	440
BS1321_09515	213
BS1321_09525	517
BS1321_09530	7299
BS1321_09535	350
BS1321_09540	18
BS1321_09545	15
BS1321_09550	14
BS1321_09555	5
BS1321_09560	17
BS1321_09565	135
BS1321_09570	341
BS1321_09575	962
BS1321_09580	516
BS1321_09585	543
BS1321_09590	301
BS1321_09595	911
BS1321_09600	50
BS1321_09605	5065
BS1321_09610	16324
BS1321_09615	24031
BS1321_09620	24749
BS1321_09625	76
BS1321_09630	75
BS1321_09635	15
BS1321_09640	804
BS1321_09645	56
BS1321_09650	0
BS1321_09655	61
BS1321_09660	89
BS1321_09665	78
BS1321_09670	63
BS1321_09675	10
BS1321_09680	19
BS1321_09685	1531
BS1321_09690	38
BS1321_09695	4037
BS1321_09700	37
BS1321_09705	269
BS1321_09710	1420
BS1321_09715	321
BS1321_09720	503
BS1321_09725	120
BS1321_09730	13
BS1321_09735	20
BS1321_09740	30
BS1321_09745	50
BS1321_09750	26
BS1321_09755	199
BS1321_09760	14
BS1321_09765	9
BS1321_09770	43
BS1321_09775	598
BS1321_09780	697
BS1321_09785	10
BS1321_09790	4
BS1321_09795	102
BS1321_09800	986
BS1321_09805	8
BS1321_09810	0
BS1321_09815	23
BS1321_09820	5
BS1321_09825	15
BS1321_09830	10
BS1321_09835	150
BS1321_09840	0
BS1321_09845	88
BS1321_09850	0
BS1321_09855	791
BS1321_09860	191
BS1321_09865	82
BS1321_09870	151
BS1321_09875	107
BS1321_09880	151
BS1321_09885	219
BS1321_09890	19
BS1321_09895	10
BS1321_09900	105
BS1321_09905	53
BS1321_09910	337
BS1321_09915	891
BS1321_09920	1892
BS1321_09925	55
BS1321_09930	7110
BS1321_09935	19613
BS1321_09940	850
BS1321_09945	450
BS1321_09950	11228
BS1321_09955	13138
BS1321_09960	11348
BS1321_09965	9
BS1321_09970	0
BS1321_09975	509
BS1321_09980	43
BS1321_09985	30
BS1321_09990	2
BS1321_09995	2
BS1321_10000	23
BS1321_10005	0
BS1321_10010	19
BS1321_10015	15
BS1321_10020	1177
BS1321_10025	12
BS1321_10030	1222
BS1321_10035	2055
BS1321_10040	26
BS1321_10045	13
BS1321_10050	5
BS1321_10055	9
BS1321_10060	5713
BS1321_10070	488
BS1321_10075	912
BS1321_10085	1628
BS1321_10090	227
BS1321_10095	313
BS1321_10100	1319
BS1321_10105	914
BS1321_10110	10
BS1321_10115	282
BS1321_10120	155
BS1321_10125	60
BS1321_10130	58
BS1321_10135	76
BS1321_10140	136
BS1321_10145	83
BS1321_10150	30
BS1321_10155	202
BS1321_10160	2107
BS1321_10165	455
BS1321_10170	148
BS1321_10175	9
BS1321_10185	0
BS1321_10190	0
BS1321_10195	208
BS1321_10200	493
BS1321_10205	149
BS1321_10210	314
BS1321_10215	193
BS1321_10220	712
BS1321_10230	204
BS1321_10235	0
BS1321_10240	2006
BS1321_10245	810
BS1321_10250	494
BS1321_10255	1272
BS1321_10260	347
BS1321_10265	126
BS1321_10270	180
BS1321_10275	0
BS1321_10280	0
BS1321_10285	502
BS1321_10290	1172
BS1321_10295	1208
BS1321_10300	625
BS1321_10305	613
BS1321_10310	9101
BS1321_10315	131
BS1321_10320	18
BS1321_10325	767
BS1321_10330	618
BS1321_10335	17
BS1321_10340	44
BS1321_10345	140
BS1321_10355	21
BS1321_10360	22
BS1321_10365	20
BS1321_10370	33
BS1321_10375	224
BS1321_10380	298
BS1321_10385	228
BS1321_10390	98
BS1321_10395	434
BS1321_10400	412
BS1321_10405	401
BS1321_10410	0
BS1321_10415	0
BS1321_10420	9
BS1321_10425	63
BS1321_10430	32
BS1321_10435	28
BS1321_10440	3
BS1321_10445	7
BS1321_10450	4
BS1321_10455	6
BS1321_10460	0
BS1321_10465	0
BS1321_10470	1
BS1321_10475	27
BS1321_10480	156
BS1321_10485	0
BS1321_10490	10946
BS1321_10495	4026
BS1321_10500	697
BS1321_10505	141
BS1321_10510	1008
BS1321_10515	602
BS1321_10520	2986
BS1321_10525	586
BS1321_10530	155
BS1321_10535	435
BS1321_10540	220
BS1321_10545	1
BS1321_10555	0
BS1321_10565	0
BS1321_10570	9
BS1321_10575	503
BS1321_10580	25
BS1321_10585	41
BS1321_10590	681
BS1321_10595	697
BS1321_10600	15
BS1321_10605	47
BS1321_10610	5
BS1321_10615	24
BS1321_10620	469
BS1321_10625	319
BS1321_10630	31
BS1321_10635	542
BS1321_10640	676
BS1321_10645	1109
BS1321_10650	1228
BS1321_10655	445
BS1321_10660	204
BS1321_10665	293
BS1321_10670	689
BS1321_10675	1459
BS1321_10680	2844
BS1321_10685	2931
BS1321_10690	335
BS1321_10695	536
BS1321_10700	211
BS1321_10705	129
BS1321_10710	854
BS1321_10715	699
BS1321_10720	68797
BS1321_10725	104
BS1321_10730	1870
BS1321_10735	3327
BS1321_10740	133
BS1321_10745	0
BS1321_10750	4917
BS1321_10755	124
BS1321_10760	65
BS1321_10765	22
BS1321_10770	94
BS1321_10775	346
BS1321_10780	737
BS1321_10790	0
BS1321_10795	0
BS1321_10800	18
BS1321_10810	0
BS1321_10815	0
BS1321_10820	629
BS1321_10825	5100
BS1321_10830	2536
BS1321_10835	2018
BS1321_10840	2532
BS1321_10845	2667
BS1321_10850	394
BS1321_10855	2355
BS1321_10860	476
BS1321_10865	461
BS1321_10870	82
BS1321_10875	16
BS1321_10880	515
BS1321_10885	334
BS1321_10890	2007
BS1321_10895	1492
BS1321_10900	7
BS1321_10905	0
BS1321_10910	0
BS1321_10915	0
BS1321_10920	8
BS1321_10925	1436
BS1321_10930	307
BS1321_10935	255
BS1321_10940	215
BS1321_10945	121
BS1321_10950	78
BS1321_10955	3
BS1321_10960	2361
BS1321_10965	32
BS1321_10970	629
BS1321_10975	283
BS1321_10980	201
BS1321_10985	201
BS1321_10990	103
BS1321_10995	1244
BS1321_11000	8
BS1321_11005	225
BS1321_11010	12
BS1321_11015	581
BS1321_11020	12
BS1321_11025	32
BS1321_11030	11
BS1321_11035	7
BS1321_11040	9
BS1321_11045	148
BS1321_11050	5362
BS1321_11055	645
BS1321_11060	10119
BS1321_11065	22
BS1321_11070	44
BS1321_11075	0
BS1321_11080	0
BS1321_11085	0
BS1321_11090	0
BS1321_11095	101
BS1321_11100	57
BS1321_11105	139
BS1321_11110	132
BS1321_11115	17195
BS1321_11120	1063
BS1321_11125	378
BS1321_11130	284
BS1321_11135	5309
BS1321_11140	3156
BS1321_11145	244
BS1321_11150	357
BS1321_11155	20
BS1321_11160	15
BS1321_11165	27
BS1321_11170	83
BS1321_11175	52
BS1321_11180	13
BS1321_11185	25
BS1321_11190	143
BS1321_11195	21
BS1321_11205	0
BS1321_11210	0
BS1321_11215	2
BS1321_11220	7
BS1321_11225	590
BS1321_11230	75
BS1321_11235	2010
BS1321_11240	3
BS1321_11245	3
BS1321_11250	485
BS1321_11255	20
BS1321_11260	48
BS1321_11265	16122
BS1321_11270	21331
BS1321_11275	673
BS1321_11280	762
BS1321_11285	663
BS1321_11290	588
BS1321_11295	11376
BS1321_11300	18953
BS1321_11305	6708
BS1321_11310	5123
BS1321_11315	2585
BS1321_11320	3735
BS1321_11325	5661
BS1321_11330	7651
BS1321_11335	7902
BS1321_11340	2588
BS1321_11345	6521
BS1321_11350	6343
BS1321_11355	5555
BS1321_11360	8988
BS1321_11370	6033
BS1321_11375	4888
BS1321_11380	3343
BS1321_11385	3019
BS1321_11390	1545
BS1321_11395	2959
BS1321_11400	3597
BS1321_11405	3323
BS1321_11410	5532
BS1321_11415	13805
BS1321_11420	4507
BS1321_11425	8873
BS1321_11430	14914
BS1321_11435	11242
BS1321_11440	70538
BS1321_11445	38192
BS1321_11450	9498
BS1321_11455	8175
BS1321_11460	2218
BS1321_11465	9852
BS1321_11470	14807
BS1321_11475	1018
BS1321_11480	53459
BS1321_11485	103091
BS1321_11490	26724
BS1321_11495	29778
BS1321_11500	1704
BS1321_11505	1026
BS1321_11510	1632
BS1321_11515	98
BS1321_11520	105
BS1321_11525	231
BS1321_11530	680
BS1321_11535	62
BS1321_11540	1227
BS1321_11545	377
BS1321_11550	855
BS1321_11555	568
BS1321_11560	311
BS1321_11565	98
BS1321_11570	18088
BS1321_11575	3761
BS1321_11580	2953
BS1321_11585	1933
BS1321_11595	1
BS1321_11600	0
BS1321_11605	3074
BS1321_11610	339
BS1321_11615	76
BS1321_11620	116
BS1321_11625	74
BS1321_11630	64
BS1321_11635	4775
BS1321_11640	295
BS1321_11645	151
BS1321_11650	288
BS1321_11660	1455
BS1321_11665	3090
BS1321_11670	7
BS1321_11675	6
BS1321_11680	55
BS1321_11685	43
BS1321_11690	24
BS1321_11695	4679
BS1321_11700	1121
BS1321_11705	141
BS1321_11710	158
BS1321_11715	107
BS1321_11720	199
BS1321_11725	330
BS1321_11730	708
BS1321_11735	2866
BS1321_11740	1943
BS1321_11745	4939
BS1321_11750	1617
BS1321_11765	4
BS1321_11770	25
BS1321_11775	10058
BS1321_11780	7051
BS1321_11785	3
BS1321_11790	2158
BS1321_11795	1651
BS1321_11800	687
BS1321_11805	605
BS1321_11810	171
BS1321_11815	16258
BS1321_11820	6
BS1321_11825	617
BS1321_11830	169
BS1321_11835	813
BS1321_11840	365
BS1321_11845	2648
BS1321_11850	1185
BS1321_11855	258
BS1321_11860	27
BS1321_11865	208
BS1321_11870	1237
BS1321_11875	2782
BS1321_11880	2927
BS1321_11890	1184
BS1321_11895	154
BS1321_11900	237
BS1321_11905	19
BS1321_11915	0
BS1321_11920	0
BS1321_11925	0
BS1321_11930	0
BS1321_11935	33
BS1321_11940	45
BS1321_11945	175
BS1321_11950	413
BS1321_11955	685
BS1321_11960	737
BS1321_11970	59
BS1321_11975	31
BS1321_11980	833
BS1321_11985	844
BS1321_11990	605
BS1321_11995	1945
BS1321_12000	1818
BS1321_12005	4103
BS1321_12010	74
BS1321_12020	0
BS1321_12025	0
BS1321_12030	0
BS1321_12035	0
BS1321_12045	4783
BS1321_12050	3114
BS1321_12055	175
BS1321_12060	1110
BS1321_12065	201
BS1321_12070	2910
BS1321_12075	7428
BS1321_12080	427
BS1321_12085	4472
BS1321_12090	158
BS1321_12095	593
BS1321_12100	741
BS1321_12105	1152
BS1321_12110	1228
BS1321_12115	908
BS1321_12120	3500
BS1321_12125	412
BS1321_12130	267
BS1321_12135	536
BS1321_12140	453
BS1321_12145	252
BS1321_12150	56
BS1321_12155	914
BS1321_12160	6208
BS1321_12165	9443
BS1321_12170	4118
BS1321_12175	600
BS1321_12180	6028
BS1321_12185	1765
BS1321_12190	4192
BS1321_12195	2560
BS1321_12200	99
BS1321_12205	21
BS1321_12210	22
BS1321_12215	44
BS1321_12220	77
BS1321_12225	363
BS1321_12230	429
BS1321_12235	483
BS1321_12240	591
BS1321_12245	2218
BS1321_12250	623
BS1321_12255	52
BS1321_12260	210
BS1321_12265	596
BS1321_12270	2204
BS1321_12275	210
BS1321_12280	438
BS1321_12285	1309
BS1321_12290	1605
BS1321_12295	0
BS1321_12300	0
BS1321_12305	0
BS1321_12310	234
BS1321_12315	159
BS1321_12320	356
BS1321_12325	82
BS1321_12330	348
BS1321_12335	483
BS1321_12340	285
BS1321_12345	250
BS1321_12350	123
BS1321_12355	113
BS1321_12365	108
BS1321_12370	1348
BS1321_12375	127
BS1321_12380	232
BS1321_12385	830
BS1321_12390	5
BS1321_12395	469
BS1321_12400	30
BS1321_12405	25
BS1321_12410	28
BS1321_12415	16
BS1321_12420	2
BS1321_12425	4
BS1321_12430	10
BS1321_12435	32
BS1321_12440	65
BS1321_12445	129
BS1321_12450	2
BS1321_12455	1953
BS1321_12460	430
BS1321_12465	336
BS1321_12470	2128
BS1321_12475	129
BS1321_12480	48
BS1321_12485	254
BS1321_12490	0
BS1321_12495	1
BS1321_12500	502
BS1321_12505	85
BS1321_12510	54
BS1321_12515	319
BS1321_12520	4548
BS1321_12525	2183
BS1321_12530	0
BS1321_12535	0
BS1321_12540	0
BS1321_12545	0
BS1321_12550	0
BS1321_12555	0
BS1321_12560	0
BS1321_12565	0
BS1321_12570	0
BS1321_12575	0
BS1321_12580	853
BS1321_12585	133
BS1321_12590	101
BS1321_12595	213
BS1321_12600	0
BS1321_12605	4976
BS1321_12610	1104
BS1321_12615	85
BS1321_12620	596
BS1321_12625	777
BS1321_12635	426
BS1321_12640	367
BS1321_12645	110
BS1321_12650	43
BS1321_12655	108
BS1321_12660	26
BS1321_12665	25
BS1321_12670	199
BS1321_12675	114
BS1321_12680	260
BS1321_12685	5
BS1321_12690	303
BS1321_12695	246
BS1321_12700	416
BS1321_12705	229
BS1321_12710	170
BS1321_12715	7
BS1321_12720	270
BS1321_12725	751
BS1321_12730	3929
BS1321_12735	1376
BS1321_12740	3999
BS1321_12745	90
BS1321_12750	121
BS1321_12755	31
BS1321_12760	480
BS1321_12765	3972
BS1321_12770	246
BS1321_12775	24
BS1321_12780	8
BS1321_12785	328
BS1321_12790	546
BS1321_12795	330
BS1321_12800	6482
BS1321_12805	776
BS1321_12810	567
BS1321_12815	30
BS1321_12820	140
BS1321_12825	362
BS1321_12830	1617
BS1321_12835	2144
BS1321_12840	89
BS1321_12845	195
BS1321_12850	350
BS1321_12855	351
BS1321_12860	797
BS1321_12865	2026
BS1321_12870	256
BS1321_12875	3654
BS1321_12885	223
BS1321_12890	257
BS1321_12895	17
BS1321_12900	46
BS1321_12905	53
BS1321_12910	60
BS1321_12915	4
BS1321_12920	277
BS1321_12925	3684
BS1321_12930	3841
BS1321_12935	317
BS1321_12940	338
BS1321_12945	8680
BS1321_12950	3301
BS1321_12955	1502
BS1321_12960	1762
BS1321_12965	8129
BS1321_12970	8390
BS1321_12975	581
BS1321_12980	21
BS1321_12985	2520
BS1321_12990	830
BS1321_12995	9
BS1321_13000	3
BS1321_13005	667
BS1321_13010	71
BS1321_13015	297
BS1321_13020	18
BS1321_13025	116
BS1321_13030	1051
BS1321_13035	1852
BS1321_13040	1283
BS1321_13045	2963
BS1321_13050	291
BS1321_13055	3064
BS1321_13060	10476
BS1321_13065	3680
BS1321_13070	6430
BS1321_13075	3453
BS1321_13080	15053
BS1321_13085	11748
BS1321_13090	30077
BS1321_13095	13636
BS1321_13100	11
BS1321_13105	5
BS1321_13110	7
BS1321_13115	6
BS1321_13120	150
BS1321_13125	234
BS1321_13130	215
BS1321_13135	96
BS1321_13140	191
BS1321_13145	135
BS1321_13150	210
BS1321_13155	968
BS1321_13160	732
BS1321_13165	8156
BS1321_13170	100
BS1321_13175	365
BS1321_13180	33
BS1321_13185	5
BS1321_13190	1746
BS1321_13195	394
BS1321_13200	960
BS1321_13205	958
BS1321_13210	1228
BS1321_13215	79
BS1321_13220	575
BS1321_13225	43
BS1321_13230	24
BS1321_13235	45
BS1321_13240	84
BS1321_13245	5
BS1321_13250	29
BS1321_13255	249
BS1321_13260	200
BS1321_13265	253
BS1321_13270	242
BS1321_13275	1157
BS1321_13280	604
BS1321_13285	16
BS1321_13290	818
BS1321_13295	613
BS1321_13300	1478
BS1321_13305	3640
BS1321_13310	0
BS1321_13315	224
BS1321_13320	11
BS1321_13325	240
BS1321_13330	42
BS1321_13335	2
BS1321_13340	63
BS1321_13345	1391
BS1321_13350	391
BS1321_13355	8218
BS1321_13360	6872
BS1321_13365	1908
BS1321_13370	746
BS1321_13375	1399
BS1321_13380	923
BS1321_13385	1768
BS1321_13390	49
BS1321_13395	48
BS1321_13400	46
BS1321_13405	96
BS1321_13410	1379
BS1321_13415	14878
BS1321_13420	5223
BS1321_13425	522
BS1321_13430	699
BS1321_13435	1119
BS1321_13440	191
BS1321_13445	42
BS1321_13450	23
BS1321_13455	12
BS1321_13460	19
BS1321_13465	133
BS1321_13470	0
BS1321_13475	0
BS1321_13480	0
BS1321_13485	0
BS1321_13490	0
BS1321_13495	0
BS1321_13500	0
BS1321_13505	0
BS1321_13510	0
BS1321_13515	0
BS1321_13520	0
BS1321_13525	0
BS1321_13530	0
BS1321_13535	5756
BS1321_13540	223
BS1321_13545	5895
BS1321_13550	1420
BS1321_13555	1
BS1321_13560	4464
BS1321_13565	321
BS1321_13570	932
BS1321_13575	2053
BS1321_13580	22
BS1321_13585	630
BS1321_13590	1
BS1321_13595	2076
BS1321_13600	661
BS1321_13605	240
BS1321_13610	400
BS1321_13615	146
BS1321_13620	1042
BS1321_13625	156
BS1321_13630	1980
BS1321_13635	1583
BS1321_13640	3545
BS1321_13645	13
BS1321_13650	674
BS1321_13655	95
BS1321_13660	103
BS1321_13665	118
BS1321_13670	80
BS1321_13675	192
BS1321_13680	318
BS1321_13685	57
BS1321_13690	44
BS1321_13695	134
BS1321_13700	89
BS1321_13705	102
BS1321_13710	55
BS1321_13715	59
BS1321_13720	153
BS1321_13725	1134
BS1321_13730	3449
BS1321_13735	508
BS1321_13740	1044
BS1321_13745	571
BS1321_13750	4860
BS1321_13755	1073
BS1321_13760	14599
BS1321_13765	9
BS1321_13770	282
BS1321_13775	15
BS1321_13780	8221
BS1321_13785	33433
BS1321_13790	1500
BS1321_13795	4157
BS1321_13800	4357
BS1321_13805	10724
BS1321_13810	0
BS1321_13815	1282
BS1321_13820	1221
BS1321_13825	1226
BS1321_13830	389
BS1321_13835	589
BS1321_13840	175
BS1321_13850	386
BS1321_13855	673
BS1321_13860	1175
BS1321_13865	134
BS1321_13870	387
BS1321_13875	23
BS1321_13880	242
BS1321_13885	1
BS1321_13890	2
BS1321_13895	9
BS1321_13900	13
BS1321_13905	11
BS1321_13910	3974
BS1321_13915	210
BS1321_13920	220
BS1321_13925	361
BS1321_13930	60
BS1321_13935	105
BS1321_13940	84
BS1321_13945	5
BS1321_13950	7
BS1321_13955	0
BS1321_13960	525
BS1321_13965	4773
BS1321_13970	3395
BS1321_13975	1870
BS1321_13980	3760
BS1321_13985	1
BS1321_13990	15307
BS1321_13995	31
BS1321_14000	1
BS1321_14005	240
BS1321_14010	7
BS1321_14015	4
BS1321_14020	32
BS1321_14025	22
BS1321_14030	1
BS1321_14035	58
BS1321_14040	339
BS1321_14045	109
BS1321_14050	43
BS1321_14055	220
BS1321_14060	593
BS1321_14065	1256
BS1321_14070	1414
BS1321_14075	29
BS1321_14080	30
BS1321_14085	318
BS1321_14090	69
BS1321_14095	22
BS1321_14100	120
BS1321_14105	297
BS1321_14110	2685
BS1321_14115	214
BS1321_14120	280
BS1321_14125	329
BS1321_14130	135
BS1321_14135	113
BS1321_14140	179
BS1321_14145	1541
BS1321_14150	3152
BS1321_14155	4892
BS1321_14160	1916
BS1321_14165	8413
BS1321_14170	358
BS1321_14175	328
BS1321_14180	202
BS1321_14185	44
BS1321_14190	26
BS1321_14195	30
BS1321_14200	49
BS1321_14205	1923
BS1321_14210	197
BS1321_14215	325
BS1321_14220	350
BS1321_14225	200
BS1321_14230	486
BS1321_14235	459
BS1321_14240	58
BS1321_14245	12
BS1321_14250	37
BS1321_14255	148
BS1321_14260	600
BS1321_14265	714
BS1321_14270	18219
BS1321_14275	194
BS1321_14280	2807
BS1321_14285	395
BS1321_14290	3
BS1321_14295	3098
BS1321_14300	125
BS1321_14305	552
BS1321_14310	5704
BS1321_14315	37
BS1321_14320	417
BS1321_14325	25
BS1321_14330	1326
BS1321_14335	525
BS1321_14340	249
BS1321_14345	14
BS1321_14350	865
BS1321_14355	1561
BS1321_14360	2246
BS1321_14365	1347
BS1321_14370	13
BS1321_14375	86
BS1321_14380	315
BS1321_14385	215
BS1321_14390	275
BS1321_14395	536
BS1321_14400	181
BS1321_14405	81
BS1321_14410	307
BS1321_14415	98
BS1321_14420	77
BS1321_14425	197
BS1321_14430	955
BS1321_14435	3256
BS1321_14440	614
BS1321_14445	1087
BS1321_14450	5618
BS1321_14455	49
BS1321_14460	54
BS1321_14465	784
BS1321_14470	262
BS1321_14475	193
BS1321_14480	618
BS1321_14485	2464
BS1321_14490	25320
BS1321_14495	228
BS1321_14500	8410
BS1321_14505	111
BS1321_14510	2629
BS1321_14515	1687
BS1321_14520	3
BS1321_14525	18
BS1321_14530	38
BS1321_14535	435
BS1321_14540	113
BS1321_14545	49
BS1321_14550	2722
BS1321_14555	168
BS1321_14560	372
BS1321_14565	248
BS1321_14570	106
BS1321_14575	91
BS1321_14580	129
BS1321_14585	111
BS1321_14590	523
BS1321_14595	9
BS1321_14600	41
BS1321_14605	282
BS1321_14610	4
BS1321_14615	30
BS1321_14620	848
BS1321_14625	17
BS1321_14630	3604
BS1321_14635	434
BS1321_14640	3957
BS1321_14645	0
BS1321_14650	29
BS1321_14655	19
BS1321_14660	380
BS1321_14665	259
BS1321_14670	26
BS1321_14675	26
BS1321_14680	892
BS1321_14685	12
BS1321_14690	0
BS1321_14695	1
BS1321_14700	212
BS1321_14705	55
BS1321_14710	10
BS1321_14715	402
BS1321_14720	1016
BS1321_14725	1557
BS1321_14730	48
BS1321_14735	112
BS1321_14740	1475
BS1321_14745	704
BS1321_14755	553
BS1321_14760	0
BS1321_14765	85
BS1321_14770	1639
BS1321_14775	2043
BS1321_14780	6795
BS1321_14785	6563
BS1321_14790	222
BS1321_14795	8
BS1321_14800	324
BS1321_14805	51
BS1321_14810	707
BS1321_14815	675
BS1321_14820	390
BS1321_14825	100
BS1321_14830	125
BS1321_14835	80
BS1321_14840	74
BS1321_14845	1387
BS1321_14850	0
BS1321_14855	0
BS1321_14860	26
BS1321_14865	695
BS1321_14870	973
BS1321_14875	4
BS1321_14880	0
BS1321_14885	0
BS1321_14895	4
BS1321_14900	138
BS1321_14905	55
BS1321_14910	160
BS1321_14915	399
BS1321_14920	472
BS1321_14925	106
BS1321_14930	137
BS1321_14935	336
BS1321_14940	344
BS1321_14945	194
BS1321_14950	392
BS1321_14955	153
BS1321_14960	26
BS1321_14965	17
BS1321_14970	8
BS1321_14975	48
BS1321_14980	48
BS1321_14985	10
BS1321_14990	207
BS1321_14995	71
BS1321_15000	469
BS1321_15005	2097
BS1321_15010	3244
BS1321_15015	4427
BS1321_15020	1586
BS1321_15025	12619
BS1321_15030	878
BS1321_15035	597
BS1321_15040	20
BS1321_15045	380
BS1321_15050	730
BS1321_15055	125
BS1321_15060	86
BS1321_15065	247
BS1321_15070	6215
BS1321_15075	6421
BS1321_15080	108
BS1321_15085	30
BS1321_15090	67
BS1321_15095	228
BS1321_15100	93
BS1321_15105	61
BS1321_15110	272
BS1321_15115	2321
BS1321_15120	5
BS1321_15125	105
BS1321_15130	4
BS1321_15135	8
BS1321_15140	238
BS1321_15145	27
BS1321_15150	26
BS1321_15155	141
BS1321_15160	1706
BS1321_15165	5037
BS1321_15170	59
BS1321_15175	559
BS1321_15180	89
BS1321_15185	461
BS1321_15190	515
BS1321_15195	898
BS1321_15200	512
BS1321_15205	3048
BS1321_15210	8316
BS1321_15215	15
BS1321_15220	0
BS1321_15225	0
BS1321_15230	0
BS1321_15235	0
BS1321_15240	0
BS1321_15245	38
BS1321_15250	12
BS1321_15255	197
BS1321_15260	1223
BS1321_15265	1655
BS1321_15270	84
BS1321_15275	131
BS1321_15280	97
BS1321_15285	192
BS1321_15290	60
BS1321_15295	472
BS1321_15300	813
BS1321_15305	0
BS1321_15310	18798
BS1321_15315	3565
BS1321_15320	1468
BS1321_15325	37
BS1321_15330	97
BS1321_15335	139
BS1321_15340	288
BS1321_15345	249
BS1321_15350	1
BS1321_15355	0
BS1321_15360	0
BS1321_15365	113
BS1321_15370	30
BS1321_15375	6
BS1321_15380	3
BS1321_15385	12
BS1321_15395	624
BS1321_15400	5099
BS1321_15405	1576
BS1321_15410	49
BS1321_15415	128
BS1321_15420	297
BS1321_15425	1510
BS1321_15430	27
BS1321_15435	125
BS1321_15440	0
BS1321_15445	399
BS1321_15450	509
BS1321_15455	53
BS1321_15460	12
BS1321_15465	5
BS1321_15470	29
BS1321_15475	84
BS1321_15480	51
BS1321_15485	104
BS1321_15490	0
BS1321_15495	155
BS1321_15500	8
BS1321_15505	11
BS1321_15510	33
BS1321_15515	104
BS1321_15520	0
BS1321_15525	0
BS1321_15530	0
BS1321_15535	0
BS1321_15540	5
BS1321_15545	40
BS1321_15550	284
BS1321_15555	5
BS1321_15560	18
BS1321_15565	56
BS1321_15570	130
BS1321_15575	717
BS1321_15580	198
BS1321_15585	0
BS1321_15590	13
BS1321_15595	129
BS1321_15600	183
BS1321_15605	21
BS1321_15610	34
BS1321_15615	22
BS1321_15620	244
BS1321_15625	191
BS1321_15630	754
BS1321_15635	4129
BS1321_15640	4603
BS1321_15645	1628
BS1321_15650	3087
BS1321_15655	89
BS1321_15660	1018
BS1321_15665	279
BS1321_15670	128
BS1321_15675	36
BS1321_15680	0
BS1321_15685	1451
BS1321_15690	2306
BS1321_15695	2061
BS1321_15700	121
BS1321_15705	112
BS1321_15710	521
BS1321_15715	333
BS1321_15720	3
BS1321_15725	20
BS1321_15730	235
BS1321_15735	216
BS1321_15740	293
BS1321_15745	691
BS1321_15750	0
BS1321_15755	125
BS1321_15760	95
BS1321_15765	132
BS1321_15770	191
BS1321_15775	801
BS1321_15780	261
BS1321_15785	154
BS1321_15790	122
BS1321_15795	124
BS1321_15800	0
BS1321_15805	249
BS1321_15810	2271
BS1321_15815	254
BS1321_15820	48
BS1321_15825	183
BS1321_15830	791
BS1321_15835	754
BS1321_15840	1206
BS1321_15845	139
BS1321_15850	871
BS1321_15855	0
BS1321_15860	1
BS1321_15865	0
BS1321_15870	2
BS1321_15875	7
BS1321_15880	5
BS1321_15885	15
BS1321_15890	205
BS1321_15895	146
BS1321_15900	20
BS1321_15905	0
BS1321_15910	3
BS1321_15915	73
BS1321_15920	108
BS1321_15925	10
BS1321_15930	1012
BS1321_15935	95
BS1321_15940	0
BS1321_15945	186
BS1321_15950	4
BS1321_15955	1
BS1321_15960	370
BS1321_15965	960
BS1321_15970	59
BS1321_15975	0
BS1321_15985	0
BS1321_15990	11
BS1321_15995	8
BS1321_16005	0
BS1321_16010	0
BS1321_16015	0
BS1321_16020	0
BS1321_16025	1
BS1321_16030	47
BS1321_16035	0
BS1321_16040	172
BS1321_16045	303
BS1321_16050	852
BS1321_16055	57
BS1321_16060	0
BS1321_16065	58
BS1321_16070	0
BS1321_16075	0
BS1321_16080	0
BS1321_16085	144
BS1321_16090	0
BS1321_16095	0
BS1321_16100	87
BS1321_16105	84
BS1321_16110	111
BS1321_16115	0
BS1321_16120	0
BS1321_16125	0
BS1321_16130	0
BS1321_16135	0
BS1321_16140	0
BS1321_16145	45
BS1321_16150	0
BS1321_16155	19
BS1321_16160	1526
BS1321_16165	8
BS1321_16170	6
BS1321_16175	35
BS1321_16180	0
BS1321_16185	0
BS1321_16190	0
BS1321_16195	0
BS1321_16200	0
BS1321_16205	130
BS1321_16210	128
BS1321_16215	11
BS1321_16220	30
BS1321_16225	6
BS1321_16230	22
BS1321_16235	24
BS1321_16240	44
BS1321_16245	57
BS1321_16250	712
BS1321_16255	706
BS1321_16260	1150
BS1321_16265	50
BS1321_16270	0
BS1321_16275	0
BS1321_16280	62
BS1321_16285	120
BS1321_16290	0
BS1321_16295	6
BS1321_16300	0
BS1321_16305	0
BS1321_16310	231
BS1321_16315	331
BS1321_16320	40
BS1321_16325	61
BS1321_16330	54
BS1321_16335	316
BS1321_16340	0
BS1321_16345	1101
BS1321_16350	68
BS1321_16355	0
BS1321_16360	35
BS1321_16365	0
BS1321_16370	0
BS1321_16375	0
BS1321_16380	0
BS1321_16385	65
BS1321_16390	0
BS1321_16395	0
BS1321_16400	0
BS1321_16405	15
BS1321_16410	17
BS1321_16415	21
BS1321_16420	29
BS1321_16425	23
BS1321_16430	92
BS1321_16435	26
BS1321_16440	10
BS1321_16445	152
BS1321_16450	0
BS1321_16455	0
BS1321_16460	0
BS1321_16465	129
BS1321_16470	0
BS1321_16475	0
BS1321_16480	33
BS1321_16485	0
BS1321_16490	178
BS1321_16495	80
BS1321_16500	273
BS1321_16505	37
BS1321_16510	0
BS1321_16515	5
BS1321_16520	40
BS1321_16525	21
BS1321_16530	45
BS1321_16535	14
BS1321_16540	22
BS1321_16545	19
BS1321_16550	31
BS1321_16555	10
BS1321_16560	1717
BS1321_16565	4238
BS1321_16570	172
BS1321_16575	0
BS1321_16580	0
BS1321_16585	0
BS1321_16590	0
BS1321_16595	4493
BS1321_16600	826
BS1321_16605	489
BS1321_16610	340
BS1321_16615	70
BS1321_16620	0
BS1321_16625	2973
BS1321_16630	125
BS1321_16635	311
BS1321_16640	1492
BS1321_16645	24
BS1321_16650	6
BS1321_16655	7
BS1321_16660	12
BS1321_16665	44
BS1321_16670	1758
BS1321_16675	1115
BS1321_16680	67
BS1321_16685	14
BS1321_16690	110
BS1321_16695	21
BS1321_16700	84
BS1321_16705	6
BS1321_16710	51
BS1321_16715	2618
BS1321_16720	169
BS1321_16725	364
BS1321_16730	202
BS1321_16735	24
BS1321_16740	123
BS1321_16745	113
BS1321_16750	71
BS1321_16755	14
BS1321_16760	7
BS1321_16765	8
BS1321_16770	3
BS1321_16775	5
BS1321_16780	1
BS1321_16790	41
BS1321_16795	106
BS1321_16800	18
BS1321_16805	100
BS1321_16810	178
BS1321_16815	0
BS1321_16820	0
BS1321_16830	0
BS1321_16835	3
BS1321_16840	11
BS1321_16845	68
BS1321_16850	0
BS1321_16855	92
BS1321_16860	17
BS1321_16865	216
BS1321_16870	174
BS1321_16875	22
BS1321_16880	55
BS1321_16885	373
BS1321_16890	17
BS1321_16895	31
BS1321_16900	36
BS1321_16905	27
BS1321_16910	75
BS1321_16915	498
BS1321_16920	483
BS1321_16925	8
BS1321_16930	42
BS1321_16935	51
BS1321_16940	28
BS1321_16945	249
BS1321_16950	36
BS1321_16955	66
BS1321_16960	88
BS1321_16965	236
BS1321_16970	51
BS1321_16975	35
BS1321_16980	3
BS1321_16985	0
BS1321_16990	29
BS1321_16995	119
BS1321_17000	31
BS1321_17005	17
BS1321_17010	8
BS1321_17015	42
BS1321_17020	1
BS1321_17025	0
BS1321_17030	0
BS1321_17035	0
BS1321_17040	48
BS1321_17045	58
BS1321_17050	91
BS1321_17055	354
BS1321_17060	91
BS1321_17065	42
BS1321_17070	394
BS1321_17075	177
BS1321_17080	0
BS1321_17085	0
BS1321_17090	0
BS1321_17095	0
BS1321_17100	0
BS1321_17105	0
BS1321_17110	0
BS1321_17115	0
BS1321_17120	0
BS1321_17125	11
BS1321_17130	0
BS1321_17135	61
BS1321_17140	10
BS1321_17155	0
BS1321_17160	111
BS1321_17165	506
BS1321_17170	0
BS1321_17175	1
BS1321_17180	6
BS1321_17185	4
BS1321_17190	5
BS1321_17195	14
BS1321_17200	29
BS1321_17205	74
BS1321_17210	126
BS1321_17215	167
BS1321_17220	4
BS1321_17225	0
BS1321_17230	53
BS1321_17235	48
BS1321_17240	24
BS1321_17245	639
BS1321_17250	39
BS1321_17255	489
BS1321_17260	1882
BS1321_17265	8
BS1321_17270	1
BS1321_17275	0
BS1321_17285	0
BS1321_17290	0
BS1321_17295	30
BS1321_17300	211
BS1321_17305	57
BS1321_17310	39
BS1321_17315	0
BS1321_17320	0
BS1321_17325	3
BS1321_17330	0
BS1321_17335	0
BS1321_17340	17
BS1321_17345	276
BS1321_17350	0
BS1321_17355	5009
BS1321_17360	23
BS1321_17365	14
BS1321_17370	0
BS1321_17375	0
BS1321_17380	0
BS1321_17385	0
BS1321_17390	0
BS1321_17395	32
BS1321_17400	75
BS1321_17405	75
BS1321_17410	46
BS1321_17415	8
BS1321_17420	21
BS1321_17425	14
BS1321_17430	8
BS1321_17435	32
BS1321_17440	116
BS1321_17445	38
BS1321_17450	141
BS1321_17455	235
BS1321_17460	0
BS1321_17465	0
BS1321_17470	847
BS1321_17475	17
BS1321_17480	7
BS1321_17485	425
BS1321_17490	7
BS1321_17495	323
BS1321_17500	195
BS1321_17505	65
BS1321_17510	1095
BS1321_17515	7
BS1321_17520	29
BS1321_17525	1293
BS1321_17530	29
BS1321_17535	13
BS1321_17540	91
BS1321_17545	119
BS1321_17550	103
BS1321_17555	72
BS1321_17560	9
BS1321_17565	167
BS1321_17570	684
BS1321_17575	109
BS1321_17580	0
BS1321_17585	0
BS1321_17590	29
BS1321_17595	29
BS1321_17600	134
BS1321_17605	0
BS1321_17610	0
BS1321_17615	18
BS1321_17620	63
BS1321_17625	239
BS1321_17630	120
BS1321_17635	0
BS1321_17640	0
BS1321_17650	0
BS1321_17655	0
BS1321_17660	8
BS1321_17665	0
BS1321_17675	88
BS1321_17680	120
BS1321_17685	84
BS1321_17690	0
BS1321_17695	0
BS1321_17700	0
BS1321_17705	303
BS1321_17710	325
BS1321_17715	0
BS1321_17720	0
BS1321_17725	0
BS1321_17730	72
BS1321_17735	63
BS1321_17740	15
BS1321_17745	15
BS1321_17750	26
BS1321_17755	16
BS1321_17760	16
BS1321_17765	1
BS1321_17770	38
BS1321_17775	0
BS1321_17780	7
BS1321_17785	66
BS1321_17790	27
BS1321_17795	44
BS1321_17800	45
BS1321_17805	39
BS1321_17810	30
BS1321_17815	31
BS1321_17820	3
BS1321_17825	6
BS1321_17830	7
BS1321_17840	1387
BS1321_17845	432
BS1321_17850	568
BS1321_17855	53
BS1321_17860	214
BS1321_17865	146
BS1321_17870	19
BS1321_17875	976
BS1321_17880	0
BS1321_17885	0
BS1321_17890	3
BS1321_17895	0
BS1321_17900	38
BS1321_17910	259
BS1321_17915	1441
BS1321_17925	0
BS1321_17930	40
BS1321_17935	14
BS1321_17940	29
BS1321_17945	15
BS1321_17950	2137
BS1321_17955	1010
BS1321_17960	4
BS1321_17965	24
BS1321_17970	199
BS1321_17975	45
BS1321_17980	8
BS1321_17985	102
BS1321_17990	669
BS1321_17995	3
BS1321_18000	18
BS1321_18005	309
BS1321_18010	52
BS1321_18015	6
BS1321_18020	14
BS1321_18025	6
BS1321_18030	81
BS1321_18035	11
BS1321_18040	9
BS1321_18045	41
BS1321_18050	202
BS1321_18060	119
BS1321_18065	189
BS1321_18070	214
BS1321_18075	0
BS1321_18080	9
BS1321_18085	34
BS1321_18090	56
BS1321_18095	212
BS1321_18100	565
BS1321_18105	0
BS1321_18110	0
BS1321_18120	126
BS1321_18125	50
BS1321_18130	187
BS1321_18135	47
BS1321_18140	25
BS1321_18145	8
BS1321_18150	5
BS1321_18155	0
BS1321_18160	0
BS1321_18165	18
BS1321_18170	13
BS1321_18175	32
BS1321_18180	74
BS1321_18185	54
BS1321_18190	0
BS1321_18195	0
BS1321_18200	235
BS1321_18205	1595
BS1321_18210	82
BS1321_18215	0
BS1321_18220	95
BS1321_18225	0
BS1321_18230	6
BS1321_18235	6
BS1321_18240	493
BS1321_18245	25
BS1321_18250	19
BS1321_18255	44
BS1321_18260	37
BS1321_18265	182
BS1321_18270	133
BS1321_18275	186
BS1321_18280	5
BS1321_18285	16
BS1321_18290	298
BS1321_18295	69
BS1321_18300	95
BS1321_18305	150
BS1321_18310	85
BS1321_18315	60
BS1321_18320	174
BS1321_18325	552
BS1321_18330	34
BS1321_18335	246
BS1321_18340	3564
BS1321_18345	10918
BS1321_18350	46
BS1321_18355	51
BS1321_18360	62
BS1321_18365	17
BS1321_18370	164
BS1321_18375	87
BS1321_18380	46
BS1321_18385	68
BS1321_18390	0
BS1321_18395	171
BS1321_18400	666
BS1321_18405	75
BS1321_18410	2340
BS1321_18415	110
BS1321_18420	118
BS1321_18425	64
BS1321_18430	85
BS1321_18435	468
BS1321_18440	13
BS1321_18445	0
BS1321_18450	737
BS1321_18455	206
BS1321_18460	71
BS1321_18465	2660
BS1321_18470	400
BS1321_18475	594
BS1321_18480	0
BS1321_18485	0
BS1321_18495	0
BS1321_18500	0
BS1321_18505	0
BS1321_18510	0
BS1321_18515	150
BS1321_18520	120
BS1321_18525	747
BS1321_18530	191
BS1321_18535	880
BS1321_18540	661
BS1321_18545	457
BS1321_18550	120
BS1321_18555	4
BS1321_18560	62
BS1321_18565	1806
BS1321_18570	112
BS1321_18575	264
BS1321_18580	88
BS1321_18585	44
BS1321_18590	99
BS1321_18595	24
BS1321_18600	274
BS1321_18605	94
BS1321_18610	59
BS1321_18615	39
BS1321_18620	12
BS1321_18625	18
BS1321_18630	296
BS1321_18635	1262
BS1321_18640	49
BS1321_18645	16
BS1321_18650	28
BS1321_18655	16
BS1321_18660	17
BS1321_18665	25
BS1321_18670	7
BS1321_18675	0
BS1321_18680	5
BS1321_18685	0
BS1321_18690	9
BS1321_18695	9
BS1321_18700	130
BS1321_18705	225
BS1321_18710	67
BS1321_18715	163
BS1321_18720	1217
BS1321_18725	34
BS1321_18730	130
BS1321_18735	203
BS1321_18740	257
BS1321_18745	877
BS1321_18750	0
BS1321_18755	0
BS1321_18760	85
BS1321_18765	84
BS1321_18770	314
BS1321_18775	349
BS1321_18780	599
BS1321_18785	122
BS1321_18790	244
BS1321_18795	1740
BS1321_18800	291
BS1321_18805	230
BS1321_18810	294
BS1321_18815	260
BS1321_18820	340
BS1321_18825	633
BS1321_18830	88
BS1321_18835	20
BS1321_18840	41
BS1321_18845	72
BS1321_18850	44
BS1321_18855	994
BS1321_18860	1630
BS1321_18865	732
BS1321_18870	1639
BS1321_18875	79
BS1321_18880	251
BS1321_18885	5
BS1321_18890	12
BS1321_18895	7
BS1321_18900	1
BS1321_18905	17
BS1321_18910	0
BS1321_18915	0
BS1321_18920	0
BS1321_18925	531
BS1321_18930	397
BS1321_18935	149
BS1321_18940	97
BS1321_18945	99
BS1321_18950	63
BS1321_18955	244
BS1321_18960	28
BS1321_18965	23
BS1321_18970	0
BS1321_18975	0
BS1321_18980	0
BS1321_18985	0
BS1321_18995	0
BS1321_19000	0
BS1321_19005	0
BS1321_19010	0
BS1321_19015	0
BS1321_19020	15
BS1321_19025	669
BS1321_19030	6
BS1321_19035	9
BS1321_19040	8
BS1321_19045	0
BS1321_19050	0
BS1321_19055	0
BS1321_19060	234
BS1321_19065	430
BS1321_19070	1
BS1321_19075	22
BS1321_19080	49
BS1321_19085	110
BS1321_19090	154
BS1321_19095	564
BS1321_19100	42
BS1321_19105	1621
BS1321_19110	945
BS1321_19115	746
BS1321_19120	113
BS1321_19125	946
BS1321_19130	910
BS1321_19135	1
BS1321_19140	169
BS1321_19145	528
BS1321_19150	714
BS1321_19155	360
BS1321_19160	1288
BS1321_19165	196
BS1321_19170	678
BS1321_19175	183
BS1321_19180	757
BS1321_19185	145
BS1321_19195	184
BS1321_19200	378
BS1321_19205	24
BS1321_19210	608
BS1321_19215	1821
BS1321_19220	5
BS1321_19225	1887
BS1321_19230	6628
BS1321_19235	1170
BS1321_19240	706
BS1321_19245	3516
BS1321_19250	1364
BS1321_19255	1950
BS1321_19260	1088
BS1321_19265	1380
BS1321_19270	4589
BS1321_19275	7654
BS1321_19280	208
BS1321_19285	947
BS1321_19290	1577
BS1321_19295	72131
BS1321_19300	1587
BS1321_19305	637
BS1321_19310	291
BS1321_19315	1673
BS1321_19320	874
BS1321_19325	642
BS1321_19330	372
BS1321_19335	550
BS1321_19340	474
BS1321_19345	503
BS1321_19350	46
BS1321_19355	87
BS1321_19360	78
BS1321_19365	101
BS1321_19370	104
BS1321_19375	262
BS1321_19380	405
BS1321_19385	0
BS1321_19390	0
BS1321_19395	0
BS1321_19400	0
BS1321_19405	890
BS1321_19410	686
BS1321_19415	2
BS1321_19420	2
BS1321_19425	6106
BS1321_19430	13
BS1321_19435	965
BS1321_19440	142
BS1321_19445	730
BS1321_19450	757
BS1321_19455	172
BS1321_19460	887
BS1321_19465	3255
BS1321_19470	44474
BS1321_19475	1012
BS1321_19480	2867
BS1321_19485	2
BS1321_19490	1411
BS1321_19495	127
BS1321_19500	649
BS1321_19505	8
BS1321_19510	0
BS1321_19515	1904
BS1321_19520	835
BS1321_19525	366
BS1321_19530	749
BS1321_19535	1755
BS1321_19540	628
BS1321_19545	4369
BS1321_19550	2146
BS1321_19555	70
BS1321_19560	39
BS1321_19565	40
BS1321_19570	27
BS1321_19575	6505
BS1321_19580	13918
BS1321_19585	2455
BS1321_19590	370
BS1321_19595	307
BS1321_19605	13093
BS1321_19610	1812
BS1321_19615	952
BS1321_19620	487
BS1321_19625	322
BS1321_19630	418
BS1321_19635	4192
BS1321_19640	46
BS1321_19645	177
BS1321_19650	130
BS1321_19655	20
BS1321_19660	1783
BS1321_19665	150
BS1321_19670	27512
BS1321_19675	21100
BS1321_19680	26991
BS1321_19685	173
BS1321_19690	1430
BS1321_19695	3147
BS1321_19700	160
BS1321_19705	521
BS1321_19710	618
BS1321_19715	862
BS1321_19720	238
BS1321_19725	818
BS1321_19730	41
BS1321_19735	26
BS1321_19740	33
BS1321_19745	49
BS1321_19750	2085
BS1321_19755	375
BS1321_19760	0
BS1321_19765	452
BS1321_19770	66
BS1321_19775	772
BS1321_19780	640
BS1321_19785	2664
BS1321_19790	189
BS1321_19795	2310
BS1321_19800	2655
BS1321_19805	1277
BS1321_19810	1260
BS1321_19815	221
BS1321_19820	77
BS1321_19825	65
BS1321_19830	1815
BS1321_19835	54
BS1321_19840	546
BS1321_19845	947
BS1321_19850	7523
BS1321_19855	811
BS1321_19860	505
BS1321_19865	1624
BS1321_19870	1145
BS1321_19875	6311
BS1321_19880	8006
BS1321_19885	546
BS1321_19890	443
BS1321_19895	721
BS1321_19900	2089
BS1321_19910	86
BS1321_19915	10
BS1321_19920	20
BS1321_19925	10
BS1321_19930	241
BS1321_19935	112
BS1321_19940	36
BS1321_19945	0
BS1321_19950	0
BS1321_19955	0
BS1321_19960	0
BS1321_19965	0
BS1321_19970	0
BS1321_19975	0
BS1321_19980	24
BS1321_19985	131
BS1321_19990	1
BS1321_19995	60
BS1321_20000	33
BS1321_20005	31
BS1321_20010	455
BS1321_20015	497
BS1321_20020	0
BS1321_20025	275
BS1321_20030	63
BS1321_20035	194
BS1321_20040	246
BS1321_20045	288
BS1321_20050	29
BS1321_20055	51
BS1321_20060	74
BS1321_20065	11835
BS1321_20070	16815
BS1321_20075	9
BS1321_20080	3594
BS1321_20090	40
BS1321_20095	16035
BS1321_20100	830
BS1321_20105	331
BS1321_20110	230
BS1321_20115	3173
BS1321_20120	6945
BS1321_20125	177
BS1321_20130	107
BS1321_20135	6
BS1321_20140	335
BS1321_20145	2388
BS1321_20150	137
BS1321_20155	81
BS1321_20160	165
BS1321_20165	145
BS1321_20170	12
BS1321_20175	1232
BS1321_20180	858
BS1321_20185	4388
BS1321_20190	452
BS1321_20195	262
BS1321_20200	323
BS1321_20205	1802
BS1321_20210	1694
BS1321_20215	7
BS1321_20220	24
BS1321_20225	38
BS1321_20230	20290
BS1321_20235	19316
BS1321_20240	25633
BS1321_20245	1186
BS1321_20250	5022
BS1321_20255	2654
BS1321_20260	1028
BS1321_20265	19
BS1321_20270	1069
BS1321_20275	25
BS1321_20280	11
BS1321_20285	15
BS1321_20290	84
BS1321_20295	120
BS1321_20300	6
BS1321_20305	7
BS1321_20310	7
BS1321_20315	3
BS1321_20320	90
BS1321_20325	716
BS1321_20330	112
BS1321_20335	499
BS1321_20340	1425
BS1321_20345	2196
BS1321_20350	40
BS1321_20355	23
BS1321_20360	6
BS1321_20365	397
BS1321_20370	3142
BS1321_20375	4358
BS1321_20380	3620
BS1321_20385	3804
BS1321_20390	695
BS1321_20395	419
BS1321_20400	804
BS1321_20405	1462
BS1321_20415	0
BS1321_20420	0
BS1321_20430	58
BS1321_20435	1372
BS1321_20440	3
BS1321_20445	5
BS1321_20450	5
BS1321_20460	20
BS1321_20465	112
BS1321_20470	20
BS1321_20475	28
BS1321_20485	94
BS1321_20490	3
BS1321_20495	1429
BS1321_20500	37
BS1321_20505	28
BS1321_20510	399
BS1321_20515	7
BS1321_20520	35
BS1321_20525	1055
BS1321_20530	1352
BS1321_20535	594
BS1321_20540	462
BS1321_20545	0
BS1321_20550	0
BS1321_20555	0
BS1321_20560	0
BS1321_20565	0
BS1321_20570	0
BS1321_20575	0
BS1321_20580	0
BS1321_20585	0
BS1321_20590	0
BS1321_20595	0
BS1321_20605	0
BS1321_20610	0
BS1321_20615	0
BS1321_20620	27
BS1321_20625	22
BS1321_20630	23
BS1321_20635	118
BS1321_20640	19
BS1321_20645	0
BS1321_20650	98
BS1321_20655	4
BS1321_20660	126
BS1321_20665	2249
BS1321_20670	3
BS1321_20675	1
BS1321_20680	8
BS1321_20685	564
BS1321_20690	691
BS1321_20695	849
BS1321_20700	1559
BS1321_20705	76
BS1321_20710	380
BS1321_20715	73
BS1321_20720	31
BS1321_20725	16
BS1321_20730	8
BS1321_20735	29
BS1321_20740	1072
BS1321_20745	1260
BS1321_20750	2769
BS1321_20755	3393
BS1321_20760	1554
BS1321_20765	392
BS1321_20770	690
BS1321_20775	626
BS1321_20780	897
BS1321_20785	1050
BS1321_20790	29
BS1321_20795	270
BS1321_20800	241
BS1321_20805	170
BS1321_20810	1200
BS1321_20815	78
BS1321_20820	1555
BS1321_20825	715
BS1321_20830	12
BS1321_20835	19
BS1321_20840	605
BS1321_20845	751
BS1321_20850	2447
BS1321_20855	245
BS1321_20860	186
BS1321_20865	315
BS1321_20870	830
BS1321_20875	374
BS1321_20880	693
BS1321_20885	820
BS1321_20890	598
BS1321_20895	1401
BS1321_20900	44
BS1321_20905	11
BS1321_20910	80
BS1321_20915	343
BS1321_20920	669
BS1321_20925	28128
BS1321_20930	17
BS1321_20935	18
BS1321_20940	6
BS1321_20945	6807
BS1321_20950	406
BS1321_20955	8793
BS1321_20960	3919
BS1321_20965	9883
BS1321_20970	321
BS1321_20975	1071
BS1321_20980	395
BS1321_20985	2620
BS1321_20990	5055
BS1321_20995	0
BS1321_21000	98
BS1321_21005	20907
BS1321_21010	64459
BS1321_21015	4723
BS1321_21020	11500
BS1321_21025	7285
BS1321_21030	15
BS1321_21035	9
BS1321_21040	1030
BS1321_21045	1612
BS1321_21050	1096
BS1321_21055	590
BS1321_21060	975
BS1321_21065	1781
BS1321_21070	408
BS1321_21075	839
BS1321_21080	208
BS1321_21085	1081
BS1321_21090	777
BS1321_21095	1254
BS1321_21100	222
BS1321_21105	1080
BS1321_21110	1903
BS1321_21115	76
BS1321_21120	2470
BS1321_21125	177
BS1321_21130	569
BS1321_21135	1864
BS1321_21140	38
BS1321_21145	2171
BS1321_21150	1389
BS1321_21155	25
BS1321_21160	536
BS1321_21165	530
BS1321_21170	380
BS1321_21175	480
BS1321_21180	39
BS1321_21185	2185
BS1321_21190	0
BS1321_21195	3
BS1321_21200	364
BS1321_21205	19
BS1321_21210	25893
BS1321_21215	40
BS1321_21220	560
BS1321_21225	58
BS1321_21230	16
BS1321_21235	25
BS1321_21240	53
BS1321_21245	71
BS1321_21250	24
BS1321_21255	48
BS1321_21260	0
BS1321_21265	8
BS1321_21270	318
BS1321_21275	140
BS1321_21280	312
BS1321_21285	240
BS1321_21290	25
BS1321_21295	317
BS1321_21300	349
BS1321_21305	33
BS1321_21310	2981
BS1321_21315	382
BS1321_21320	2393
BS1321_21325	119
BS1321_21330	936
BS1321_21335	1460
BS1321_21340	1764
BS1321_21345	2238
BS1321_21350	274
BS1321_21355	50
BS1321_21360	33
BS1321_21365	19
BS1321_21370	11
BS1321_21375	5
BS1321_21380	14
BS1321_21385	9
BS1321_21390	35
BS1321_21395	455
BS1321_21400	783
BS1321_21405	1409
BS1321_21410	924
BS1321_21415	322
BS1321_21420	1058
BS1321_21425	11
BS1321_21430	65
BS1321_21435	183
BS1321_21440	1680
BS1321_21445	556
BS1321_21450	13
BS1321_21455	774
BS1321_21460	5498
BS1321_21465	5161
BS1321_21470	0
BS1321_21475	2
BS1321_21480	1
BS1321_21485	3
BS1321_21490	10
BS1321_21495	3
BS1321_21500	7
BS1321_21505	12
BS1321_21510	462
BS1321_21515	3205
BS1321_21520	1696
BS1321_21525	556
BS1321_21530	1325
BS1321_21535	288
BS1321_21540	30
BS1321_21545	228
BS1321_21550	2180
BS1321_21555	1321
BS1321_21560	274
BS1321_21565	375
BS1321_21570	44
BS1321_21575	1641
BS1321_21580	3
BS1321_21585	126
BS1321_21590	861
BS1321_21595	237
BS1321_21600	763
BS1321_21605	285
BS1321_21610	261
BS1321_21615	602
BS1321_21620	2383
BS1321_21625	120
BS1321_21630	243
BS1321_21635	259
BS1321_21640	5483
BS1321_21645	592
BS1321_21650	259
BS1321_21655	208
BS1321_21660	481
BS1321_21665	288
BS1321_21670	16
BS1321_21675	54
BS1321_21680	2205
BS1321_21685	0
BS1321_21690	482
BS1321_21695	2355
BS1321_21700	23
BS1321_21705	2220
BS1321_21710	270
BS1321_21715	299
BS1321_21720	44
BS1321_21725	95
BS1321_21730	213
BS1321_21735	56
BS1321_21740	128
BS1321_21745	82
BS1321_21750	610
BS1321_21755	304
BS1321_21760	8
BS1321_21765	1321
BS1321_21770	129
BS1321_21775	57
BS1321_21780	64
BS1321_21785	819
BS1321_21790	369
BS1321_21795	658
BS1321_21800	57
BS1321_21805	931
BS1321_21810	315
BS1321_21815	442
BS1321_21820	212
BS1321_21825	23
BS1321_21830	3747
BS1321_21835	63
BS1321_21840	345
BS1321_21845	1474
BS1321_21850	489
BS1321_21860	23
BS1321_21865	56
BS1321_21870	127
BS1321_21875	266
BS1321_21880	655
BS1321_21885	1
BS1321_21890	1
BS1321_21895	6
BS1321_21900	14
BS1321_21905	609
BS1321_21910	3831
BS1321_21915	1368
BS1321_21920	371
BS1321_21925	190
BS1321_21930	139
BS1321_21935	632
BS1321_21940	916
BS1321_21945	10
BS1321_21950	14677
BS1321_21955	1668
BS1321_21960	7
BS1321_21965	8
BS1321_21970	14
BS1321_21975	1138
BS1321_21980	708
BS1321_21985	1384
BS1321_21990	1136
BS1321_21995	590
BS1321_22000	1682
BS1321_22005	104
BS1321_22010	312
BS1321_22015	270
BS1321_22020	629
BS1321_22025	2299
BS1321_22030	696
BS1321_22035	245
BS1321_22040	141
BS1321_22045	34
BS1321_22050	9
BS1321_22055	26
BS1321_22060	233
BS1321_22065	112
BS1321_22070	8848
BS1321_22075	435
BS1321_22080	649
BS1321_22085	1308
BS1321_22090	17
BS1321_22095	53
BS1321_22100	17
BS1321_22105	10
BS1321_22110	150
BS1321_22115	521
BS1321_22120	3450
BS1321_22125	1320
BS1321_22130	4
BS1321_22135	6
BS1321_22140	1704
BS1321_22145	1505
BS1321_22150	6
BS1321_22155	0
BS1321_22160	887
BS1321_22165	30
BS1321_22170	118
BS1321_22175	1297
BS1321_22180	218
BS1321_22185	4206
BS1321_22190	69
BS1321_22195	84
BS1321_22200	303
BS1321_22205	782
BS1321_22210	832
BS1321_22215	2906
BS1321_22220	73
BS1321_22225	699
BS1321_22230	476
BS1321_22235	134
BS1321_22240	366
BS1321_22245	204
BS1321_22250	785
BS1321_22255	451
BS1321_22260	501
BS1321_22265	117
BS1321_22270	3353
BS1321_22275	3480
BS1321_22280	8459
BS1321_22285	63
BS1321_22290	57
BS1321_22295	1155
BS1321_22300	375
BS1321_22305	26
BS1321_22310	868
BS1321_22315	701
BS1321_22320	110
BS1321_22325	288
BS1321_22330	183
BS1321_22335	264
BS1321_22340	91
BS1321_22345	73
BS1321_22350	14
BS1321_22355	794
BS1321_22360	239
BS1321_22365	673
BS1321_22370	3089
BS1321_22375	1735
BS1321_22380	14
BS1321_22385	15
BS1321_22390	18
BS1321_22395	1
BS1321_22400	1
BS1321_22405	22
BS1321_22410	53
BS1321_22415	55
BS1321_22420	15
BS1321_22425	21
BS1321_22430	45
BS1321_22440	0
BS1321_22445	1394
BS1321_22450	628
BS1321_22455	263
BS1321_22460	352
BS1321_22465	5542
BS1321_22470	568
BS1321_22475	22
BS1321_22480	8
BS1321_22485	174
BS1321_22490	142
BS1321_22495	13
BS1321_22500	217
BS1321_22505	270
BS1321_22510	91
BS1321_22515	977
BS1321_22520	33
BS1321_22525	459
BS1321_22535	1238
BS1321_22540	33830
BS1321_22545	2587
BS1321_22550	330
BS1321_22555	60
BS1321_22560	126
BS1321_22570	81
BS1321_22575	20
BS1321_22580	1089
BS1321_22585	53
BS1321_22590	121
BS1321_22595	1765
BS1321_22600	323
BS1321_22605	594
BS1321_22615	127
BS1321_22620	33
BS1321_22630	386
BS1321_22635	3220
BS1321_22640	737
BS1321_22645	41
BS1321_22650	255
BS1321_22655	570
BS1321_22660	12
BS1321_22665	9
BS1321_22670	0
BS1321_22675	12
BS1321_22680	4
BS1321_22685	1
BS1321_22690	11
BS1321_22695	43
BS1321_22700	115
BS1321_22705	429
BS1321_22710	430
BS1321_22715	888
BS1321_22720	31
BS1321_22735	1
BS1321_22740	3
BS1321_22745	10
BS1321_22750	17
BS1321_22755	7
BS1321_22760	28
BS1321_22765	0
BS1321_22770	128
BS1321_22775	219
BS1321_22780	12
BS1321_22785	68
BS1321_22790	7
BS1321_22795	2
BS1321_22800	3
BS1321_22805	11
BS1321_22810	62
BS1321_22815	97
BS1321_22820	54
BS1321_22825	7
BS1321_22830	6
BS1321_22835	17
BS1321_22840	8
BS1321_22845	64
BS1321_22850	1
BS1321_22855	2
BS1321_22860	4
BS1321_22865	5
BS1321_22870	6
BS1321_22875	12
BS1321_22880	21
BS1321_22885	12
BS1321_22900	47
BS1321_22905	24
BS1321_22910	0
BS1321_22915	2
BS1321_22920	21
BS1321_22925	13
BS1321_22930	178
BS1321_22935	19
BS1321_22940	49
BS1321_22945	19
BS1321_22950	81
BS1321_22955	84
BS1321_22960	5813
BS1321_22965	2537
BS1321_22970	56
BS1321_22975	114
BS1321_22980	0
BS1321_22985	13
BS1321_22990	10
BS1321_22995	18
BS1321_23000	3
BS1321_23005	0
BS1321_23010	0
BS1321_23015	0
BS1321_23020	0
BS1321_23025	0
BS1321_23030	0
BS1321_23035	0
BS1321_23045	0
BS1321_23050	0
BS1321_23055	0
BS1321_23060	0
BS1321_23065	0
BS1321_23070	0
BS1321_23075	0
BS1321_23085	0
BS1321_23090	103
BS1321_23095	13
BS1321_23105	126
BS1321_23110	69
BS1321_23125	0
BS1321_23130	0
BS1321_23135	0
BS1321_23140	0
BS1321_23145	0
BS1321_23150	0
BS1321_23155	0
BS1321_23160	0
BS1321_23165	0
BS1321_23170	0
BS1321_23175	0
BS1321_23180	0
BS1321_23185	0
BS1321_23190	679
BS1321_23195	436
BS1321_23200	55
BS1321_23205	19
BS1321_23210	18
BS1321_23215	0
BS1321_23220	0
BS1321_23225	0
BS1321_23230	15
BS1321_23235	0
BS1321_23240	31
BS1321_23245	80
BS1321_23255	0
BS1321_23260	0
BS1321_23265	0
BS1321_23270	0
BS1321_23275	0
BS1321_23280	0
BS1321_23290	1
BS1321_23295	0
BS1321_23300	0
BS1321_23305	0
BS1321_23315	5
BS1321_23320	21
BS1321_23325	3
BS1321_23330	2
BS1321_23335	0
BS1321_23340	0
BS1321_23345	0
BS1321_23350	0
BS1321_23355	0
BS1321_23365	0
BS1321_23370	6
BS1321_23375	84
BS1321_23380	0
BS1321_23385	0
BS1321_23390	0
BS1321_23395	0
BS1321_23400	0
BS1321_23405	0
BS1321_23410	0
BS1321_23415	23
BS1321_23420	2322
BS1321_23425	59
BS1321_23430	4
BS1321_23435	25
BS1321_23440	198
BS1321_23445	82
BS1321_23450	255
BS1321_23455	13
BS1321_23460	39
BS1321_23465	991
BS1321_23470	439
BS1321_23475	113
BS1321_23480	1861
BS1321_23485	596
BS1321_23490	1618
BS1321_23495	256
BS1321_23500	144
BS1321_23505	4
BS1321_23510	1
BS1321_23515	15
BS1321_23520	446
BS1321_23525	660
BS1321_23530	93
BS1321_23540	8147
BS1321_23545	488
BS1321_23550	139
BS1321_23555	92
BS1321_23560	2504
BS1321_23565	1575
BS1321_23570	25
BS1321_23575	233
BS1321_23580	283
BS1321_23585	294
BS1321_23590	399
BS1321_23595	353
BS1321_23600	0
BS1321_23605	0
BS1321_23610	0
BS1321_23615	0
BS1321_23620	0
BS1321_23630	0
BS1321_23635	0
BS1321_23640	0
BS1321_23645	0
BS1321_23650	0
BS1321_23655	0
BS1321_23660	0
BS1321_23665	0
BS1321_23670	0
BS1321_23675	0
BS1321_23680	0
BS1321_23685	0
BS1321_23690	14
BS1321_23695	0
BS1321_23700	3
BS1321_23705	0
BS1321_23710	9
BS1321_23715	10
BS1321_23720	2
BS1321_23725	33
BS1321_23730	11
BS1321_23735	34
BS1321_23740	12
BS1321_23745	0
BS1321_23750	140
BS1321_23755	455
BS1321_23760	24
BS1321_23765	9
BS1321_23770	1370
BS1321_23775	776
BS1321_23780	37
BS1321_23790	81
BS1321_23795	248
BS1321_23800	143
BS1321_23805	159
BS1321_23810	132
BS1321_23815	107
BS1321_23820	166
BS1321_23825	274
BS1321_23830	7
BS1321_23835	444
BS1321_23840	1115
BS1321_23845	405
BS1321_23850	200
BS1321_23855	181
BS1321_23860	8
BS1321_23870	286
BS1321_23875	129
BS1321_23880	903
BS1321_23885	709
BS1321_23890	323
BS1321_23895	2466
BS1321_23900	5
BS1321_23905	18827
BS1321_23910	74
BS1321_23915	2612
BS1321_23920	1943
BS1321_23925	561
BS1321_23930	237
BS1321_23935	486
BS1321_23940	502
BS1321_23945	33
BS1321_23950	219
BS1321_23955	29
BS1321_23960	66
BS1321_23965	11654
BS1321_23970	8909
BS1321_23975	575
BS1321_23980	821
BS1321_23985	2129
BS1321_24000	0
BS1321_24005	39
BS1321_24010	87
BS1321_24015	181
BS1321_24020	132
BS1321_24025	178
BS1321_24030	416
BS1321_24035	316
BS1321_24040	2723
BS1321_24045	4720
BS1321_24050	5
BS1321_24065	0
BS1321_24070	0
BS1321_24075	0
BS1321_24085	0
BS1321_24090	0
BS1321_24095	0
BS1321_24100	0
BS1321_24105	0
BS1321_24110	0
BS1321_24115	0
BS1321_24120	0
BS1321_24125	0
BS1321_24130	0
BS1321_24135	0
BS1321_24140	0
BS1321_24145	0
BS1321_24150	11
BS1321_24155	3652
BS1321_24160	13
BS1321_24165	21
BS1321_24170	69
BS1321_24175	17
BS1321_24180	159
BS1321_24185	198
BS1321_24190	208
BS1321_24195	3
BS1321_24200	1175
BS1321_24205	23
BS1321_24210	9
BS1321_24215	2
BS1321_24220	233
BS1321_24225	408
BS1321_24230	37
BS1321_24235	6575
BS1321_24240	915
BS1321_24245	393
BS1321_24250	124
BS1321_24255	25
BS1321_24260	33
BS1321_24265	21
BS1321_24270	2
BS1321_24275	4
BS1321_24280	55
BS1321_24285	1021
BS1321_24290	4
BS1321_24295	221
BS1321_24300	1660
BS1321_24305	180
BS1321_24310	1664
BS1321_24315	3045
BS1321_24320	56
BS1321_24325	8
BS1321_24330	56
BS1321_24335	7
BS1321_24340	2
BS1321_24345	11
BS1321_24350	9
BS1321_24355	24
BS1321_24360	43
BS1321_24365	32
BS1321_24370	117
BS1321_24375	262
BS1321_24380	239
BS1321_24385	421
BS1321_24390	4392
BS1321_24395	1861
BS1321_24400	0
BS1321_24405	6
BS1321_24410	102
BS1321_24415	105
BS1321_24420	220
BS1321_24425	22
BS1321_24430	54
BS1321_24435	0
BS1321_24440	723
BS1321_24445	0
BS1321_24450	0
BS1321_24455	0
BS1321_24460	0
BS1321_24465	0
BS1321_24470	0
BS1321_24475	0
BS1321_24480	0
BS1321_24485	0
BS1321_24490	0
BS1321_24495	0
BS1321_24500	0
BS1321_24505	0
BS1321_24510	0
BS1321_24515	0
BS1321_24520	0
BS1321_24525	0
BS1321_24530	0
BS1321_24535	0
BS1321_24540	0
BS1321_24545	0
BS1321_24550	0
BS1321_24555	0
BS1321_24560	3
BS1321_24565	7
BS1321_24570	17
BS1321_24575	20
BS1321_24580	8
BS1321_24585	7
BS1321_24590	44
BS1321_24595	2
BS1321_24600	144
BS1321_24605	9
BS1321_24610	105
BS1321_24615	153
BS1321_24620	30
BS1321_24625	12
BS1321_24630	28
BS1321_24635	0
BS1321_24640	89
BS1321_24645	33
BS1321_24650	64
BS1321_24655	7
BS1321_24660	38
BS1321_24665	229
BS1321_24670	4
BS1321_24675	2
BS1321_24680	37
BS1321_24685	3
BS1321_24690	3
BS1321_24695	12
BS1321_24700	109
BS1321_24705	28
BS1321_24710	6
BS1321_24715	19
BS1321_24720	6
BS1321_24725	0
BS1321_24730	3
BS1321_24735	10
BS1321_24740	5
BS1321_24745	3
BS1321_24750	4
BS1321_24755	17
BS1321_24760	4
BS1321_24765	4
BS1321_24770	28
BS1321_24775	299
BS1321_24780	8
BS1321_24785	11
BS1321_24790	5
BS1321_24795	3
BS1321_24800	31
BS1321_24805	8
BS1321_24810	106
BS1321_24815	40
BS1321_24820	492
BS1321_24825	27
BS1321_24830	26
BS1321_24835	14
BS1321_24840	4539
BS1321_24845	45
BS1321_24850	169
BS1321_24855	113
BS1321_24860	56
BS1321_24865	14
BS1321_24870	501
BS1321_24875	29
BS1321_24880	139
BS1321_24885	33
BS1321_24890	2613
BS1321_24895	53
BS1321_24900	57
BS1321_24905	62
BS1321_24910	83
BS1321_24920	72
BS1321_24925	72
BS1321_24930	210
BS1321_24935	103
BS1321_24940	51
BS1321_24945	120
BS1321_24950	156
BS1321_24955	123
BS1321_24960	5678
BS1321_24965	42
BS1321_24970	16
BS1321_24975	54
BS1321_24980	51
BS1321_24985	44
BS1321_24990	1212
BS1321_24995	198
BS1321_25000	331
BS1321_25005	153
BS1321_25010	237
BS1321_25015	67
BS1321_25020	17
BS1321_25025	210
BS1321_25030	18
BS1321_25035	13
BS1321_25040	1210
BS1321_25045	4517
BS1321_25050	263
BS1321_25055	366
BS1321_25060	104
BS1321_25065	13
BS1321_25070	97
BS1321_25075	42
BS1321_25080	885
BS1321_25085	5
BS1321_25090	62
BS1321_25095	24
BS1321_25100	36
BS1321_25105	2
BS1321_25110	530
BS1321_25115	349
BS1321_25120	298
BS1321_25125	181
BS1321_25130	97
BS1321_25135	1016
BS1321_25140	53
BS1321_25145	68
BS1321_25150	41
BS1321_25155	175
BS1321_25165	342
BS1321_25170	130
BS1321_25175	127
BS1321_25180	164
BS1321_25185	516
BS1321_25190	82
BS1321_25195	231
BS1321_25200	27
BS1321_25205	118
BS1321_25210	158
BS1321_25215	229
BS1321_25220	191
BS1321_25225	20
BS1321_25230	11
BS1321_25235	5
BS1321_25240	2
BS1321_25245	1520
BS1321_25250	1880
BS1321_25255	1964
BS1321_25260	435
BS1321_25265	109
BS1321_25270	121
BS1321_25275	289
BS1321_25280	741
BS1321_25285	36
BS1321_25290	105
BS1321_25295	96
BS1321_25300	208
BS1321_25305	385
BS1321_25310	483
BS1321_25315	1082
BS1321_25320	43
BS1321_25325	27
BS1321_25330	3
BS1321_25335	20
BS1321_25340	8
BS1321_25345	2
BS1321_25350	21
BS1321_25355	0
BS1321_25360	0
BS1321_25365	4
BS1321_25370	27
BS1321_25380	19
BS1321_25385	18
BS1321_25390	5
BS1321_25395	27
BS1321_25400	27
BS1321_25410	30
BS1321_25415	464
BS1321_25420	6
BS1321_25425	86
BS1321_25430	28
BS1321_25435	56
BS1321_25440	15
BS1321_25445	184
BS1321_25450	22
BS1321_25455	24
BS1321_25460	28
BS1321_25465	119
BS1321_25470	58
BS1321_25475	42
BS1321_25480	18
BS1321_25485	15
BS1321_25490	104
BS1321_25495	30
BS1321_25500	4516
BS1321_25505	1
BS1321_25510	0
BS1321_25515	0
BS1321_25520	0
BS1321_25525	1
BS1321_25530	0
BS1321_25535	0
BS1321_25540	0
BS1321_25545	4
BS1321_25550	192
BS1321_25555	17
BS1321_25560	0
BS1321_25565	126
BS1321_25570	32
BS1321_25575	0
BS1321_25580	56
BS1321_25585	91
BS1321_25590	6
BS1321_25595	19
BS1321_25600	0
BS1321_25605	26
BS1321_25610	0
BS1321_25615	78
BS1321_25620	85
BS1321_25625	33
BS1321_25630	1
BS1321_25635	20
BS1321_25640	17
BS1321_25645	4
BS1321_25650	6
BS1321_25655	30
BS1321_25660	0
BS1321_25670	117
BS1321_25675	189
BS1321_25680	1180
BS1321_25685	1154
BS1321_25690	3090
BS1321_25695	189
BS1321_25700	56
BS1321_25710	10
BS1321_25715	0
BS1321_25720	0
BS1321_25725	0
BS1321_25730	0
BS1321_25735	0
BS1321_25740	0
BS1321_25745	0
BS1321_25750	0
BS1321_25755	0
BS1321_25760	9
BS1321_25765	4
BS1321_25770	9
BS1321_25775	5
BS1321_25780	12
BS1321_25785	18
BS1321_25790	3
BS1321_25795	172
BS1321_25800	29
BS1321_25805	59
BS1321_25810	99
BS1321_25815	1
BS1321_25820	2494
BS1321_25825	2481
BS1321_25830	0
BS1321_25835	48
BS1321_25840	41
BS1321_25845	5
BS1321_25850	7
BS1321_25855	4
BS1321_25860	27
BS1321_25865	38
BS1321_25870	63
BS1321_25875	20
BS1321_25880	14
BS1321_25885	24
BS1321_25890	52
BS1321_25895	68
BS1321_25900	106
BS1321_25905	59
BS1321_25910	71
BS1321_25915	0
BS1321_25920	0
BS1321_25925	0
BS1321_25930	0
BS1321_25935	57
BS1321_25940	11
BS1321_25945	0
BS1321_25950	0
BS1321_25955	11
BS1321_25960	151
BS1321_25970	0
BS1321_25975	6
BS1321_25980	73
BS1321_25985	1
BS1321_25990	4
BS1321_25995	4
BS1321_26000	2
BS1321_26005	13
BS1321_26010	37
BS1321_26015	126
BS1321_26020	4
BS1321_26025	236
BS1321_26030	120
BS1321_26035	37
BS1321_26040	2635
BS1321_26045	25
BS1321_26050	11
BS1321_26055	366
BS1321_26060	94
BS1321_26065	184
BS1321_26070	23
BS1321_26075	10
BS1321_26080	119
BS1321_26085	18
BS1321_26090	4
BS1321_26095	3
BS1321_26100	221
BS1321_26105	3
BS1321_26110	25
BS1321_26115	0
BS1321_26120	0
BS1321_26125	105
BS1321_26130	428
BS1321_26135	0
BS1321_26145	0
BS1321_26150	0
BS1321_26155	0
BS1321_26160	61
BS1321_26165	32
BS1321_26170	31
BS1321_26175	4
BS1321_26180	26
BS1321_26185	9
BS1321_26190	68
BS1321_26195	18
BS1321_26200	0
BS1321_26205	2720
BS1321_26210	180
BS1321_26215	90
BS1321_26220	20
BS1321_26225	17
BS1321_26230	1
BS1321_26235	8
BS1321_26245	1
BS1321_26250	6
BS1321_26255	9
BS1321_26260	143
BS1321_26265	30
BS1321_26270	270
BS1321_26275	276
BS1321_26280	313
BS1321_26285	230
BS1321_26290	10
BS1321_26295	0
BS1321_26300	718
BS1321_26305	4
BS1321_26320	50
BS1321_26325	43
BS1321_26330	188
BS1321_26335	0
BS1321_26340	86
BS1321_26345	73
BS1321_26350	22
BS1321_26355	59
BS1321_26360	41
BS1321_26365	199
BS1321_26370	0
BS1321_26375	195
BS1321_26380	52
BS1321_26385	0
BS1321_26390	1
BS1321_26395	0
BS1321_26400	0
BS1321_26405	0
BS1321_26410	0
BS1321_26415	0
BS1321_26420	0
BS1321_26425	199
BS1321_26430	52
BS1321_26435	68
BS1321_26440	5
BS1321_26445	12
BS1321_26450	14
BS1321_26460	12
BS1321_26465	0
BS1321_26470	860
BS1321_26475	177
BS1321_26480	273
BS1321_26485	6
BS1321_26490	927
BS1321_26495	330
BS1321_26500	133
BS1321_26505	2146
BS1321_26510	1360
BS1321_26515	353
BS1321_26520	328
BS1321_26525	82
BS1321_26530	13
BS1321_26535	30
BS1321_26540	9
BS1321_26545	54
BS1321_26550	18
BS1321_26555	27
BS1321_26560	8
BS1321_26565	6
BS1321_26570	6
BS1321_26575	2
BS1321_26580	0
BS1321_26585	0
BS1321_26590	8
BS1321_26595	3
BS1321_26600	16
BS1321_26605	29
BS1321_26610	2
BS1321_26615	0
BS1321_26620	0
BS1321_26625	1
BS1321_26630	0
BS1321_26635	2
BS1321_26640	0
BS1321_26645	0
BS1321_26650	0
BS1321_26655	0
BS1321_26660	0
BS1321_26665	0
BS1321_26670	0
BS1321_26675	0
BS1321_26680	0
BS1321_26685	0
BS1321_26690	0
BS1321_26720	0
BS1321_26730	0
BS1321_26740	0
agaS	0
btuC	718
celC	21
deoA	689
engB	2735
fabG	528
fecD	17
fecE	40
ffs	346039
gabD	7299
gatA	1707
ligA	417
livF	3
livG	80
mtnA	123
murD	2176
nikC	0
nusA	942
phnK	0
polC	2721
prsA	3973
rbsC	173
rnhA	231
rnpB	337803
rpsN	4558
rrf	3
spoVM	1005
srlA	0
sspH	225
ssrA	608482
ssrS	82446
ssuB	13
ssuC	2
tatA	4258
tynA	0
ureE	5
uvsE	879
yjjX	11
__no_feature	519335
__ambiguous	98914
__too_low_aQual	56199
__not_aligned	1269324
__alignment_not_unique	0
