BS3610_RS01320	491
BS3610_RS02190	0
BS3610_RS03225	4
BS3610_RS04245	14
BS3610_RS04250	4
BS3610_RS04660	0
BS3610_RS04820	3938
BS3610_RS04940	0
BS3610_RS04970	6
BS3610_RS06465	1412
BS3610_RS07180	9
BS3610_RS08125	0
BS3610_RS08485	5
BS3610_RS09150	56
BS3610_RS10165	8
BS3610_RS10485	7
BS3610_RS10990	76
BS3610_RS11360	1
BS3610_RS11695	277
BS3610_RS12510	2
BS3610_RS13215	63
BS3610_RS15195	2
BS3610_RS16320	226
BS3610_RS17900	6
BS3610_RS18100	0
BS3610_RS18125	121
BS3610_RS18670	9
BS3610_RS18875	4
BS3610_RS19415	10
BS3610_RS20625	1
BS3610_RS20995	0
BS3610_RS21235	1
BS3610_RS22650	56
BS3610_RS22670	7
BS3610_RS23175	2
BS3610_RS23190	7
BS3610_RS23210	2
BS3610_RS23215	3
BS3610_RS23230	0
BS3610_RS23245	0
BS3610_RS23265	0
BS3610_RS23300	7
BS3610_RS23305	1
BS3610_RS23330	45
BS3610_RS23335	16
BS3610_RS23340	23
BS3610_RS23345	43
BS3610_RS23350	28
BS3610_RS23355	0
BS3610_RS23375	76
BS3610_RS23390	0
BS3610_RS23400	90
BS3610_RS23430	64
BS3610_RS23445	5
BS3610_RS23455	23
BS3610_RS23480	1
BS3610_RS23510	2
BS3610_RS23515	1
BS3610_RS23520	0
BS3610_RS23540	220
BS3610_RS23545	1
BS3610_RS23565	1
BS3610_RS23570	7
BS3610_RS23575	0
BS3610_RS23580	0
BS3610_RS23625	55
BS3610_RS23635	348
BS3610_RS23640	80
BS3610_RS23650	315
BS3610_RS23660	6
BS3610_RS23685	3
BS3610_RS23695	0
BS3610_RS23705	463
BS3610_RS23725	99
BS3610_RS23745	131
BS3610_RS23755	0
BS3610_RS23760	11
BS3610_RS23780	35
BS3610_RS23795	0
BS3610_RS23805	3
BS3610_RS23810	5
BS3610_RS23815	25
BS3610_RS23830	1
BS3610_RS23850	7
BS3610_RS23870	4
BS3610_RS23880	7
BS3610_RS23885	7
BS3610_RS23890	80
BS3610_RS23900	103
BS3610_RS23905	2
BS3610_RS23915	9
BS3610_RS23925	0
BS3610_RS23960	2
BS3610_RS23970	0
BS3610_RS24015	0
BS3610_RS24065	4
BS3610_RS24095	2
BS3610_RS24100	3
BS3610_RS24105	5
BS3610_RS24115	0
BS3610_RS24125	36
BS3610_RS24135	17
BS3610_RS24150	60
BS3610_RS24160	14
BS3610_RS24180	11
BS3610_RS24185	16
BS3610_RS24190	25
BS3610_RS24195	4
BS3610_RS24200	0
BS3610_RS24220	11
BS3610_RS24225	76
BS3610_RS24240	3
BS3610_RS24250	0
BS3610_RS24260	0
BS3610_RS24285	5
BS3610_RS24290	15
BS3610_RS24295	4
BS3610_RS24315	1
BS3610_RS24320	5
BS3610_RS24345	55
BS3610_RS24350	48308
BS3610_RS24360	44
BS3610_RS24365	29
BS3610_RS24375	6
BS3610_RS24380	1
BS3610_RS24390	4
BS3610_RS24405	11
BS3610_RS24420	254
BS3610_RS24435	3
BS3610_RS24450	57
BS3610_RS24460	0
BS3610_RS24480	0
BS3610_RS24510	88
BS3610_RS24520	429
BS3610_RS24530	109
BS3610_RS24540	26
BS3610_RS24550	0
BS3610_RS24570	24
BS3610_RS24580	116
BS3610_RS24585	92
BS3610_RS24590	2735
BS3610_RS24610	2
BS3610_RS24620	209
BS3610_RS24630	0
BS3610_RS24640	97
BS3610_RS24670	5
BS3610_RS24675	7
BS3610_RS24725	0
aadK	77
aag	14
aapA	41
abbA	326
abfA	128
abh	137
abnA	114
abnB	238
abrB	394
accA	226
accB	115
accC	3587
accD	273
acdA	311
ackA	476
acoA	975
acoB	958
acoC	1955
acoL	1922
acoR	151
acpA	342
acpK	6
acpS	40
acsA	134
acuA	71
acuB	156
acuC	219
adaA	6
adaB	9
addA	461
addB	244
adeC	127
adhA	74
adhB	208
adk	2961
ahpC	2423
ahpF	4788
ahrC	55
alaS	322
albA	2381
albB	178
albC	750
albD	671
albE	523
albF	457
albG	308
ald	3040
aldX	48
aldY	263
alkA	55
alrA	248
alrB	353
alsD	134
alsR	119
alsS	147
alsT	111
amhX	367
amiE	276
ampS	156
amtB	129
amyC	47
amyD	31
amyE	1260
amyX	904
ansA	105
ansB	208
ansR	91
ansZ	42
antE	0
appA	1408
appB	118
appC	155
appD	99
appF	146
aprE	1413
aprX	511
apt	257
araA	33
araB	56
araD	22
araE	34
araL	13
araM	40
araN	47
araP	72
araQ	19
araR	127
arfM	5
argB	64
argC	76
argD	132
argF	201
argG	601
argH	776
argI	455
argJ	136
argS	524
aroA	184
aroB	143
aroC	57
aroD	137
aroF	73
aroH	58
aroK	23
aroQ	212
aroX	345
arsB	159
arsC	74
arsR	13
artP	191
artQ	68
artR	210
arxR	34
asd	3407
aseR	3
asnB	532
asnH	106
asnO	1872
asnS	621
aspB	255
aspS	233
atoA	135
atoB	224
atpA	2976
atpB	901
atpC	1302
atpD	3001
atpE	171
atpF	511
atpG	1541
atpH	485
atpI	425
azlB	8
azlC	14
azlD	11
bacA	13
bacB	30
bacC	51
bacD	117
bacE	38
bacG	48
bacH	47
bcaP	119
bcd	435
bceA	13
bceB	55
bceR	43
bceS	68
bcrC	84
bdbA	7
bdbB	27
bdbC	193
bdbD	313
bdhA	4491
besA	511
bglA	49
bglC	82
bglH	234
bglP	457
bglS	129
bhlA	2
bhlB	1
bioB	122
bioD	37
bioF	196
bioI	106
bioK	273
bioW	145
bioY	14
bioYB	135
bipA	1285
birA	191
bkdAA	513
bkdAB	564
bkdB	1027
bkdR	88
blt	47
bltD	18
bltR	6
blyA	14
bmr	969
bmrA	129
bmrR	93
bmrU	345
bofA	66
bofC	345
bpr	2379
bpsA	21
bpsB	26
braB	85
brnQ	34
bsaA	10
bscR	21
bsdA	27
bsdB	4
bsdC	16
bshA	162
bshBA	149
bshBB	286
bshC	392
bshR	162
bslA	491
bsn	211
bsrG	1010
bst	79
bsuMA	112
bsuMB	99
bsuRA	57
bsuRB	76
bsuRC	109
btr	45
buk	282
cah	43
capA	8
capB	41
capC	24
capE	2
carA	164
carB	703
catD	10
catE	92
cca	162
cccA	73
cccB	311
ccdA	75
ccpA	219
ccpB	25
ccpC	67
ccpN	85
cdd	427
cdnD	168
cdoA	391
cdsA	97
cgeA	4674
cgeB	9187
cgeC	593
cgeD	364
cgeE	102
cggR	2231
cheA	240
cheB	82
cheC	82
cheD	61
cheR	15
cheV	160
cheW	79
cheY	42
cidA	53
cimH	64
cinA	220
citA	24
citB	4871
citH	269
citM	33
citR	15
citS	61
citT	17
citZ	2840
clpC	3257
clpE	331
clpP	1968
clpQ	323
clpX	1447
clpY	1566
clsA	169
clsB	323
cmk	116
coaA	60
coaBC	176
coaD	43
coaE	525
coaX	78
codV	588
codY	1355
coiA	25
comA	127
comC	8
comEA	2
comEB	16
comEC	90
comER	1264
comFA	25
comFB	9
comFC	50
comGA	13
comGB	14
comGC	3
comGD	2
comGE	4
comGF	6
comGG	5
comK	137
comN	25
comP	403
comQ	121
comS	0
comX	24
comZ	81
copA	121
copB	203
copZ	17
cotA	3976
cotB	3310
cotC	241
cotD	14831
cotE	3470
cotF	2477
cotG	16373
cotH	555
cotI	2063
cotJA	1356
cotJB	728
cotJC	2296
cotM	1456
cotO	2741
cotP	217
cotR	948
cotS	2077
cotSA	1023
cotT	5943
cotU	99
cotV	12697
cotW	10745
cotX	31285
cotY	17802
cotZ	11923
coxA	1929
cpgA	287
crcBA	11
crh	16
csaA	114
csbA	107
csbB	353
csbC	480
csbD	40
csbX	354
csfB	102
csgA	22
cshA	1925
cshB	346
csn	1957
csoR	18
cspB	2493
cspC	1011
cspD	1435
csrA	11
cssR	67
cssS	161
cstA	40
ctaA	484
ctaB	644
ctaC	464
ctaD	1364
ctaE	657
ctaF	194
ctaG	291
ctaO	266
ctc	3605
ctpA	534
ctpB	295
ctsR	240
cueR	278
cwlA	28
cwlC	106
cwlD	98
cwlH	230
cwlJ	510
cwlK	26
cwlO	1539
cwlP	48
cwlS	200
cycB	13
cydA	199
cydB	413
cydC	585
cydD	665
cyeA	35
cyeB	18
cypA	513
cypB	303
cypC	294
cypD	187
cypX	3610
cysC	251
cysE	66
cysH	250
cysI	298
cysJ	156
cysK	1594
cysL	26
cysP	250
cysS	479
czcD	9
czrA	41
dacA	251
dacB	460
dacC	411
dacF	611
dagK	335
dapA	1277
dapB	156
dapF	221
dapG	815
dapH	185
dapL	87
dapX	939
dat	946
dck	64
dctB	36
dctP	25
dctR	9
dctS	9
ddl	549
deaD	245
defA	57
defB	161
degA	79
degQ	104
degR	58
degS	91
degU	190
deoC	127
deoD	108
deoR	60
des	4308
desK	151
desR	81
dfrA	92
dgk	76
dgkA	70
dhaS	7179
dhbA	88
dhbB	109
dhbC	232
dhbE	146
dhbF	845
dinB	80
dinF	63
dinG	643
disA	179
divIB	190
divIC	487
divIVA	206
dltA	784
dltB	596
dltC	88
dltD	481
dltE	452
dnaA	217
dnaB	69
dnaC	107
dnaD	93
dnaE	874
dnaG	1568
dnaH	59
dnaI	96
dnaJ	103
dnaK	2038
dnaN	212
dnaX	457
dppA	148
dppB	149
dppC	89
dppD	239
dppE	689
dprA	42
dps	1040
drm	197
dsdA	85
dtd	104
dtpT	295
dusB	359
dusC	57
dxr	191
dxs	1006
dynA	109
eag	25
ebrA	2
ebrB	14
ecfA	183
ecfAB	206
ecfT	93
ecsA	54
ecsB	189
ecsC	114
efeM	115
efeN	218
efeU	66
efp	591
eglS	121
engA	351
engD	182
eno	3457
epr	131
epsA	43
epsB	175
epsC	43
epsD	52
epsE	30
epsF	27
epsG	31
epsH	26
epsI	21
epsJ	40
epsK	52
epsL	29
epsM	26
epsN	50
epsO	71
era	592
estA	16
estB	10
etfA	2061
etfB	2089
exlX	123
exoA	55
exuM	32
exuR	172
exuT	122
ezrA	244
fabD	104
fabF	1238
fabG	345
fabHA	249
fabHB	104
fabI	355
fabL	87
fabZ	19
fadA	947
fadB	1865
fadE	1655
fadF	429
fadH	195
fadN	2531
fadR	1654
fapR	161
fbaA	1343
fbp	203
fbpA	15
fbpB	38
fbpC	1
fdhD	71
fer	159
feuA	355
feuB	180
feuC	180
ffh	2356
fhuB	40
fhuC	93
fhuD	262
fhuG	75
fin	185
flgB	55
flgC	36
flgD	49
flgE	88
flgK	200
flgL	142
flgM	64
flhA	186
flhB	111
flhF	188
flhO	94
flhP	142
fliD	160
fliE	30
fliF	223
fliG	125
fliH	84
fliI	129
fliJ	50
fliK	256
fliL	30
fliM	141
fliP	83
fliQ	40
fliR	93
fliS	25
fliT	33
fliW	34
fliY	85
fliZ	120
fmnP	121
fmt	230
fni	307
fnr	182
folB	40
folC	100
folD	717
folEA	188
folEB	6
folK	46
folN	51
folP	109
fosB	170
fra	77
frlB	26
frlD	8
frlM	6
frlN	21
frlO	14
frlR	93
frr	320
fruA	117
fruK	47
fruR	83
ftsA	852
ftsE	92
ftsH	4458
ftsL	411
ftsR	37
ftsW	75
ftsX	220
ftsY	224
ftsZ	1785
fumC	587
fur	76
fusA	12041
gabD	688
gabP	128
gabR	21
gabT	34
galE	426
galK	105
galM	275
galT	344
gamP	42
ganA	169
ganB	13
ganP	20
ganQ	21
ganR	19
gapA	6992
gapB	1237
garD	21
gatA	708
gatB	941
gatC	65
gbsA	25
gbsB	35
gcaD	335
gcvH	509
gcvPA	332
gcvPB	276
gcvT	269
gdh	336
gerAA	69
gerAB	60
gerAC	79
gerBA	140
gerBB	33
gerBC	78
gerD	138
gerE	5918
gerKA	51
gerKB	56
gerKC	51
gerM	1334
gerPA	474
gerPB	510
gerPC	1358
gerPD	361
gerPE	1123
gerPF	1420
gerQ	2441
gerR	427
gerT	749
ggaA	273
ggaB	98
ggt	220
glcD	139
glcF	113
glcK	66
glcP	54
glcR	15
glcT	124
glcU	127
glgA	551
glgB	555
glgC	335
glgD	718
glgP	694
glmM	387
glmS	3679
glnA	2936
glnH	416
glnJ	20
glnK	160
glnL	15
glnM	76
glnP	88
glnQ	196
glnR	381
glnT	0
glpD	790
glpF	268
glpG	63
glpK	1246
glpP	220
glpQA	705
glpT	269
glpW	46
glsA	9
glsB	236
gltA	1577
gltB	825
gltC	100
gltP	185
gltR	42
gltT	603
gltX	1493
glxK	25
glyA	531
glyQ	125
glyS	279
gmk	378
gmuA	8
gmuB	3
gmuC	22
gmuD	30
gmuE	10
gmuF	15
gmuG	36
gmuR	18
gndA	513
gntK	56
gntP	64
gntR	27
gntZ	240
gpr	75
gpsA	395
gpsB	533
greA	310
groEL	2144
groES	324
grpE	325
gsaB	182
gsiB	4302
gspA	1332
gtaB	1072
guaA	710
guaB	512
guaC	268
guaD	184
gudB	1080
gudD	9
gudP	14
gutB	9
gutP	10
gutR	66
gyrA	1220
gyrB	1075
hag	2256
hbs	2045
helD	516
hemA	971
hemAT	165
hemB	460
hemC	193
hemD	162
hemE	300
hemH	880
hemL	1584
hemN	160
hemQ	1105
hemX	124
hemY	1290
hemZ	243
hepA	455
hepS	155
hepT	138
hflX	159
hfq	344
hinT	126
hisA	58
hisB	46
hisC	236
hisD	62
hisF	64
hisG	14
hisH	49
hisI	100
hisJ	73
hisS	73
hisZ	18
hmoA	337
hmoB	306
hmp	76
holA	136
holB	181
hom	321
hpf	1991
hprK	79
hprT	180
hrcA	605
hslO	212
hslR	55
htpG	209
htpK	110
htpX	761
htrA	297
htrB	290
htrC	105
hutG	111
hutH	29
hutI	93
hutM	122
hutP	22
hutU	38
hxlA	17
hxlB	28
hxlR	7
icd	1173
ileS	651
ilvA	81
ilvB	137
ilvC	263
ilvD	236
ilvE	38
ilvH	42
ilvK	156
immA	16
immR	17
infA	705
infB	3090
infC	1990
iolB	19
iolC	20
iolD	21
iolE	40
iolF	52
iolG	24
iolH	21
iolI	29
iolJ	86
iolR	105
iolS	534
iolT	22
ipi	372
iscSA	370
iscSB	101
iseA	726
isp	1801
ispA	126
ispD	95
ispE	74
ispF	13
ispG	413
ispH	318
jag	331
kamA	958
kamB	313
kapB	83
kapD	126
katA	5104
katE	1701
katX	935
kbaA	158
kbl	221
kdgA	43
kdgK	78
kdgR	59
kdgT	31
kduD	68
kduI	109
khtS	524
khtT	85
kinA	167
kinB	89
kinC	161
kinD	309
kinE	196
kipA	142
kipI	132
kipR	108
ksgA	86
ktrA	31
ktrB	74
ktrC	144
ktrD	87
lcfA	1362
lcfB	247
lctP	290
ldcA	199
ldh	703
lepA	549
leuA	499
leuB	103
leuC	253
leuD	130
leuS	572
levB	9
levD	59
levE	60
levF	58
levG	48
levR	90
lexA	245
lgt	34
liaF	98
liaG	86
liaH	223
liaI	87
liaR	95
liaS	129
licA	165
licB	80
licC	839
licH	1528
licR	155
licT	87
ligA	399
ligB	15
lipA	485
lipC	550
lipL	66
lipM	62
lmrA	162
lmrB	360
lonA	469
lonB	568
lpdV	498
lplA	21
lplB	10
lplC	21
lplD	47
lplJ	166
lrgA	0
lrgB	13
lrpA	5
lrpB	4
lrpC	11
lspA	27
ltaSA	501
ltaSB	719
ltaSC	937
ltaSP	262
lutA	68
lutB	251
lutC	349
luxS	354
lysA	139
lysC	93
lysP	122
lysS	740
lytA	5
lytB	65
lytC	73
lytD	418
lytE	250
lytF	177
lytG	49
lytH	261
lytR	257
lytS	98
lytT	32
maa	21
maeA	30
maeN	25
maf	80
malA	185
malP	133
malQ	106
malR	64
malS	670
manA	43
manP	49
manR	26
mapA	1687
mapB	383
mbl	826
mccA	403
mccB	1003
mciZ	13
mcpA	219
mcpB	90
mcpC	108
mcsA	277
mcsB	412
mdh	745
mdr	166
mdxD	38
mdxE	41
mdxF	62
mdxG	16
mdxJ	9
mdxK	40
mdxL	71
mdxM	35
mdxR	26
mecA	961
mecB	933
med	240
melA	184
menA	139
menB	483
menC	187
menD	325
menE	330
menF	276
menH	106
metA	77
metC	92
metE	206
metI	36
metK	955
metN	101
metP	101
metQ	324
metS	424
mfd	840
mgfK	604
mgsA	128
mgsR	1183
mgtE	326
mhqA	195
mhqR	120
miaA	229
miaB	1311
mifM	63
minC	276
minD	273
minJ	166
mleA	68
mleN	42
mlpA	207
mmgA	52
mmgB	147
mmgC	255
mmgD	284
mmgE	947
mmgF	837
mmr	14
mmsA	13
mnaA	106
mnmA	625
mnmE	176
mntA	1786
mntB	1540
mntC	2267
mntD	872
mntH	2507
mntR	283
moaA	98
moaB	20
moaC	120
moaD	11
moaE	56
mobA	30
mobB	72
moeA	118
moeB	82
motA	117
motB	207
mpr	2781
mprF	356
mraW	983
mraY	178
mraZ	719
mreB	311
mreBH	252
mreC	389
mreD	114
mrgA	748
mrnC	60
mrpA	341
mrpB	71
mrpC	53
mrpD	259
mrpE	92
mrpF	33
mrpG	60
mscL	22
msmE	52
msmR	25
msmX	616
msrA	66
msrB	77
mstX	10
mta	27
mtaB	579
mtbP	0
mtlR	146
mtnA	44
mtnB	41
mtnD	80
mtnE	35
mtnK	28
mtnN	591
mtnU	61
mtnW	33
mtnX	24
mtrB	112
murAA	3599
murAB	424
murB	434
murC	1454
murD	352
murE	273
murF	366
murG	337
murQ	134
mutL	203
mutM	338
mutS	181
mutSB	684
mutT	5
mutY	108
nadA	766
nadB	39
nadC	20
nadD	150
nadE	488
nagA	48
nagBA	70
nagBB	51
nagP	352
nagR	58
nagZ	374
naiP	45
nap	597
narG	423
narH	382
narI	454
narJ	195
narK	56
nasA	18
nasB	31
nasC	26
nasD	154
nasE	66
nasF	386
natA	20
natB	28
natK	108
natR	67
ndh	1514
ndhF	23
ndk	318
ndoA	562
ndoAI	454
nfo	362
nfrAA	498
nfrAB	140
nfsB	145
nhaC	57
nhaK	470
nhaX	1114
niaR	120
nifS	45
nin	87
nnrA	59
noc	471
norM	155
nosA	28
nprB	57
nprE	313
nrdE	610
nrdEB	6
nrdF	319
nrdI	94
nrdIB	0
nrdR	29
nrnA	822
nrnB	122
nsrR	140
ntdA	75
ntdB	46
ntdC	128
nth	83
nucA	5
nucB	43
nudF	82
nupC	141
nupG	181
nupN	126
nupO	67
nupP	79
nupQ	89
nusA	992
nusB	279
nusG	195
oatA	36
obg	485
odhA	1491
odhB	1223
ogt	162
ohrA	12
ohrB	945
ohrR	69
oppA	2268
oppB	204
oppC	113
oppD	180
oppF	435
opuAA	362
opuAB	397
opuAC	461
opuBA	89
opuBB	204
opuBC	281
opuBD	194
opuCA	86
opuCB	33
opuCC	80
opuCD	61
opuD	338
opuE	356
oxaAA	235
oxaAB	227
oxdC	216
pabA	91
pabB	81
pabC	46
padC	26
padR	59
paiA	9
paiB	17
panB	221
panC	263
panD	131
panE	65
parA	60
parB	110
parC	392
parE	198
patB	79
pbpA	1120
pbpB	490
pbpC	536
pbpD	755
pbpE	332
pbpF	138
pbpG	322
pbpH	244
pbpI	380
pbpX	42
pbuE	127
pbuG	146
pbuO	257
pbuX	49
pcfA	58
pckA	5891
pcp	71
pcrA	166
pcrB	10
pdaA	153
pdaC	91
pdhA	3890
pdhB	3159
pdhC	5646
pdhD	3969
pdp	392
pduO	46
pdxK	57
pdxS	297
pdxT	244
pel	127
pelB	51
pelC	21
penP	110
pepA	388
pepF	1173
pepT	437
perR	952
pfkA	324
pgcA	1174
pgdS	142
pgi	608
pgk	2306
pgl	629
pgm	2923
pgsA	50
pheA	116
pheS	29
pheT	396
phoA	971
phoD	600
phoE	32
phoH	545
phoP	115
phoR	312
phrA	161
phrC	655
phrE	350
phrF	146
phrG	61
phrH	289
phrI	23
phrK	107
phy	13
pit	290
pksA	58
pksB	28
pksC	120
pksD	44
pksE	68
pksF	45
pksG	43
pksH	35
pksI	24
pksJ	1014
pksL	1357
pksM	982
pksN	1493
pksR	1008
pksS	143
plsC	88
plsX	200
plsY	86
pnbA	275
pncA	34
pncB	254
pnpA	2007
polA	614
polC	721
polX	353
polYA	44
polYB	20
ponA	1460
ppaC	959
ppaX	140
ppiB	169
ppnKA	52
ppnKB	306
pps	293
ppsA	491
ppsB	451
ppsC	840
ppsD	1393
ppsE	558
prfA	612
prfB	625
priA	319
prkA	3068
prkC	430
prmA	212
prmC	59
proA	199
proB	40
proG	56
proH	89
proI	56
proJ	121
proS	972
prpC	157
prpE	7
prs	226
prsA	799
prsW	157
psd	223
psiE	15
pspA	189
pssA	111
pstA	827
pstBA	1975
pstBB	1719
pstC	975
pstS	2715
pta	480
ptb	379
pth	173
ptkA	84
ptsG	1902
ptsH	537
ptsI	3933
pucA	5
pucB	1
pucC	3
pucD	8
pucE	4
pucF	9
pucG	19
pucH	57
pucI	4
pucJ	70
pucK	32
pucL	58
pucM	28
pucR	119
pupG	279
purA	1442
purB	296
purC	118
purD	227
purE	24
purF	175
purH	327
purK	124
purL	198
purM	109
purN	64
purQ	88
purR	378
purS	26
purT	41
purU	80
putB	375
putC	1287
putM	1010
putP	497
putR	156
pycA	1528
pyk	2062
pyrAA	19
pyrAB	93
pyrB	15
pyrC	21
pyrD	13
pyrE	14
pyrF	10
pyrG	875
pyrH	408
pyrK	17
pyrP	128
pyrR	131
qcrA	153
qcrB	214
qcrC	740
qdoR	22
qodI	57
qoxA	1320
qoxB	2450
qoxC	903
qoxD	742
queA	198
queC	41
queD	34
queE	51
queF	95
queG	73
racA	1805
racE	581
racX	468
radA	462
radC	78
rapA	2032
rapB	53
rapC	720
rapD	120
rapE	21
rapF	733
rapG	251
rapI	20
rapJ	180
rapK	249
rarA	58
rbfA	734
rbfK	10
rbgA	111
rbn	599
rbsA	40
rbsB	23
rbsC	19
rbsD	5
rbsK	51
rbsR	55
rdgB	249
recA	494
recD	339
recF	363
recG	222
recJ	561
recN	408
recO	480
recQ	293
recR	308
recU	190
recX	104
refZ	724
relP	50
relQ	111
resA	83
resB	309
resC	453
resD	178
resE	681
rex	236
rghRA	9
rghRB	19
rgpA	297
rhaA	34
rhaB	71
rhaD	35
rhaU	9
rhgH	2
rhgP	5
rhgQ	6
rhgT	13
rhgW	102
rhgX	38
rhgZ	141
rho	1018
ribAB	409
ribC	303
ribD	494
ribE	242
ribH	310
rimI	17
rimM	23
rimP	375
ripX	242
rlmB	124
rlmCD	170
rlmN	378
rluB	141
rluD	113
rnc	282
rnhB	35
rnhC	120
rnjA	1755
rnjB	1093
rnmV	46
rnpA	42
rnpZA	96
rnr	1681
rny	4972
rnz	17
rocA	556
rocB	217
rocC	110
rocD	221
rocE	580
rocG	32
rocR	56
rodA	71
rok	233
rpe	236
rpfA	1882
rph	161
rplA	2358
rplB	3945
rplC	2549
rplD	2533
rplE	2461
rplF	2217
rplGA	208
rplGB	891
rplI	105
rplJ	2748
rplK	2316
rplL	1322
rplM	2285
rplNA	2055
rplO	1524
rplP	1048
rplQ	1820
rplR	1919
rplS	4842
rplT	1140
rplU	1851
rplV	2241
rplW	1227
rplX	1686
rpmA	2430
rpmB	862
rpmC	748
rpmD	428
rpmEA	1426
rpmEB	125
rpmF	866
rpmGA	490
rpmGB	67
rpmGCa	10
rpmH	581
rpmI	1049
rpmJ	506
rpoA	3561
rpoB	7021
rpoC	8825
rpoE	295
rpoZ	123
rppG	63
rpsB	2398
rpsC	2141
rpsD	2013
rpsE	1614
rpsF	921
rpsG	2501
rpsH	1605
rpsI	2119
rpsJ	950
rpsK	1879
rpsL	2619
rpsM	1475
rpsNA	1047
rpsNB	35
rpsO	2206
rpsP	923
rpsQ	1489
rpsR	627
rpsS	1752
rpsT	1685
rpsU	1560
rsbP	121
rsbQ	72
rsbRA	360
rsbRB	169
rsbRC	48
rsbRD	126
rsbS	71
rsbT	44
rsbU	138
rsbV	357
rsbW	646
rsbX	2348
rseP	555
rsfA	1003
rsfS	98
rsgI	90
rsh	440
rsiV	27
rsiW	2032
rsiX	238
rsmB	236
rsmD	38
rsmE	116
rsmG	91
rsmI	67
rsoA	2
rtbD	62
rtbE	24
rtbI	40
rtbJ	27
rtp	12
rtpA	4
rttF	120
rttG	228
rttL	46
rttM	22
rttN	445
rttO	114
ruvA	36
ruvB	95
sacA	43
sacB	14
sacC	138
sacP	32
sacT	11014
sacV	3
sacX	65
sacY	44
safA	11273
salA	659
samT	68
sapB	192
sat	367
sbcC	620
sbcD	85
sbcE	216
sboA	2677
sboX	61
sbp	16
scoC	180
scpA	64
scuA	75
sda	71
sdaAA	346
sdaAB	139
sdhA	498
sdhB	415
sdhC	48
sdpA	75
sdpB	293
sdpI	741
sdpR	301
secA	1431
secDF	616
secE	51
secG	329
secY	5554
senS	3
sepF	522
serA	250
serC	284
serS	430
sfp	33
sftA	329
sigA	2197
sigB	1917
sigD	154
sigE	186
sigF	1148
sigG	454
sigH	144
sigI	66
sigL	623
sigM	74
sigO	1
sigV	2
sigW	1479
sigX	93
sigY	80
sigZ	4
sinI	186
sinR	218
sipS	457
sipT	232
sipU	15
sipV	103
sipW	36
sirB	298
sirC	235
skfA	2238
skfB	240
skfC	186
skfE	161
skfF	131
skfG	41
skfH	102
sleB	76
slp	18
slpH	412
slpS	570
slrA	33
slrR	4
smc	428
smpB	201
sodA	3770
sodC	109
sodF	301
spbC	4713
spcB	38
speA	120
speB	181
speD	975
speE	156
splA	37
splB	410
spmA	242
spmB	383
spo0A	624
spo0B	132
spo0E	115
spo0F	114
spo0M	1256
spoIIAA	535
spoIIAB	734
spoIIB	728
spoIID	660
spoIIE	1404
spoIIGA	260
spoIIIAA	218
spoIIIAB	70
spoIIIAC	5
spoIIIAD	65
spoIIIAE	350
spoIIIAF	563
spoIIIAG	226
spoIIIAH	751
spoIIIC	112
spoIIID	594
spoIIIE	295
spoIIM	45
spoIIP	197
spoIIQ	7433
spoIIR	145
spoIISA	159
spoIISB	57
spoIVA	10037
spoIVB	704
spoIVCA	354
spoIVCB	230
spoIVFA	569
spoIVFB	256
spoVAA	78
spoVAB	10
spoVAC	65
spoVAD	246
spoVAEA	189
spoVAEB	103
spoVAF	545
spoVB	385
spoVD	663
spoVE	446
spoVFA	2166
spoVFB	1277
spoVG	1341
spoVID	5884
spoVIF	3937
spoVK	384
spoVM	207
spoVR	979
spoVS	831
spoVT	332
sppA	323
spsA	782
spsB	1913
spsC	656
spsD	938
spsE	1954
spsF	1243
spsG	829
spsI	1252
spsJ	1437
spsK	1166
spsL	779
spxA	1222
sqhC	912
srfAA	807
srfAB	1575
srfAC	598
srfAD	173
srtA	55
srtN	76
ssbA	1623
ssbB	14
sscA	3585
sscB	878
sspA	6288
sspB	1531
sspC	128
sspD	189
sspE	17313
sspF	370
sspG	527
sspH	197
sspI	126
sspJ	753
sspK	163
sspL	41
sspM	41
sspN	174
sspO	100
sspP	124
ssuA	263
ssuB	199
ssuC	396
ssuD	1272
stoA	149
sucC	311
sucD	393
sufA	566
sufB	3709
sufC	715
sufD	2556
sufS	1718
sufU	548
suhB	96
sumT	289
sunA	375
sunI	121
sunS	60
sunT	97
swrAA	34
swrC	1907
tadA	14
tagA	258
tagB	107
tagC	24
tagD	180
tagE	312
tagF	391
tagG	111
tagH	427
tagO	797
tapA	30
tasA	667
tatAC	283
tatAD	104
tatAY	191
tatCD	148
tatCY	1150
tcyA	187
tcyB	121
tcyC	234
tcyJ	5
tcyK	10
tcyL	56
tcyM	4
tcyN	5
tcyP	215
tdh	186
tdk	42
tenA	2
tenI	13
tepA	68
tetB	47
tgl	449
tgt	330
thiC	51
thiD	39
thiE	81
thiF	29
thiG	18
thiI	198
thiL	33
thiM	33
thiN	261
thiO	12
thiQ	22
thiS	3
thiT	58
thiU	7
thiV	3
thiW	20
thiX	8
thrB	611
thrC	666
thrS	505
thrZ	106
thyA	133
thyB	126
tig	1480
tilS	894
tkt	1522
tlp	378
tlpA	30
tlpB	36
tlpC	232
tmk	94
tmrB	66
tnrA	64
topA	834
topB	412
tpiA	1268
tpx	560
treA	110
treP	74
treR	204
trmB	95
trmD	106
trmF	551
trmFO	338
trmK	46
trmL	195
trnE	103
trpA	77
trpB	74
trpC	13
trpD	19
trpE	35
trpF	10
trpP	497
trpS	239
truA	357
truB	122
trxA	1220
trxB	402
tsaB	29
tsaC	44
tsaD	44
tsaE	3
tsf	1636
tuaA	724
tuaB	1699
tuaC	1456
tuaD	2631
tuaE	1703
tuaF	762
tuaG	499
tuaH	1060
tufA	11629
txpA	275
tyrA	78
tyrS	182
tyrZ	362
udk	212
ugtP	367
ung	103
upp	125
uppP	199
uppS	228
ureA	7
ureB	13
ureC	213
usd	125
uup	231
uvrA	1016
uvrB	289
uvrC	237
uvrX	4
uxaA	40
uxaB	13
uxaC	19
uxuA	130
uxuB	77
valS	579
veg	855
vmlR	127
vpr	578
walH	139
walJ	52
walK	151
walR	136
wapA	988
whiA	291
wprA	807
xepA	11
xhlA	8
xhlB	16
xkdA	12
xkdB	1
xkdC	2
xkdD	2
xkdE	57
xkdF	34
xkdG	29
xkdH	5
xkdI	3
xkdJ	4
xkdK	46
xkdM	18
xkdN	1
xkdO	91
xkdP	8
xkdQ	6
xkdR	3
xkdS	3
xkdT	9
xkdU	13
xkdV	39
xkdW	5
xkdX	1
xkzA	1
xkzB	1
xlyA	150
xlyB	55
xpaC	234
xpf	4
xpt	14
xre	29
xsa	40
xseA	230
xseB	17
xtmA	14
xtmB	29
xtrA	3
xylA	29
xylB	21
xylR	78
xynA	228
xynB	44
xynC	80
xynD	122
xynP	14
yaaA	27
yaaB	62
yaaC	19
yaaH	3492
yaaI	42
yaaK	107
yaaL	125
yaaN	390
yaaO	265
yaaQ	76
yaaR	77
yaaT	94
yabB	26
yabD	32
yabE	1079
yabG	1185
yabJ	342
yabM	38
yabN	130
yabP	146
yabQ	221
yabR	445
yabS	324
yabT	164
yacD	89
yacL	263
yacP	30
yazA	6
yazB	28
ybaC	72
ybaJ	66
ybaK	53
ybaN	456
ybaR	38
ybaS	47
ybbA	48
ybbC	345
ybbF	242
ybbH	122
ybbJ	8
ybbK	13
ybbP	172
ybbR	424
ybcC	28
ybcF	2
ybcH	1
ybcI	10
ybcL	61
ybcM	2
ybdG	23
ybdJ	11
ybdK	22
ybdM	21
ybdN	76
ybdO	29
ybdZ	22
ybeC	78
ybeF	8
ybfA	9
ybfB	10
ybfE	1
ybfF	12
ybfG	174
ybfH	36
ybfI	17
ybfJ	626
ybfK	42
ybfM	77
ybfN	13
ybfO	723
ybfP	105
ybfQ	367
ybgA	16
ybgB	6
ybgF	34
ybgG	19
ybxB	265
ybxG	42
ybxH	8
ybxI	48
ybyB	2637
ybzG	1013
ybzH	22
ybzI	34
ycbC	6
ycbD	17
ycbG	42
ycbJ	388
ycbK	27
ycbL	13
ycbM	4
ycbN	24
ycbO	32
ycbP	212
ycbR	24
ycbU	46
yccF	95
yccK	115
ycdA	476
ycdB	41
ycdC	62
ycdF	70
ycdG	334
yceB	54
yceC	121
yceD	481
yceE	821
yceF	836
yceG	330
yceH	119
yceJ	9
yceK	81
ycgA	91
ycgB	9
ycgE	33
ycgF	138
ycgG	549
ycgH	117
ycgI	8
ycgJ	15
ycgK	12
ycgL	117
ycgQ	47
ycgR	39
ycgS	34
ycgT	29
yciB	8
yckA	69
yckB	61
yckC	184
yckD	121
yclD	10
yclE	39
yclG	363
yclH	8
yclI	14
yclJ	27
yclK	124
yclM	46
yclN	165
yclO	133
yclP	115
yclQ	293
ycnB	314
ycnC	140
ycnE	58
ycnI	1160
ycnJ	1847
ycnK	979
ycnL	21
ycsA	159
ycsD	46
ycsE	114
ycsF	229
ycsG	203
ycsI	137
ycsN	522
ycxA	29
ycxB	25
ycxC	25
ycxD	39
yczC	19
yczE	79
yczF	3
yczG	232
yczH	38
yczI	140
yczJ	73
yczK	0
yczL	2
yczM	766
yczN	1841
yczO	561
ydaB	177
ydaC	26
ydaD	282
ydaE	213
ydaF	15
ydaG	1470
ydaH	41
ydaJ	32
ydaK	11
ydaL	15
ydaM	16
ydaN	23
ydaO	323
ydaP	961
ydaS	465
ydaT	49
ydbA	14
ydbB	36
ydbC	27
ydbD	923
ydbI	713
ydbJ	70
ydbK	47
ydbL	303
ydbM	137
ydbO	73
ydbP	65
ydbS	349
ydbT	830
ydcA	183
ydcC	2622
ydcF	3
ydcG	15
ydcH	53
ydcI	650
ydcK	28
ydcL	17
ydcO	13
ydcP	0
ydcQ	2
ydcR	2
ydcS	3
ydcT	0
yddA	0
yddB	3
yddC	0
yddD	3
yddE	6
yddF	0
yddG	9
yddH	1
yddI	2
yddJ	22
yddK	49
yddM	17
yddN	23
yddQ	6
yddR	3
yddS	15
yddT	60
ydeA	13
ydeB	427
ydeC	12
ydeD	16
ydeE	53
ydeF	35
ydeG	14
ydeH	67
ydeI	34
ydeJ	79
ydeK	64
ydeL	24
ydeM	23
ydeN	68
ydeO	28
ydeP	11
ydeQ	9
ydeR	16
ydeS	26
ydfA	22
ydfB	20
ydfC	14
ydfD	10
ydfE	12
ydfF	41
ydfG	144
ydfH	16
ydfI	10
ydfJ	79
ydfK	22
ydfL	25
ydfM	26
ydfN	3
ydfO	10
ydfP	23
ydfQ	8
ydfR	144
ydfS	242
ydgA	132
ydgB	432
ydgC	116
ydgD	62
ydgE	61
ydgF	78
ydgG	21
ydgH	222
ydgI	47
ydgJ	17
ydgK	27
ydhB	9
ydhC	34
ydhD	169
ydhE	179
ydhF	379
ydhH	54
ydhI	34
ydhJ	66
ydhK	106
ydhU	114
ydiF	249
ydiK	9
ydiL	67
ydiM	4
ydjB	7
ydjC	4
ydjE	276
ydjG	167
ydjH	102
ydjI	130
ydjJ	59
ydjM	19
ydjN	99
ydjO	1536
ydjP	677
ydzA	143
ydzE	4
ydzF	43
ydzH	24
ydzJ	21
ydzK	77
ydzL	2
ydzM	21
ydzN	5
ydzO	3
ydzP	0
ydzQ	3
ydzR	66
ydzS	3
ydzT	15
ydzU	1
ydzV	2
ydzX	1
yeaA	1156
yeaB	39
yeaC	49
yeaD	35
yebA	101
yebC	387
yebD	185
yebE	63
yebG	13
yecA	9
yeeA	82
yeeB	101
yeeC	76
yeeD	11
yeeF	198
yeeG	3
yeeI	111
yeeK	1
yefB	17
yefC	8
yerA	546
yerB	616
yerC	127
yerD	163
yerH	382
yerI	1430
yerO	30
yesE	31
yesF	16
yesJ	1232
yesK	6
yesL	27
yesM	34
yesN	51
yesO	20
yesS	99
yesU	18
yesV	35
yesY	42
yetA	149
yetF	115
yetH	31
yetJ	304
yetK	91
yetL	10
yetM	18
yetN	29
yezA	11
yezC	24
yezD	7
yezE	57
yezF	29
yezG	64
yfhA	32
yfhB	96
yfhC	401
yfhD	1588
yfhE	55
yfhF	119
yfhH	46
yfhI	67
yfhJ	166
yfhK	1035
yfhL	332
yfhM	1553
yfhO	251
yfhP	208
yfhS	57
yfiC	295
yfiF	4
yfiG	24
yfiH	7
yfiI	23
yfiJ	118
yfiK	95
yfiL	0
yfiM	6
yfiN	29
yfiQ	66
yfiR	36
yfiS	30
yfiU	84
yfiV	50
yfiY	163
yfiZ	67
yfjA	4
yfjB	47
yfjC	70
yfjD	54
yfjE	55
yfjF	46
yfjL	22
yfjM	25
yfjO	215
yfjP	64
yfjQ	120
yfjR	82
yfjT	20
yfkA	275
yfkC	183
yfkD	329
yfkE	96
yfkF	199
yfkI	274
yfkJ	332
yfkK	30
yfkL	41
yfkM	1183
yfkN	992
yfkQ	60
yfkR	120
yfkS	41
yfkT	407
yflA	191
yflB	71
yflD	4
yflH	285
yflI	144
yflJ	507
yflK	58
yflL	26
yflN	129
yflP	50
yflS	109
yflT	1423
yfmB	82
yfmC	314
yfmD	88
yfmE	131
yfmF	136
yfmG	107
yfmI	13
yfmJ	184
yfmK	31
yfmL	74
yfmM	250
yfmN	0
yfmO	15
yfmP	8
yfmQ	716
yfmS	127
yfmT	145
yfnA	124
yfnB	97
yfnC	124
yfnD	2320
yfnE	2211
yfnF	1364
yfnG	1372
yfnH	346
yfzA	16
ygaB	214
ygaC	238
ygaD	148
ygaE	284
ygaF	52
ygaJ	38
ygaK	160
ygaN	208
ygaO	73
ygxA	216
ygxB	321
ygzA	7
ygzB	100
ygzC	12
ygzD	15
yhaA	596
yhaH	157
yhaI	77
yhaJ	23
yhaL	81
yhaM	203
yhaO	28
yhaP	180
yhaQ	68
yhaR	948
yhaU	258
yhaX	1186
yhaZ	30
yhbB	82
yhbD	12
yhbE	13
yhbF	38
yhbH	664
yhbI	31
yhbJ	134
yhcA	281
yhcB	141
yhcC	78
yhcD	0
yhcE	16
yhcF	0
yhcG	13
yhcH	17
yhcI	24
yhcJ	132
yhcK	157
yhcM	499
yhcN	1152
yhcO	195
yhcQ	1430
yhcR	334
yhcT	59
yhcU	10
yhcV	3914
yhcX	372
yhcY	90
yhcZ	63
yhdA	37
yhdB	301
yhdC	38
yhdF	279
yhdH	36
yhdI	18
yhdJ	35
yhdK	34
yhdL	164
yhdN	493
yhdP	537
yhdR	99
yhdT	548
yhdV	19
yhdW	88
yhdX	177
yhdY	171
yheA	589
yheB	216
yheC	2261
yheD	2381
yheE	18
yheF	28
yheG	31
yheH	227
yheI	131
yheJ	156
yheN	303
yhfA	513
yhfC	191
yhfE	151
yhfF	39
yhfH	66
yhfI	51
yhfK	314
yhfM	335
yhfN	322
yhfO	11
yhfP	203
yhfQ	238
yhfS	36
yhfT	46
yhfW	152
yhgB	32
yhgD	418
yhgE	799
yhjA	171
yhjB	86
yhjC	3
yhjD	24
yhjE	146
yhjG	4
yhjH	13
yhjM	123
yhjN	252
yhjO	9
yhjP	75
yhjQ	21
yhjR	173
yhxA	345
yhxC	836
yhxD	455
yhzB	91
yhzC	574
yhzD	46
yhzF	113
yhzG	1
yisB	98
yisI	72
yisJ	114
yisK	89
yisL	63
yisN	17
yisP	181
yisQ	100
yisR	26
yisS	13
yisT	406
yisU	18
yisV	72
yisX	50
yisY	325
yisZ	1277
yitA	2863
yitB	681
yitE	78
yitF	238
yitG	115
yitH	79
yitI	27
yitK	59
yitL	46
yitM	80
yitO	5
yitP	8
yitQ	137
yitR	76
yitS	618
yitT	1112
yitU	101
yitV	75
yitW	188
yitY	107
yitZ	30
yizA	38
yizB	7
yizC	322
yizD	148
yjaU	475
yjaV	71
yjaZ	58
yjbA	286
yjbB	38
yjbC	697
yjbE	325
yjbH	199
yjbI	68
yjbJ	86
yjbK	24
yjbL	6
yjbO	185
yjbQ	71
yjcA	253
yjcD	178
yjcF	139
yjcG	588
yjcH	608
yjcK	41
yjcL	15
yjcM	87
yjcN	88
yjcO	6
yjcP	16
yjcQ	15
yjcR	3
yjcS	7
yjcZ	831
yjdA	62
yjdB	1734
yjdF	104
yjdG	192
yjdH	674
yjdJ	53
yjfA	1306
yjfB	44
yjfC	25
yjgA	52
yjgB	54
yjgC	560
yjgD	178
yjhA	10
yjhB	46
yjiA	34
yjiB	114
yjiC	132
yjjA	55
yjkA	41
yjkB	30
yjlA	57
yjlB	83
yjlC	351
yjmC	71
yjmD	81
yjnA	650
yjoA	471
yjoB	720
yjpA	2
yjqA	32
yjqB	14
yjqC	388
yjzB	389
yjzC	144
yjzD	126
yjzE	156
yjzF	2
yjzG	2
yjzH	149
yjzI	13
yjzJ	0
yjzK	296
ykaA	130
ykbA	110
ykcB	25
ykcC	39
ykfB	209
ykfC	191
ykfD	231
ykgA	156
ykhA	31
ykjA	54
ykkA	24
ykkB	17
ykkC	12
ykkD	10
yknT	819
yknU	302
yknV	129
yknW	864
yknX	418
yknY	204
yknZ	434
ykoA	22
ykoG	11
ykoH	27
ykoI	21
ykoJ	16931
ykoL	1
ykoM	344
ykoN	163
ykoP	115
ykoQ	33
ykoS	134
ykoT	107
ykoU	248
ykoV	87
ykoW	50
ykoX	88
ykoY	629
ykpA	847
ykpC	93
ykqA	74
ykrA	51
ykrP	204
yktA	14
yktB	104
yktD	94
ykuC	468
ykuD	160
ykuE	68
ykuG	410
ykuH	24
ykuI	144
ykuJ	77
ykuK	255
ykuL	44
ykuN	39
ykuO	115
ykuP	55
ykuS	454
ykuT	202
ykuU	264
ykuV	166
ykvA	81
ykvI	180
ykvN	8
ykvO	9
ykvP	387
ykvQ	48
ykvR	7
ykvS	34
ykvT	12
ykvU	195
ykvY	387
ykvZ	52
ykwB	37
ykwC	92
ykwD	35
ykyA	80
ykyB	108
ykzB	12
ykzC	37
ykzD	132
ykzE	174
ykzH	14
ykzI	493
ykzK	1
ykzL	9
ykzM	2
ykzN	37
ykzP	328
ykzQ	43
ykzR	7
ykzS	43
ykzT	44
ykzU	176
ykzV	3870
ylaA	9
ylaB	2
ylaC	28
ylaD	17
ylaE	26
ylaF	162
ylaH	356
ylaI	30
ylaJ	148
ylaK	429
ylaL	217
ylaN	202
ylbA	385
ylbB	77
ylbC	296
ylbD	329
ylbE	200
ylbF	326
ylbG	31
ylbJ	198
ylbK	52
ylbL	131
ylbM	57
ylbN	970
ylbP	147
ylmA	47
ylmC	90
ylmD	361
ylmE	383
ylmG	380
ylmH	79
yloA	296
yloB	1184
yloC	274
yloU	105
yloV	809
ylqB	182
ylqC	429
ylqD	25
ylqG	180
ylqH	7
ylxF	122
ylxH	100
ylxL	276
ylxM	597
ylxP	983
ylxR	121
ylxW	79
ylxX	146
ylxY	89
ylyA	44
ylzA	179
ylzH	46
ylzI	13
ylzJ	42
ymaB	57
ymaC	13
ymaD	41
ymaF	168
ymaG	1968
ymcA	1250
ymcC	24
ymdB	159
ymfC	261
ymfD	440
ymfF	509
ymfH	1126
ymfI	29
ymfJ	2612
ymfM	357
ymxH	261
ymzA	62
ymzB	262
ymzC	19
ymzD	45
ymzE	12
ynaB	156
ynaC	156
ynaD	7
ynaE	11
ynaF	6
ynaG	7
ynaI	14
ynbB	105
yncB	15
yncC	29
yncE	2
yncF	30
yncM	598
yndA	168
yndB	527
yndD	39
yndE	14
yndF	28
yndG	30
yndH	40
yndJ	106
yndK	31
yndL	1037
yndM	55
yneA	6
yneB	1
yneF	90
yneI	8
yneJ	96
yneK	131
yneN	174
yneP	7
yneQ	7
yneR	116
yneT	260
ynfC	302
ynfE	32
yngA	4
yngB	43
yngC	81
yngE	397
yngF	144
yngG	271
yngHA	475
yngHB	69
yngI	776
yngJ	1033
yngK	258
yngL	39
ynxB	10
ynzB	111
ynzC	29
ynzD	63
ynzE	13
ynzF	23
ynzG	8
ynzI	4
ynzJ	7
ynzK	2
ynzL	18
yoaA	97
yoaB	43
yoaC	21
yoaD	3
yoaE	75
yoaF	277
yoaG	75
yoaH	79
yoaI	313
yoaK	36
yoaM	34
yoaN	436
yoaO	2
yoaP	9
yoaQ	17
yoaR	69
yoaS	13
yoaT	72
yoaU	29
yoaW	36
yoaZ	19
yobA	9
yobB	28
yobD	11
yobE	62
yobF	65
yobH	7
yobI	152
yobJ	328
yobM	50
yobN	98
yobO	859
yobQ	17
yobR	42
yobS	41
yobT	66
yobU	11
yobV	19
yobW	368
yocA	1618
yocB	393
yocC	21
yocD	241
yocH	2470
yocK	269
yocL	34
yocM	263
yocN	729
yocR	124
yocS	24
yodA	29
yodC	126
yodD	38
yodE	26
yodF	81
yodH	635
yodI	63
yodJ	153
yodM	97
yodN	208
yodQ	173
yodR	91
yodS	133
yodT	311
yoeA	239
yoeC	28
yoeD	21
yogA	49
yojA	29
yojB	1785
yojE	77
yojF	79
yojJ	38
yojK	25
yojN	76
yojO	308
yojW	0
yokA	76
yokB	35
yokC	5
yokD	86
yokE	2
yokF	15
yokG	197
yokH	73
yokI	115
yokJ	19
yokK	22
yokL	29
yokU	175
yolA	159
yolB	79
yolC	50
yolD	1
yomD	0
yomE	8
yomF	4
yomG	10
yomH	3
yomJ	66
yomK	10
yomL	200
yomM	35
yomN	3
yomO	2
yomP	1
yomQ	5
yomR	9
yomS	2
yomT	0
yomU	2
yomV	4
yomW	4
yomX	2
yomY	2
yomZ	10
yonA	4
yonB	5
yonC	4
yonD	9
yonE	25
yonF	8
yonG	8
yonH	4
yonI	16
yonJ	14
yonK	0
yonN	7
yonO	16
yonP	2
yonR	12
yonS	33
yonT	6
yonU	108
yonV	9
yonX	2
yopA	95
yopB	5
yopC	123
yopD	73
yopE	3
yopF	2
yopG	3
yopH	15
yopI	22
yopJ	11
yopK	78
yopL	31
yopM	9
yopN	13
yopO	13
yopP	126
yopQ	200
yopR	120
yopS	110
yopT	10
yopU	6
yopV	0
yopW	0
yopX	0
yopY	0
yopZ	0
yoqA	1
yoqB	0
yoqC	0
yoqD	2
yoqE	0
yoqF	0
yoqG	2
yoqH	7
yoqI	3
yoqJ	7
yoqK	2
yoqL	35
yoqM	2408
yoqN	3
yoqO	14
yoqP	1
yoqR	0
yoqS	1
yoqT	1
yoqU	1
yoqW	42
yoqX	2
yoqY	24
yoqZ	22
yorA	17
yorB	57
yorC	3
yorD	230
yorE	1
yorF	5
yorG	7
yorH	0
yorI	2
yorJ	1
yorK	4
yorL	11
yorM	2
yorN	0
yorO	0
yorP	1
yorQ	0
yorR	0
yorS	0
yorT	0
yorV	0
yorW	0
yorX	0
yorY	0
yorZ	0
yosA	114
yosB	2
yosC	1
yosD	0
yosE	1
yosF	0
yosG	2
yosH	8
yosI	1
yosJ	1
yosK	0
yosL	0
yosP	2
yosQ	0
yosR	1
yosS	2
yosT	4
yosU	1
yosV	0
yosW	0
yosX	1
yotB	1
yotC	0
yotD	1
yotE	0
yotF	1
yotG	6
yotH	2
yotI	4
yotJ	1
yotK	6
yotL	13
yotM	0
yotN	57
youA	6
youB	80
yoxB	179
yoxC	163
yoxD	144
yoyA	12
yoyB	51
yoyC	36
yoyD	0
yoyE	28
yoyF	78
yoyG	1019
yoyH	19
yoyI	32
yoyJ	28
yoyK	28
yozB	385
yozC	39
yozD	31
yozE	165
yozF	48
yozG	11
yozH	7
yozI	7
yozJ	0
yozK	1
yozL	0
yozM	62
yozN	688
yozO	285
yozP	26
yozQ	236
yozS	13
yozT	22
yozU	1
yozV	5
yozW	1
yozX	2
yozY	82
yozZ	1
ypbB	631
ypbD	68
ypbE	237
ypbF	49
ypbG	97
ypbS	23
ypcP	100
ypdA	255
ypdP	77
ypdQ	16
ypeB	428
ypeP	153
ypeQ	17
ypfA	44
ypfB	22
ypgQ	20
ypgR	224
yphA	71
yphB	54
yphE	18
yphF	110
ypiA	440
ypiB	953
ypiF	15
ypiP	153
ypjA	37
ypjB	296
ypjC	250
ypjD	17
ypjP	453
ypjQ	312
ypkP	225
yplP	153
yplQ	112
ypmA	15
ypmB	120
ypmP	1274
ypmR	110
ypmS	62
ypmT	19
ypoC	107
ypoP	109
yppC	116
yppD	42
yppE	216
yppF	237
yppG	453
ypqA	206
ypqE	235
ypqP	700
yprA	74
yprB	270
ypsA	50
ypsC	303
yptA	122
ypuA	210
ypuB	31
ypuC	53
ypuD	40
ypuF	28
ypuI	246
ypvA	532
ypwA	390
ypzA	205
ypzC	11
ypzD	161
ypzF	1032
ypzG	1850
ypzH	12
ypzI	93
ypzJ	8
ypzK	748
yqaB	10
yqaC	6
yqaD	7
yqaE	17
yqaF	1
yqaG	0
yqaH	0
yqaI	1
yqaJ	5
yqaK	6
yqaL	7
yqaM	4
yqaN	8
yqaO	28
yqaP	219
yqaQ	1
yqaR	7
yqaS	2
yqaT	11
yqbA	15
yqbB	5
yqbC	4
yqbD	5
yqbE	13
yqbF	2
yqbG	2
yqbH	2
yqbI	5
yqbJ	8
yqbK	6
yqbM	11
yqbN	3
yqbO	27
yqbP	12
yqbQ	8
yqbR	0
yqbS	0
yqbT	1
yqcA	7
yqcB	0
yqcC	9
yqcD	3
yqcE	0
yqcI	200
yqcK	80
yqdA	0
yqeB	273
yqeC	17
yqeD	30
yqeF	123
yqeG	45
yqeH	172
yqeI	34
yqeK	112
yqeM	297
yqeW	56
yqeY	3295
yqeZ	2835
yqfA	1221
yqfB	1671
yqfC	58
yqfD	244
yqfF	563
yqfG	101
yqfL	148
yqfO	171
yqfQ	1335
yqfT	1232
yqfU	79
yqfW	179
yqfX	1115
yqfZ	27
yqgA	229
yqgB	86
yqgC	34
yqgE	137
yqgL	9
yqgM	35
yqgO	94
yqgQ	4
yqgT	94
yqgU	252
yqgV	116
yqgW	631
yqgX	164
yqgY	219
yqhB	153
yqhG	43
yqhH	113
yqhL	90
yqhO	148
yqhP	465
yqhQ	1099
yqhR	52
yqhT	882
yqhV	19
yqhY	1483
yqiG	491
yqiH	8
yqiI	11
yqiK	31
yqiW	224
yqjA	116
yqjB	64
yqjC	1
yqjD	532
yqjE	903
yqjF	166
yqjL	162
yqjM	307
yqjN	66
yqjP	31
yqjQ	53
yqjT	67
yqjU	35
yqjV	264
yqjX	8
yqjY	30
yqjZ	11
yqkA	69
yqkB	84
yqkC	107
yqkD	69
yqkE	14
yqkF	302
yqkK	3
yqxA	57
yqxC	609
yqxD	569
yqxG	4
yqxH	6
yqxI	170
yqxJ	58
yqxK	228
yqxL	60
yqzC	170
yqzD	71
yqzE	16
yqzF	271
yqzG	137
yqzH	20
yqzI	4
yqzK	57
yqzL	136
yqzM	1090
yqzN	0
yqzO	2
yraA	510
yraB	16
yraD	90
yraE	41
yraF	82
yraG	44
yraH	17
yraI	31
yraJ	125
yraK	127
yraL	82
yraM	13
yraN	2
yraO	13
yrbC	88
yrbD	379
yrbE	233
yrbF	393
yrbG	89
yrdA	286
yrdB	4
yrdC	8
yrdF	4
yrdK	17
yrdN	6
yrdP	3
yrdQ	16
yrdR	2
yrhC	118
yrhD	62
yrhE	198
yrhF	41
yrhG	5
yrhH	18
yrhK	13
yrhO	34
yrhP	95
yrkA	248
yrkB	0
yrkC	928
yrkD	41
yrkE	2
yrkF	5
yrkH	24
yrkI	4
yrkJ	20
yrkK	14
yrkL	44
yrkN	35
yrkO	48
yrkP	15
yrkQ	51
yrkS	12
yrpB	155
yrpC	56
yrpD	1058
yrpDX	240
yrpE	12
yrpG	12
yrrB	73
yrrD	2082
yrrI	52
yrrK	178
yrrL	172
yrrM	88
yrrN	129
yrrO	291
yrrS	466
yrrT	356
yrvC	25
yrvD	30
yrvJ	122
yrvM	144
yrzA	49
yrzB	398
yrzE	179
yrzF	291
yrzH	17
yrzI	97
yrzK	8
yrzL	87
yrzM	33
yrzN	37
yrzO	1
yrzP	2
yrzQ	384
yrzR	775
yrzS	9
yrzT	10
ysaA	202
yscB	38
ysdA	80
ysdB	249
ysdC	385
ysfB	185
ysfE	10
ysgA	107
yshA	21
yshB	50
yshE	44
yslB	79
ysmA	31
ysmB	190
ysnB	293
ysnD	615
ysnE	36
ysnF	1500
ysoA	171
ysxB	1845
ysxC	100
ysxD	65
ysxE	2964
yszB	88
ytaB	55
ytaF	389
ytaP	24
ytbD	16
ytbE	47
ytbQ	108
ytcA	1918
ytcB	831
ytcC	1670
ytcD	11
ytcI	286
ytcJ	540
ytcP	6
ytcQ	34
ytdA	398
ytdP	31
yteA	374
yteJ	310
yteP	1
yteR	6
yteS	2
yteT	28
yteU	16
yteV	9
ytfI	97
ytfJ	428
ytfP	152
ytgP	332
ythA	115
ythB	199
ythP	391
ythQ	329
ytiB	69
ytjA	23
ytjP	502
ytkA	193
ytkC	42
ytkK	251
ytkL	611
ytkP	86
ytlA	523
ytlC	353
ytlD	849
ytlI	30
ytlP	70
ytlQ	94
ytlR	604
ytmA	41
ytmB	37
ytmI	3
ytmO	41
ytmP	238
ytnA	110
ytnI	2
ytnJ	17
ytnL	16
ytnM	59
ytnP	201
ytoA	209
ytoI	464
ytoP	85
ytoQ	104
ytpA	453
ytpB	896
ytpI	241
ytpP	165
ytpQ	727
ytpR	585
ytqA	162
ytqB	199
ytrA	8
ytrB	42
ytrC	83
ytrD	78
ytrE	55
ytrF	295
ytrH	34
ytrI	88
ytrP	184
ytsJ	989
ytsP	111
yttA	16
yttB	71
ytvA	121
ytvB	417
ytvI	642
ytwF	201
ytwI	457
ytxB	110
ytxC	588
ytxD	18
ytxE	2
ytxG	1975
ytxH	3793
ytxJ	2827
ytxK	301
ytxO	1305
ytzA	148
ytzB	484
ytzC	893
ytzD	56
ytzE	215
ytzG	53
ytzH	88
ytzI	72
ytzJ	1123
ytzL	770
yuaC	14
yuaD	93
yuaE	623
yuaF	764
yuaG	1706
yuaI	488
yubA	188
yubD	33
yubF	200
yueB	678
yueC	78
yueD	232
yueE	160
yueF	191
yueG	116
yueH	50
yueI	73
yufK	52
yufL	146
yufM	95
yufS	9
yugE	45
yugF	67
yugG	55
yugH	278
yugI	721
yugJ	445
yugK	199
yugM	171
yugN	111
yugO	87
yugP	247
yugS	59
yugT	474
yugU	123
yuiA	78
yuiB	451
yuiC	725
yuiD	72
yuiF	93
yuiH	36
yukB	199
yukC	138
yukD	30
yukE	2185
yukJ	219
yulB	39
yulF	94
yumB	448
yumC	276
yunB	280
yunC	1012
yunD	141
yunE	78
yunF	72
yunG	17
yurJ	11
yurQ	62
yurR	70
yurS	770
yurT	66
yurZ	119
yusD	100
yusE	29
yusF	44
yusG	304
yusI	34
yusN	196
yusO	184
yusP	600
yusQ	5
yusR	3
yusS	4
yusT	44
yusU	50
yusV	374
yusW	9
yusY	152
yusZ	60
yutC	221
yutD	45
yutE	54
yutF	153
yutG	395
yutH	229
yutI	449
yutJ	152
yutK	107
yuxH	211
yuxJ	424
yuxK	129
yuxL	252
yuxN	104
yuxO	60
yuzA	687
yuzB	18
yuzC	251
yuzD	38
yuzE	58
yuzF	413
yuzG	16
yuzI	24
yuzJ	11
yuzK	182
yuzL	138
yuzM	138
yuzN	45
yuzO	47
yvaA	726
yvaB	327
yvaC	51
yvaD	5
yvaE	5
yvaF	5
yvaG	306
yvaK	168
yvaM	150
yvaP	40
yvaQ	148
yvaV	85
yvbF	17
yvbG	36
yvbH	65
yvbI	16
yvbJ	66
yvbK	25
yvbT	201
yvbU	28
yvbW	65
yvbX	36
yvcA	49
yvcB	161
yvcD	383
yvcI	116
yvcJ	393
yvcN	169
yvcP	11
yvcQ	54
yvcR	34
yvcS	92
yvcT	199
yvdA	15
yvdB	75
yvdC	28
yvdD	18
yvdP	1507
yvdQ	601
yvdR	170
yvdS	141
yvdT	572
yveA	364
yveF	6
yveG	16
yvfG	104
yvfH	186
yvfI	21
yvfR	66
yvfS	28
yvfT	134
yvfU	44
yvgK	273
yvgL	190
yvgM	190
yvgN	487
yvgO	1146
yvgT	18
yvhJ	221
yviA	39
yviE	28
yvjA	29
yvkA	52
yvkB	24
yvkC	55
yvkN	5
yvlA	178
yvlB	1780
yvlC	210
yvlD	419
yvmA	252
yvmB	62
yvmC	1263
yvnA	59
yvnB	157
yvoD	74
yvoF	120
yvpB	16
yvqJ	59
yvrA	37
yvrB	73
yvrC	133
yvrD	159
yvrE	459
yvrG	89
yvrH	4
yvrJ	6
yvrL	5
yvrN	126
yvrO	23
yvrP	16
yvsG	37
yvyC	2
yvyE	51
yvyF	70
yvyG	67
yvyI	49
yvzA	71
yvzB	9
yvzC	2
yvzE	66
yvzF	12
yvzG	37
yvzH	2
yvzI	6
yvzJ	6
ywaD	151
ywaE	654
ywaF	7
ywbA	560
ywbB	44
ywbC	67
ywbD	169
ywbE	30
ywbF	61
ywbG	186
ywbI	79
ywbO	43
ywcA	555
ywcB	160
ywcC	21
ywcD	12
ywcE	228
ywcH	26
ywcI	6968
ywcJ	151
ywdA	13
ywdD	19
ywdE	3
ywdF	37
ywdH	56
ywdI	35
ywdJ	94
ywdK	80
yweA	166
ywfA	406
ywfM	79
ywfO	145
ywgA	48
ywgB	1
ywhA	53
ywhB	40
ywhC	62
ywhD	108
ywhH	26
ywhK	99
ywhL	286
ywiB	15
ywiC	9
ywiE	187
ywjA	298
ywjB	228
ywjC	135
ywjD	37
ywjG	46
ywjH	853
ywjI	414
ywkB	33
ywkD	17
ywkF	128
ywlA	13
ywlB	126
ywlD	68
ywlE	14
ywlF	52
ywlG	105
ywmA	40
ywmB	365
ywmC	7
ywmD	38
ywmE	233
ywmF	2
ywnA	66
ywnB	26
ywnC	18
ywnF	296
ywnG	389
ywnH	165
ywnJ	164
ywoB	6
ywoC	38
ywoD	71
ywoF	232
ywoG	99
ywoH	27
ywpD	11
ywpE	3
ywpF	228
ywpG	6
ywpJ	45
ywqB	301
ywqC	68
ywqE	31
ywqF	280
ywqG	45
ywqH	68
ywqI	65
ywqL	240
ywqM	12
ywqN	11
ywqO	4
ywrA	60
ywrB	52
ywrC	47
ywrD	169
ywrE	83
ywrF	73
ywrJ	405
ywrK	1522
ywrO	146
ywsA	56
ywsB	914
ywtE	33
ywtF	110
ywtG	94
ywzA	483
ywzB	88
ywzC	11
ywzD	143
ywzE	6
ywzF	2
ywzG	8
ywzH	49
yxaB	80
yxaC	11
yxaD	21
yxaH	53
yxaI	30
yxaJ	7
yxaL	470
yxaM	101
yxbA	43
yxbB	193
yxbC	1296
yxbD	4
yxbF	29
yxbG	127
yxcA	24
yxcD	18
yxcE	53
yxdJ	44
yxdK	39
yxdL	12
yxdM	31
yxeA	7
yxeB	99
yxeC	15
yxeD	435
yxeE	7582
yxeF	31
yxeG	36
yxeH	121
yxeI	207
yxeJ	0
yxeK	24
yxeL	15
yxeM	23
yxeN	17
yxeO	27
yxeP	16
yxeQ	41
yxeR	51
yxiB	24
yxiC	6
yxiE	924
yxiF	16
yxiG	9
yxiH	6
yxiI	15
yxiJ	7
yxiK	15
yxiM	49
yxiO	317
yxiP	32
yxiS	268
yxiT	136
yxjB	61
yxjC	182
yxjF	337
yxjG	118
yxjH	90
yxjI	114
yxjJ	130
yxjL	11
yxjM	32
yxjN	29
yxjO	29
yxkA	12
yxkC	77
yxkD	20
yxkF	18
yxkH	130
yxkI	107
yxlA	173
yxlC	20
yxlD	9
yxlE	3
yxlF	30
yxlG	75
yxlH	132
yxnA	264
yxnB	52
yxxB	21
yxxE	29
yxxF	61
yxxG	29
yxzC	2
yxzE	208
yxzF	170
yxzG	7
yxzI	7
yxzJ	6
yxzK	5
yxzL	1
yyaB	16
yyaC	225
yyaD	30
yyaE	44
yyaH	7
yyaJ	206
yyaK	136
yyaL	527
yyaM	17
yyaN	6
yyaO	33
yyaP	42
yyaQ	91
yyaR	21
yyaS	20
yyaT	27
yybA	5
yybB	46
yybC	15
yybD	3
yybE	13
yybF	327
yybG	27
yybH	7
yybI	101
yybJ	32
yybK	12
yybL	11
yybM	29
yybN	224
yybO	58
yybP	99
yybR	219
yybS	82
yycA	109
yycB	426
yycC	67
yycD	55
yycE	8
yycI	67
yycN	223
yycO	727
yycP	1249
yycQ	59
yycR	523
yycS	19
yydA	27
yydB	73
yydC	13
yydD	57
yydF	319
yydG	15
yydH	27
yydI	56
yydJ	28
yydK	20
yyzB	10
yyzE	4
yyzF	11
yyzG	11
yyzH	40
yyzI	1
yyzJ	6
yyzM	39
yyzN	7
yyzO	10
zinT	27
znuA	237
znuB	31
znuC	42
zosA	291
zur	116
zwf	659
__no_feature	391609
__ambiguous	41901
__too_low_aQual	34903
__not_aligned	36853
__alignment_not_unique	0
