"","gene"
"1","ariR"
"2","fruB"
"3","fruK"
"4","osmB"
"5","rmf"
"6","rrlA"
"7","rrlC"
"8","rrlD"
"9","rrlH"
"10","rrsA"
"11","rrsC"
"12","rrsD"
"13","rrsG"
"14","rrsH"
"15","sodA"
"16","ybdZ"
"17","ybgS"
"18","yciG"
"19","yeaR"
"20","ygdI"
"21","yhbO"
"22","yjbJ"
"23","yjdJ"
"24","yoaG"
"25","ytjA"
