BS3610_RS00755	0
BS3610_RS00760	0
BS3610_RS00805	132
BS3610_RS00865	0
BS3610_RS00870	0
BS3610_RS01090	16
BS3610_RS01095	6
BS3610_RS01210	1
BS3610_RS01215	30
BS3610_RS01220	228
BS3610_RS01225	58
BS3610_RS01230	10
BS3610_RS01235	1
BS3610_RS01240	1
BS3610_RS01245	1
BS3610_RS01250	15
BS3610_RS01320	586
BS3610_RS01675	1
BS3610_RS01680	36
BS3610_RS01685	8
BS3610_RS01690	0
BS3610_RS01695	0
BS3610_RS01700	0
BS3610_RS01815	0
BS3610_RS01820	0
BS3610_RS01825	2
BS3610_RS01830	1
BS3610_RS01835	12
BS3610_RS02190	0
BS3610_RS03225	4
BS3610_RS03475	13
BS3610_RS03480	400
BS3610_RS03485	126
BS3610_RS03490	66
BS3610_RS03495	23
BS3610_RS03500	76
BS3610_RS03505	20
BS3610_RS04105	5
BS3610_RS04110	55
BS3610_RS04130	13
BS3610_RS04135	14
BS3610_RS04245	21
BS3610_RS04250	18
BS3610_RS04660	0
BS3610_RS04820	3688
BS3610_RS04940	0
BS3610_RS04970	4
BS3610_RS05635	12
BS3610_RS05640	5
BS3610_RS05645	0
BS3610_RS05650	0
BS3610_RS05655	0
BS3610_RS05660	8
BS3610_RS05665	3
BS3610_RS05670	0
BS3610_RS05675	9
BS3610_RS05680	403
BS3610_RS05685	160
BS3610_RS05690	52
BS3610_RS05695	46
BS3610_RS05700	15
BS3610_RS05705	7
BS3610_RS05710	15
BS3610_RS05795	29
BS3610_RS06465	3583
BS3610_RS07180	29
BS3610_RS07375	3
BS3610_RS08125	0
BS3610_RS08485	5
BS3610_RS09150	29
BS3610_RS10165	8
BS3610_RS10485	20
BS3610_RS10880	8
BS3610_RS10990	51
BS3610_RS11360	0
BS3610_RS11695	402
BS3610_RS12510	0
BS3610_RS13215	31
BS3610_RS14280	3
BS3610_RS15195	4
BS3610_RS16160	16
BS3610_RS16320	157
BS3610_RS17510	51
BS3610_RS17515	82
BS3610_RS17520	26
BS3610_RS17525	93
BS3610_RS17530	226
BS3610_RS17535	21
BS3610_RS17540	9
BS3610_RS17545	5
BS3610_RS17550	1
BS3610_RS17555	4
BS3610_RS17560	20
BS3610_RS17565	18
BS3610_RS17570	40
BS3610_RS17575	13
BS3610_RS17580	3
BS3610_RS17585	2
BS3610_RS17590	1
BS3610_RS17595	80
BS3610_RS17600	38
BS3610_RS17605	14
BS3610_RS17610	2
BS3610_RS17715	5
BS3610_RS17900	24
BS3610_RS18100	0
BS3610_RS18125	147
BS3610_RS18670	2
BS3610_RS18875	1
BS3610_RS19415	16
BS3610_RS19485	19
BS3610_RS20625	1
BS3610_RS20995	1
BS3610_RS21235	3
BS3610_RS22545	62
BS3610_RS22550	67
BS3610_RS22555	8
BS3610_RS22560	28
BS3610_RS22650	53
BS3610_RS22670	10
BS3610_RS23175	5
BS3610_RS23190	8
BS3610_RS23210	2
BS3610_RS23215	3
BS3610_RS23230	1
BS3610_RS23245	1
BS3610_RS23265	0
BS3610_RS23300	14
BS3610_RS23305	1
BS3610_RS23330	92
BS3610_RS23335	64
BS3610_RS23340	92
BS3610_RS23345	241
BS3610_RS23350	114
BS3610_RS23355	0
BS3610_RS23375	102
BS3610_RS23390	1
BS3610_RS23400	44
BS3610_RS23430	86
BS3610_RS23445	13
BS3610_RS23455	39
BS3610_RS23480	2
BS3610_RS23510	3
BS3610_RS23515	6
BS3610_RS23520	0
BS3610_RS23540	210
BS3610_RS23545	20
BS3610_RS23565	2
BS3610_RS23570	11
BS3610_RS23575	0
BS3610_RS23580	0
BS3610_RS23625	61
BS3610_RS23635	255
BS3610_RS23640	62
BS3610_RS23650	252
BS3610_RS23660	2
BS3610_RS23685	8
BS3610_RS23695	2
BS3610_RS23705	1639
BS3610_RS23725	158
BS3610_RS23745	101
BS3610_RS23755	1
BS3610_RS23760	23
BS3610_RS23780	28
BS3610_RS23795	0
BS3610_RS23805	7
BS3610_RS23810	7
BS3610_RS23815	37
BS3610_RS23830	2
BS3610_RS23850	3
BS3610_RS23870	3
BS3610_RS23880	8
BS3610_RS23885	6
BS3610_RS23890	180
BS3610_RS23900	347
BS3610_RS23905	7
BS3610_RS23915	7
BS3610_RS23925	0
BS3610_RS23960	0
BS3610_RS23970	0
BS3610_RS24015	0
BS3610_RS24065	18
BS3610_RS24095	3
BS3610_RS24100	4
BS3610_RS24105	1
BS3610_RS24115	0
BS3610_RS24125	59
BS3610_RS24135	31
BS3610_RS24150	86
BS3610_RS24160	9
BS3610_RS24180	6
BS3610_RS24185	27
BS3610_RS24190	63
BS3610_RS24195	6
BS3610_RS24200	1
BS3610_RS24220	6
BS3610_RS24225	109
BS3610_RS24240	5
BS3610_RS24250	0
BS3610_RS24260	1
BS3610_RS24285	8
BS3610_RS24290	16
BS3610_RS24295	9
BS3610_RS24315	0
BS3610_RS24320	7
BS3610_RS24345	59
BS3610_RS24350	103769
BS3610_RS24360	7
BS3610_RS24365	25
BS3610_RS24375	0
BS3610_RS24380	1
BS3610_RS24390	7
BS3610_RS24405	4
BS3610_RS24420	435
BS3610_RS24435	1
BS3610_RS24450	53
BS3610_RS24460	0
BS3610_RS24480	1
BS3610_RS24510	71
BS3610_RS24520	751
BS3610_RS24530	65
BS3610_RS24540	63
BS3610_RS24550	0
BS3610_RS24570	13
BS3610_RS24580	184
BS3610_RS24585	126
BS3610_RS24590	2990
BS3610_RS24610	2
BS3610_RS24620	717
BS3610_RS24630	2
BS3610_RS24640	143
BS3610_RS24670	5
BS3610_RS24675	2
BS3610_RS24725	0
aadK	52
aag	26
aapA	35
abbA	294
abfA	244
abh	209
abnA	284
abnB	272
abrB	1139
accA	306
accB	85
accC	10644
accD	277
acdA	535
ackA	255
acoA	3474
acoB	2769
acoC	4890
acoL	4239
acoR	422
acpA	453
acpK	5
acpS	100
acsA	200
acuA	119
acuB	258
acuC	441
adaA	6
adaB	7
addA	617
addB	300
adeC	121
adhA	107
adhB	72
adk	4537
ahpC	4030
ahpF	10496
ahrC	54
alaS	290
albA	2905
albB	226
albC	835
albD	858
albE	651
albF	647
albG	436
ald	3452
aldX	70
aldY	463
alkA	57
alrA	256
alrB	382
alsD	82
alsR	127
alsS	131
alsT	201
amhX	566
amiE	382
ampS	92
amtB	173
amyC	104
amyD	75
amyE	2934
amyX	1046
ansA	90
ansB	215
ansR	64
ansZ	81
antE	0
appA	2076
appB	265
appC	291
appD	252
appF	305
aprE	3433
aprX	965
apt	225
araA	52
araB	93
araD	43
araE	84
araL	23
araM	119
araN	110
araP	162
araQ	55
araR	136
arfM	3
argB	40
argC	116
argD	137
argF	229
argG	815
argH	1282
argI	768
argJ	150
argS	594
aroA	216
aroB	163
aroC	39
aroD	115
aroF	69
aroH	69
aroK	19
aroQ	187
aroX	377
arsB	138
arsC	58
arsR	14
artP	331
artQ	141
artR	322
arxR	51
asd	3278
aseR	5
asnB	518
asnH	131
asnO	1397
asnS	586
aspB	186
aspS	251
atoA	311
atoB	569
atpA	3581
atpB	1511
atpC	2234
atpD	4377
atpE	297
atpF	820
atpG	2187
atpH	746
atpI	1031
azlB	12
azlC	14
azlD	21
bacA	9
bacB	40
bacC	49
bacD	113
bacE	40
bacG	43
bacH	59
bcaP	138
bcd	613
bceA	14
bceB	47
bceR	37
bceS	70
bcrC	163
bdbA	7
bdbB	17
bdbC	275
bdbD	470
bdhA	8858
besA	663
bglA	114
bglC	108
bglH	1075
bglP	2186
bglS	249
bhlA	0
bhlB	0
bioB	42
bioD	27
bioF	180
bioI	45
bioK	149
bioW	103
bioY	9
bioYB	103
bipA	1012
birA	141
bkdAA	549
bkdAB	552
bkdB	1339
bkdR	56
blt	114
bltD	50
bltR	17
blyA	5
bmr	1433
bmrA	265
bmrR	107
bmrU	841
bofA	129
bofC	545
bpr	5388
bpsA	30
bpsB	25
braB	88
brnQ	39
bsaA	3
bscR	52
bsdA	54
bsdB	4
bsdC	29
bshA	108
bshBA	86
bshBB	196
bshC	177
bshR	144
bslA	485
bsn	112
bsrG	3698
bst	106
bsuMA	144
bsuMB	138
bsuRA	50
bsuRB	71
bsuRC	73
btr	56
buk	379
cah	28
capA	2
capB	149
capC	87
capE	0
carA	191
carB	716
catD	5
catE	25
cca	109
cccA	77
cccB	430
ccdA	67
ccpA	248
ccpB	27
ccpC	102
ccpN	71
cdd	595
cdnD	240
cdoA	146
cdsA	99
cgeA	9414
cgeB	18477
cgeC	1015
cgeD	394
cgeE	104
cggR	1983
cheA	295
cheB	93
cheC	119
cheD	69
cheR	9
cheV	244
cheW	101
cheY	38
cidA	54
cimH	556
cinA	190
citA	59
citB	6353
citH	763
citM	50
citR	7
citS	75
citT	42
citZ	8670
clpC	7222
clpE	594
clpP	2223
clpQ	192
clpX	1320
clpY	1259
clsA	203
clsB	365
cmk	69
coaA	55
coaBC	224
coaD	46
coaE	452
coaX	63
codV	469
codY	1196
coiA	31
comA	100
comC	8
comEA	5
comEB	23
comEC	159
comER	1424
comFA	47
comFB	11
comFC	63
comGA	23
comGB	16
comGC	3
comGD	2
comGE	2
comGF	3
comGG	10
comK	208
comN	25
comP	346
comQ	159
comS	0
comX	17
comZ	101
copA	168
copB	310
copZ	36
cotA	1866
cotB	1728
cotC	725
cotD	28269
cotE	2844
cotF	756
cotG	28824
cotH	311
cotI	1327
cotJA	1610
cotJB	832
cotJC	2386
cotM	1316
cotO	3917
cotP	122
cotR	976
cotS	1795
cotSA	794
cotT	5957
cotU	237
cotV	18553
cotW	12519
cotX	53630
cotY	24596
cotZ	16940
coxA	1815
cpgA	359
crcBA	18
crh	24
csaA	116
csbA	483
csbB	722
csbC	1099
csbD	71
csbX	618
csfB	141
csgA	4
cshA	1535
cshB	514
csn	3487
csoR	34
cspB	1858
cspC	742
cspD	1385
csrA	13
cssR	107
cssS	455
cstA	102
ctaA	722
ctaB	983
ctaC	558
ctaD	1951
ctaE	1000
ctaF	310
ctaG	508
ctaO	182
ctpA	442
ctpB	264
ctsR	358
cueR	243
cwlA	95
cwlC	224
cwlD	75
cwlH	421
cwlJ	627
cwlK	24
cwlO	4322
cwlP	84
cwlS	174
cycB	45
cydA	371
cydB	771
cydC	1198
cydD	1076
cyeA	36
cyeB	9
cypA	355
cypB	690
cypC	533
cypD	147
cypX	5714
cysC	261
cysE	66
cysH	340
cysI	404
cysJ	167
cysK	1366
cysL	44
cysP	289
cysS	528
czcD	28
czrA	32
dacA	172
dacB	654
dacC	525
dacF	926
dagK	307
dapA	1047
dapB	58
dapF	196
dapG	655
dapH	123
dapL	82
dapX	884
dat	1266
dck	55
dctB	71
dctP	72
dctR	6
dctS	19
ddl	351
deaD	291
defA	59
defB	63
degA	186
degQ	90
degR	101
degS	216
degU	267
deoC	189
deoD	57
deoR	92
des	1627
desK	97
desR	64
dfrA	107
dgk	77
dgkA	52
dhaS	12707
dhbA	73
dhbB	122
dhbC	207
dhbE	130
dhbF	1323
dinB	243
dinF	78
dinG	1064
disA	303
divIB	204
divIC	483
divIVA	179
dltA	1466
dltB	1351
dltC	245
dltD	933
dltE	708
dnaA	210
dnaB	50
dnaC	96
dnaD	81
dnaE	1323
dnaG	3117
dnaH	82
dnaI	90
dnaJ	115
dnaK	3138
dnaN	199
dnaX	521
dppA	221
dppB	235
dppC	114
dppD	385
dppE	1221
dprA	73
dps	1168
drm	235
dsdA	57
dtd	158
dtpT	388
dusB	388
dusC	74
dxr	114
dxs	966
dynA	86
eag	113
ebrA	0
ebrB	7
ecfA	212
ecfAB	246
ecfT	130
ecsA	72
ecsB	202
ecsC	109
efeM	95
efeN	233
efeU	71
efp	710
eglS	99
engA	357
engD	135
eno	6398
epr	246
epsA	37
epsB	251
epsC	33
epsD	27
epsE	11
epsF	28
epsG	27
epsH	15
epsI	23
epsJ	22
epsK	54
epsL	25
epsM	33
epsN	59
epsO	69
era	717
estA	8
estB	29
etfA	5428
etfB	5264
exlX	157
exoA	69
exuM	36
exuR	453
exuT	357
ezrA	279
fabD	100
fabF	2313
fabG	431
fabHA	455
fabHB	267
fabI	532
fabL	77
fabZ	12
fadA	3179
fadB	4329
fadE	5254
fadF	1044
fadH	326
fadN	7435
fadR	4325
fapR	216
fbaA	1153
fbp	220
fbpA	16
fbpB	31
fbpC	0
fdhD	92
fer	203
feuA	385
feuB	219
feuC	149
ffh	4955
fhuB	41
fhuC	91
fhuD	277
fhuG	73
fin	229
flgB	52
flgC	34
flgD	48
flgE	99
flgK	417
flgL	327
flgM	132
flhA	203
flhB	119
flhF	176
flhO	164
flhP	198
fliD	223
fliE	32
fliF	215
fliG	67
fliH	50
fliI	72
fliJ	40
fliK	196
fliL	30
fliM	94
fliP	89
fliQ	24
fliR	102
fliS	46
fliT	50
fliW	31
fliY	54
fliZ	121
fmnP	98
fmt	231
fni	431
fnr	267
folB	45
folC	112
folD	979
folEA	162
folEB	9
folK	70
folN	34
folP	113
fosB	526
fra	69
frlB	49
frlD	28
frlM	8
frlN	11
frlO	21
frlR	93
frr	192
fruA	468
fruK	215
fruR	273
ftsA	895
ftsE	59
ftsH	4978
ftsL	496
ftsR	45
ftsW	77
ftsX	156
ftsY	264
ftsZ	2138
fumC	508
fur	94
fusA	20223
gabD	655
gabP	387
gabR	38
gabT	19
galE	476
galK	167
galM	232
galT	755
gamP	148
ganA	213
ganB	16
ganP	53
ganQ	43
ganR	12
gapA	12463
gapB	1968
garD	57
gatA	546
gatB	1084
gatC	47
gbsA	34
gbsB	78
gcaD	273
gcvH	583
gcvPA	441
gcvPB	338
gcvT	263
gdh	137
gerAA	66
gerAB	32
gerAC	80
gerBA	176
gerBB	43
gerBC	82
gerD	205
gerE	7194
gerKA	34
gerKB	47
gerKC	29
gerM	1774
gerPA	325
gerPB	432
gerPC	1174
gerPD	284
gerPE	1012
gerPF	1362
gerQ	3047
gerR	334
gerT	753
ggaA	1171
ggaB	89
ggt	533
glcD	177
glcF	171
glcK	59
glcP	85
glcR	21
glcT	164
glcU	39
glgA	474
glgB	426
glgC	366
glgD	736
glgP	504
glmM	217
glmS	2620
glnA	6646
glnH	675
glnJ	16
glnK	286
glnL	24
glnM	109
glnP	127
glnQ	349
glnR	756
glnT	1
glpD	2183
glpF	1026
glpG	60
glpK	4008
glpP	330
glpQA	429
glpT	383
glpW	37
glsA	4
glsB	308
gltA	2482
gltB	1510
gltC	138
gltP	307
gltR	31
gltT	1264
gltX	1633
glxK	42
glyA	685
glyQ	84
glyS	310
gmk	427
gmuA	12
gmuB	5
gmuC	46
gmuD	54
gmuE	20
gmuF	25
gmuG	42
gmuR	45
gndA	508
gntK	174
gntP	303
gntR	41
gntZ	484
gpr	114
gpsA	411
gpsB	734
greA	238
groEL	2898
groES	323
grpE	360
gsaB	234
gsiB	14804
gspA	2619
gtaB	2053
guaA	923
guaB	504
guaC	436
guaD	333
gudB	692
gudD	13
gudP	9
gutB	10
gutP	17
gutR	109
gyrA	1917
gyrB	1521
hag	7041
hbs	2719
helD	569
hemA	1296
hemAT	176
hemB	708
hemC	297
hemD	192
hemE	353
hemH	932
hemL	2864
hemN	114
hemQ	905
hemX	191
hemY	1385
hemZ	208
hepA	451
hepS	170
hepT	60
hflX	69
hfq	253
hinT	154
hisA	61
hisB	40
hisC	329
hisD	70
hisF	79
hisG	17
hisH	52
hisI	122
hisJ	89
hisS	41
hisZ	7
hmoA	256
hmoB	421
hmp	55
holA	161
holB	272
hom	558
hpf	6714
hprK	72
hprT	124
hrcA	1279
hslO	147
hslR	62
htpG	196
htpK	73
htpX	1161
htrA	294
htrB	445
htrC	67
hutG	257
hutH	96
hutI	221
hutM	224
hutP	42
hutU	119
hxlA	54
hxlB	57
hxlR	26
icd	2088
ileS	514
ilvA	130
ilvB	156
ilvC	339
ilvD	353
ilvE	41
ilvH	33
ilvK	232
immA	9
immR	9
infA	1159
infB	3824
infC	3766
iolB	77
iolC	102
iolD	100
iolE	67
iolF	112
iolG	109
iolH	88
iolI	63
iolJ	118
iolR	219
iolS	1093
iolT	168
ipi	1202
iscSA	355
iscSB	89
iseA	3724
isp	5414
ispA	98
ispD	218
ispE	159
ispF	15
ispG	286
ispH	300
jag	344
kamA	1552
kamB	608
kapB	121
kapD	164
katA	11334
katE	4225
katX	1728
kbaA	258
kbl	769
kdgA	92
kdgK	216
kdgR	202
kdgT	137
kduD	161
kduI	345
khtS	1182
khtT	355
kinA	139
kinB	196
kinC	200
kinD	624
kinE	123
kipA	644
kipI	444
kipR	352
ktrA	34
ktrB	56
ktrC	128
ktrD	81
lcfA	4431
lcfB	506
lctP	2147
ldcA	122
ldh	2487
lepA	538
leuA	711
leuB	92
leuC	268
leuD	129
leuS	541
levB	21
levD	117
levE	117
levF	147
levG	113
levR	120
lexA	334
lgt	52
liaF	193
liaG	200
liaH	420
liaI	186
liaR	138
liaS	222
licA	437
licB	443
licC	2945
licH	3477
licR	247
licT	139
ligA	371
ligB	22
lipA	454
lipC	331
lipL	76
lipM	38
lmrA	294
lmrB	411
lonA	487
lonB	1059
lpdV	388
lplA	42
lplB	19
lplC	23
lplD	86
lplJ	120
lrgA	10
lrgB	47
lrpA	5
lrpB	3
lrpC	4
lspA	10
ltaSA	1188
ltaSB	884
ltaSC	1230
ltaSP	258
lutA	73
lutB	388
lutC	580
luxS	229
lysA	140
lysC	104
lysP	116
lysS	809
lytA	7
lytB	80
lytC	130
lytD	398
lytE	174
lytF	211
lytG	34
lytH	73
lytR	310
lytS	125
lytT	43
maa	24
maeA	47
maeN	47
maf	119
malA	303
malP	294
malQ	87
malR	154
malS	974
manA	63
manP	51
manR	37
mapA	2563
mapB	401
mbl	713
mccA	280
mccB	714
mciZ	2
mcpA	381
mcpB	197
mcpC	330
mcsA	542
mcsB	815
mdh	1220
mdr	160
mdxD	110
mdxE	76
mdxF	99
mdxG	28
mdxJ	22
mdxK	37
mdxL	134
mdxM	68
mdxR	46
mecA	1539
mecB	705
med	367
melA	417
menA	92
menB	587
menC	499
menD	386
menE	721
menF	234
menH	147
metA	97
metC	144
metE	271
metI	35
metK	929
metN	119
metP	101
metQ	288
metS	469
mfd	1107
mgfK	798
mgsA	82
mgsR	3742
mgtE	593
mhqA	154
mhqR	116
miaA	76
miaB	2103
mifM	91
minC	245
minD	326
minJ	215
mleA	102
mleN	101
mlpA	132
mmgA	193
mmgB	413
mmgC	593
mmgD	597
mmgE	2098
mmgF	1878
mmr	33
mmsA	105
mnaA	85
mnmA	649
mnmE	184
mntA	1520
mntB	1468
mntC	2643
mntD	1058
mntH	1643
mntR	259
moaA	179
moaB	21
moaC	133
moaD	14
moaE	53
mobA	29
mobB	76
moeA	94
moeB	59
motA	238
motB	376
mpr	3381
mprF	449
mraY	109
mraZ	576
mreB	286
mreBH	151
mreC	277
mreD	94
mrgA	3322
mrnC	81
mrpA	731
mrpB	77
mrpC	62
mrpD	358
mrpE	136
mrpF	44
mrpG	82
mscL	15
msmE	208
msmR	137
msmX	1262
msrA	69
msrB	111
mstX	6
mta	49
mtaB	622
mtbP	1
mtlR	550
mtnA	44
mtnB	62
mtnD	122
mtnE	38
mtnK	54
mtnN	500
mtnU	69
mtnW	63
mtnX	47
mtrB	95
murAA	3457
murAB	451
murB	543
murC	999
murD	251
murE	182
murF	241
murG	478
murQ	186
mutL	209
mutM	326
mutS	166
mutSB	841
mutT	10
mutY	82
nadA	980
nadB	63
nadC	14
nadD	104
nadE	782
nagA	90
nagBA	148
nagBB	186
nagP	415
nagR	128
nagZ	512
naiP	87
nap	909
narG	403
narH	228
narI	624
narJ	161
narK	70
nasA	21
nasB	43
nasC	41
nasD	145
nasE	94
nasF	575
natA	13
natB	35
natK	109
natR	79
ndh	3064
ndhF	44
ndk	332
ndoA	572
ndoAI	468
nfo	464
nfrAA	945
nfrAB	166
nfsB	221
nhaC	189
nhaK	889
nhaX	5106
niaR	71
nifS	48
nin	93
nnrA	106
noc	652
norM	107
nosA	27
nprB	63
nprE	807
nrdE	348
nrdEB	3
nrdF	203
nrdI	41
nrdIB	0
nrdR	27
nrnA	774
nrnB	76
nsrR	154
ntdA	52
ntdB	49
ntdC	192
nth	75
nucA	20
nucB	60
nudF	91
nupC	419
nupG	177
nupN	255
nupO	148
nupP	104
nupQ	134
nusA	1018
nusB	352
nusG	148
oatA	68
obg	476
odhA	2405
odhB	2317
ogt	172
ohrA	14
ohrB	2349
ohrR	62
oppA	4536
oppB	329
oppC	186
oppD	270
oppF	780
opuAA	298
opuAB	341
opuAC	402
opuBA	872
opuBB	1449
opuBC	1732
opuBD	734
opuCA	201
opuCB	54
opuCC	148
opuCD	129
opuD	713
opuE	686
oxaAA	201
oxaAB	317
oxdC	424
pabA	111
pabB	130
pabC	37
padC	41
padR	73
paiA	8
paiB	13
panB	256
panC	326
panD	122
panE	79
parA	57
parB	135
parC	285
parE	131
patB	106
pbpA	1422
pbpB	910
pbpC	663
pbpD	1701
pbpE	1192
pbpF	169
pbpG	499
pbpH	415
pbpI	814
pbpX	31
pbuE	125
pbuG	244
pbuO	339
pbuX	150
pcfA	24
pckA	4803
pcp	145
pcrA	155
pcrB	11
pdaA	49
pdaC	119
pdhA	3184
pdhB	3055
pdhC	6771
pdhD	5818
pdp	1159
pduO	32
pdxK	52
pdxS	356
pdxT	309
pel	92
pelB	63
pelC	43
penP	88
pepA	376
pepF	1363
pepT	571
perR	1075
pfkA	339
pgcA	1118
pgdS	181
pgi	724
pgk	4167
pgl	746
pgm	6285
pgsA	42
pheA	158
pheS	25
pheT	490
phoA	170
phoD	174
phoE	32
phoH	911
phoP	120
phoR	426
phrA	679
phrC	1259
phrE	725
phrF	202
phrG	88
phrH	680
phrI	36
phrK	170
phy	8
pit	260
pksA	78
pksB	23
pksC	79
pksD	35
pksE	32
pksF	36
pksG	31
pksH	26
pksI	14
pksJ	1194
pksL	2212
pksM	1493
pksN	2439
pksR	1708
pksS	197
plsC	166
plsX	241
plsY	67
pnbA	258
pncA	34
pncB	205
pnpA	1725
polA	548
polC	860
polX	398
polYA	48
polYB	16
ponA	2034
ppaC	1019
ppaX	126
ppiB	110
ppnKA	25
ppnKB	448
pps	290
ppsA	695
ppsB	597
ppsC	1378
ppsD	2326
ppsE	936
prfA	557
prfB	596
priA	310
prkA	3153
prkC	356
prmC	33
proA	325
proB	43
proG	29
proH	113
proI	45
proJ	106
proS	757
prpC	178
prpE	6
prs	208
prsA	425
prsW	116
psd	231
psiE	27
pspA	250
pssA	124
pstA	63
pstBA	274
pstBB	390
pstC	88
pstS	266
pta	289
ptb	387
pth	290
ptkA	55
ptsG	2934
ptsH	745
ptsI	4928
pucA	4
pucB	1
pucC	2
pucD	24
pucE	8
pucF	3
pucG	12
pucH	84
pucI	5
pucJ	129
pucK	89
pucL	155
pucM	55
pucR	242
pupG	395
purA	2259
purB	661
purC	222
purD	336
purE	64
purF	202
purH	413
purK	411
purL	250
purM	124
purN	74
purQ	174
purR	727
purS	67
purT	37
purU	73
putB	659
putC	1689
putM	1139
putP	604
putR	179
pycA	1607
pyk	2857
pyrAA	225
pyrAB	855
pyrB	142
pyrC	205
pyrD	60
pyrE	91
pyrF	36
pyrG	806
pyrH	252
pyrK	94
pyrP	387
pyrR	192
qcrA	276
qcrB	326
qcrC	1423
qdoR	12
qodI	89
qoxA	2414
qoxB	4649
qoxC	1802
qoxD	1560
queA	97
queC	41
queD	33
queE	50
queF	99
queG	101
racA	2502
racE	599
racX	1599
radA	1102
radC	87
rapA	8727
rapB	60
rapC	847
rapD	187
rapE	39
rapF	677
rapG	390
rapI	15
rapJ	325
rapK	326
rarA	51
rbfA	1533
rbfK	5
rbgA	104
rbn	1206
rbsA	224
rbsB	175
rbsC	139
rbsD	70
rbsK	196
rbsR	201
rdgB	306
recA	637
recD	284
recF	668
recG	258
recJ	454
recN	385
recO	510
recQ	358
recR	322
recU	426
recX	213
refZ	843
relP	36
relQ	119
resA	41
resB	341
resC	558
resD	138
resE	795
rex	397
rghRA	10
rghRB	34
rgpA	456
rhaA	94
rhaB	86
rhaD	63
rhaU	22
rhgH	8
rhgP	17
rhgQ	12
rhgT	29
rhgW	167
rhgX	98
rhgZ	294
rho	1351
ribAB	520
ribC	154
ribD	880
ribE	367
ribH	448
rimM	24
rimP	351
ripX	207
rlmB	140
rlmCD	150
rlmN	387
rluB	124
rluD	46
rnc	345
rnhB	44
rnhC	136
rnjA	1278
rnjB	1251
rnmV	53
rnpA	40
rnpZA	63
rnr	3722
rny	10514
rnz	26
rocA	1238
rocB	746
rocC	292
rocD	427
rocE	959
rocG	130
rocR	73
rodA	139
rok	328
rpe	271
rph	282
rplGB	1222
rpmGCa	13
rpoA	5708
rpoB	8470
rpoC	15613
rpoE	209
rpoZ	97
rppG	48
rsbP	136
rsbQ	59
rsbRA	873
rsbRB	110
rsbRC	58
rsbRD	335
rsbS	82
rsbT	42
rsbU	99
rsbV	772
rsbW	1697
rsbX	5359
rseP	523
rsfA	1418
rsfS	91
rsgI	43
rsh	509
rsiV	19
rsiW	7376
rsiX	219
rsmB	279
rsmD	25
rsmI	87
rsoA	8
rtbD	56
rtbE	16
rtbI	30
rtbJ	31
rtp	5
rtpA	5
rttF	130
rttG	175
rttL	49
rttM	15
rttN	579
rttO	157
ruvA	17
ruvB	110
sacA	119
sacB	11
sacC	269
sacP	51
sacT	21290
sacV	2
sacX	139
sacY	104
safA	18704
salA	1369
samT	84
sapB	300
sat	298
sbcC	632
sbcD	83
sbcE	295
sboA	4779
sboX	67
sbp	19
scoC	259
scpA	33
scuA	107
sda	92
sdaAA	418
sdaAB	168
sdhA	932
sdhB	809
sdhC	84
sdpA	76
sdpB	459
sdpI	977
sdpR	329
secA	1918
secDF	595
secE	72
secG	451
secY	9476
senS	7
sepF	643
serA	279
serC	419
serS	599
sfp	38
sftA	247
sigA	3558
sigB	5715
sigD	222
sigE	133
sigF	1709
sigG	334
sigH	163
sigI	32
sigL	1722
sigM	147
sigO	2
sigV	4
sigW	5537
sigX	37
sigY	84
sigZ	5
sinI	175
sinR	221
sipS	586
sipT	289
sipU	49
sipV	148
sipW	19
sirB	480
sirC	322
skfA	4645
skfB	224
skfC	138
skfE	150
skfF	130
skfG	49
skfH	92
sleB	40
slp	2
slpH	227
slpS	324
slrA	74
slrR	2
smc	392
smpB	283
sodA	5132
sodC	141
sodF	452
spbC	8110
spcB	28
speA	67
speB	129
speD	1141
speE	61
splA	22
splB	255
spmA	404
spmB	580
spo0A	596
spo0B	114
spo0E	270
spo0F	113
spo0M	2711
spoIIAA	693
spoIIAB	1144
spoIIB	228
spoIID	1010
spoIIE	786
spoIIGA	217
spoIIIAA	431
spoIIIAB	154
spoIIIAC	17
spoIIIAD	153
spoIIIAE	864
spoIIIAF	1051
spoIIIAG	476
spoIIIAH	1311
spoIIIC	137
spoIIID	356
spoIIIE	314
spoIIM	64
spoIIP	284
spoIIQ	13985
spoIIR	210
spoIISA	184
spoIISB	45
spoIVA	19132
spoIVB	254
spoIVCA	373
spoIVCB	248
spoIVFA	799
spoIVFB	402
spoVAA	29
spoVAB	11
spoVAC	29
spoVAD	118
spoVAEA	105
spoVAEB	62
spoVAF	390
spoVB	447
spoVD	915
spoVE	703
spoVFA	1738
spoVFB	1088
spoVG	1482
spoVID	13315
spoVIF	5109
spoVK	334
spoVM	324
spoVR	980
spoVS	1420
spoVT	173
sppA	559
spsA	769
spsB	1912
spsC	542
spsD	678
spsE	2123
spsF	1246
spsG	915
spsI	1251
spsJ	1218
spsK	1172
spsL	920
spxA	2497
sqhC	1329
srfAA	1310
srfAB	2812
srfAC	1194
srfAD	351
srtA	78
srtN	95
ssbA	2079
ssbB	20
sscA	5430
sscB	1402
sspA	3839
sspB	979
sspC	95
sspD	128
sspE	13604
sspF	249
sspG	860
sspH	161
sspI	80
sspJ	603
sspK	61
sspL	21
sspM	36
sspN	125
sspO	68
sspP	65
ssuA	152
ssuB	88
ssuC	269
ssuD	1209
stoA	162
sucC	401
sucD	534
sufA	612
sufB	6613
sufC	770
sufD	3571
sufS	2758
sufU	910
suhB	70
sumT	334
sunA	650
sunI	221
sunS	53
sunT	53
swrAA	32
swrC	2707
tadA	17
tagA	351
tagB	180
tagC	51
tagD	190
tagE	265
tagF	242
tagG	127
tagH	321
tagO	1016
tapA	36
tasA	548
tatAC	444
tatAD	37
tatAY	398
tatCD	223
tatCY	2695
tcyA	144
tcyB	105
tcyC	206
tcyJ	16
tcyK	30
tcyL	117
tcyM	1
tcyN	3
tcyP	162
tdh	453
tdk	25
tenA	5
tenI	15
tepA	33
tetB	64
tgl	351
tgt	274
thiC	62
thiD	52
thiE	85
thiF	46
thiG	18
thiI	148
thiL	40
thiM	78
thiN	310
thiO	16
thiQ	17
thiS	2
thiT	198
thiU	7
thiV	18
thiW	25
thiX	15
thrB	805
thrC	904
thrS	547
thrZ	120
thyA	74
thyB	131
tig	1060
tilS	849
tkt	1580
tlp	265
tlpA	56
tlpB	46
tlpC	462
tmk	128
tmrB	69
tnrA	56
topA	702
topB	488
tpiA	2235
tpx	549
treA	152
treP	140
treR	268
trmB	70
trmD	186
trmF	613
trmFO	220
trmK	23
trmL	184
trnE	277
trpA	106
trpB	118
trpC	22
trpD	41
trpE	50
trpF	21
trpP	722
trpS	214
truA	374
truB	85
trxA	2090
trxB	304
tsaB	22
tsaC	48
tsaD	39
tsaE	16
tsf	1294
tuaA	365
tuaB	884
tuaC	723
tuaD	1344
tuaE	1188
tuaF	504
tuaG	340
tuaH	692
tufA	20753
txpA	458
tyrA	85
tyrS	91
tyrZ	182
udk	274
ugtP	314
ung	131
upp	129
uppP	181
uppS	307
ureA	11
ureB	36
ureC	436
usd	54
uup	205
uvrA	1809
uvrB	523
uvrC	269
uvrX	3
uxaA	51
uxaB	27
uxaC	52
uxuA	390
uxuB	198
valS	386
veg	1695
vmlR	143
vpr	468
walH	136
walJ	56
walK	151
walR	163
wapA	1732
whiA	391
wprA	920
xepA	12
xhlA	20
xhlB	19
xkdA	13
xkdB	1
xkdC	3
xkdD	4
xkdE	55
xkdF	58
xkdG	57
xkdH	10
xkdI	14
xkdJ	10
xkdK	77
xkdM	43
xkdN	4
xkdO	108
xkdP	7
xkdQ	7
xkdR	4
xkdS	2
xkdT	7
xkdU	8
xkdV	35
xkdW	5
xkdX	1
xkzA	3
xkzB	0
xlyA	165
xlyB	67
xpaC	447
xpf	3
xpt	39
xre	25
xsa	104
xseA	174
xseB	19
xtmA	25
xtmB	34
xtrA	4
xylA	48
xylB	19
xylR	126
xynA	493
xynB	44
xynC	74
xynD	94
xynP	18
yaaA	31
yaaB	90
yaaC	35
yaaH	6648
yaaI	84
yaaK	97
yaaL	121
yaaN	646
yaaO	526
yaaQ	100
yaaR	110
yaaT	150
yabB	29
yabD	43
yabE	1259
yabG	752
yabJ	548
yabM	37
yabN	109
yabP	105
yabQ	230
yabR	460
yabS	308
yabT	213
yacD	37
yacL	568
yacP	36
yazA	13
yazB	29
ybaC	46
ybaJ	40
ybaK	19
ybaN	474
ybaR	52
ybaS	70
ybbA	56
ybbC	546
ybbF	334
ybbH	167
ybbJ	10
ybbK	14
ybbP	177
ybbR	360
ybcC	30
ybcF	1
ybcH	4
ybcI	6
ybcL	109
ybcM	2
ybdG	26
ybdJ	20
ybdK	32
ybdM	32
ybdN	106
ybdO	36
ybdZ	63
ybeC	177
ybeF	3
ybfA	9
ybfB	23
ybfE	1
ybfF	14
ybfG	327
ybfH	53
ybfI	26
ybfJ	704
ybfK	59
ybfM	120
ybfN	16
ybfO	2910
ybfP	208
ybfQ	719
ybgA	38
ybgB	8
ybgF	76
ybgG	25
ybxB	209
ybxG	57
ybxH	5
ybxI	37
ybyB	5889
ybzG	1226
ybzH	31
ybzI	57
ycbC	7
ycbD	18
ycbG	41
ycbJ	385
ycbK	30
ycbL	15
ycbM	4
ycbN	34
ycbO	33
ycbP	384
ycbR	29
ycbU	51
yccF	85
yccK	82
ycdA	439
ycdB	57
ycdC	68
ycdF	72
ycdG	366
yceB	40
yceC	490
yceD	1332
yceE	2686
yceF	2793
yceG	705
yceH	235
yceJ	20
yceK	61
ycgA	197
ycgB	6
ycgE	26
ycgF	101
ycgG	290
ycgH	43
ycgI	3
ycgJ	11
ycgK	11
ycgL	71
ycgQ	58
ycgR	56
ycgS	58
ycgT	34
yciB	8
yckA	60
yckB	52
yckC	185
yckD	111
yclD	8
yclE	63
yclG	423
yclH	8
yclI	8
yclJ	38
yclK	134
yclM	36
yclN	278
yclO	172
yclP	136
yclQ	369
ycnB	212
ycnC	100
ycnE	52
ycnI	1158
ycnJ	2104
ycnK	1004
ycnL	15
ycsA	244
ycsD	71
ycsE	86
ycsF	470
ycsG	752
ycsI	473
ycsN	909
ycxA	66
ycxB	17
ycxC	29
ycxD	26
yczC	34
yczE	26
yczF	1
yczG	281
yczH	86
yczI	137
yczJ	79
yczK	2
yczL	7
yczM	2068
yczN	4340
yczO	1520
ydaB	173
ydaC	65
ydaD	1056
ydaE	725
ydaG	3762
ydaH	88
ydaJ	58
ydaK	21
ydaL	18
ydaM	17
ydaN	31
ydaO	277
ydaP	2154
ydaS	1128
ydaT	130
ydbA	21
ydbB	66
ydbC	61
ydbD	3897
ydbI	1085
ydbJ	52
ydbK	77
ydbL	303
ydbM	182
ydbO	71
ydbP	61
ydbS	1112
ydbT	2466
ydcA	334
ydcC	3984
ydcF	2
ydcG	25
ydcH	24
ydcI	417
ydcK	33
ydcL	21
ydcO	11
ydcP	3
ydcQ	4
ydcR	2
ydcS	4
ydcT	0
yddA	1
yddB	1
yddC	0
yddD	1
yddE	10
yddF	0
yddG	2
yddH	0
yddI	3
yddJ	15
yddK	50
yddM	5
yddN	20
yddQ	8
yddR	6
yddS	26
yddT	80
ydeA	16
ydeB	1145
ydeC	16
ydeD	21
ydeE	51
ydeF	35
ydeG	9
ydeH	52
ydeI	28
ydeJ	77
ydeK	72
ydeL	35
ydeM	27
ydeN	93
ydeO	32
ydeP	11
ydeQ	17
ydeR	12
ydeS	25
ydfA	37
ydfB	14
ydfC	5
ydfD	8
ydfE	11
ydfF	54
ydfG	288
ydfH	20
ydfI	12
ydfJ	102
ydfK	43
ydfL	27
ydfM	38
ydfN	4
ydfO	14
ydfP	27
ydfQ	6
ydfR	100
ydfS	134
ydgA	99
ydgB	233
ydgC	452
ydgD	280
ydgE	156
ydgF	118
ydgG	83
ydgH	1219
ydgI	61
ydgJ	21
ydgK	21
ydhB	9
ydhC	27
ydhD	140
ydhE	218
ydhF	157
ydhH	54
ydhI	25
ydhJ	79
ydhK	165
ydhU	49
ydiF	259
ydiK	13
ydiL	54
ydiM	11
ydjB	9
ydjC	4
ydjE	484
ydjG	280
ydjH	128
ydjI	286
ydjJ	172
ydjM	2
ydjN	36
ydjO	2533
ydjP	1439
ydzA	250
ydzE	4
ydzF	32
ydzH	29
ydzJ	21
ydzK	165
ydzL	4
ydzM	32
ydzN	8
ydzO	7
ydzP	1
ydzQ	0
ydzR	127
ydzS	2
ydzT	29
ydzU	7
ydzV	8
ydzX	1
yeaA	2622
yeaB	65
yeaC	55
yeaD	47
yebA	132
yebC	775
yebD	104
yebE	110
yebG	39
yecA	2
yeeA	106
yeeB	129
yeeC	122
yeeD	10
yeeF	119
yeeG	9
yeeI	110
yeeK	0
yefB	16
yefC	14
yerA	995
yerB	1330
yerC	278
yerD	360
yerH	418
yerI	2634
yerO	40
yesE	72
yesF	60
yesJ	1125
yesK	6
yesL	48
yesM	62
yesN	74
yesO	27
yesS	151
yesU	58
yesV	75
yesY	70
yetA	224
yetF	161
yetH	25
yetJ	212
yetK	63
yetL	11
yetM	27
yetN	30
yezA	12
yezC	26
yezD	4
yezE	131
yezF	11
yezG	46
yfhA	30
yfhB	109
yfhC	409
yfhD	1282
yfhE	45
yfhF	181
yfhH	65
yfhI	55
yfhJ	171
yfhK	3092
yfhL	928
yfhM	3923
yfhO	252
yfhP	231
yfhS	41
yfiC	356
yfiF	6
yfiG	26
yfiH	14
yfiI	38
yfiJ	111
yfiK	73
yfiL	4
yfiM	4
yfiN	52
yfiQ	110
yfiR	83
yfiS	126
yfiU	99
yfiV	49
yfiY	152
yfiZ	46
yfjA	4
yfjB	49
yfjC	76
yfjD	26
yfjE	46
yfjF	48
yfjL	11
yfjM	24
yfjO	211
yfjP	77
yfjQ	105
yfjR	49
yfjT	13
yfkA	211
yfkC	218
yfkD	385
yfkE	135
yfkF	469
yfkI	681
yfkJ	775
yfkK	21
yfkL	21
yfkM	2970
yfkN	817
yfkQ	202
yfkR	345
yfkS	104
yfkT	1070
yflA	504
yflB	86
yflD	8
yflH	382
yflI	174
yflJ	729
yflK	57
yflL	16
yflN	103
yflP	91
yflS	163
yflT	4350
yfmB	120
yfmC	451
yfmD	121
yfmE	190
yfmF	228
yfmG	114
yfmI	23
yfmJ	183
yfmK	25
yfmL	35
yfmM	172
yfmN	0
yfmO	30
yfmP	13
yfmQ	1022
yfmS	277
yfmT	292
yfnA	90
yfnB	111
yfnC	197
yfnD	3280
yfnE	3010
yfnF	2059
yfnG	1734
yfnH	417
yfzA	14
ygaB	380
ygaC	230
ygaD	179
ygaE	504
ygaF	61
ygaJ	68
ygaK	158
ygaN	180
ygaO	112
ygxA	253
ygxB	766
ygzA	1
ygzB	170
ygzC	19
ygzD	24
yhaA	753
yhaH	161
yhaI	93
yhaJ	13
yhaL	84
yhaM	194
yhaO	45
yhaP	159
yhaQ	46
yhaR	1945
yhaU	539
yhaX	1844
yhaZ	53
yhbB	75
yhbD	3
yhbE	14
yhbF	53
yhbH	617
yhbI	40
yhbJ	126
yhcA	388
yhcB	191
yhcC	118
yhcD	0
yhcE	19
yhcF	5
yhcG	4
yhcH	11
yhcI	25
yhcJ	140
yhcK	175
yhcM	561
yhcN	727
yhcO	107
yhcQ	902
yhcR	483
yhcT	44
yhcU	9
yhcV	2690
yhcX	241
yhcY	64
yhcZ	66
yhdA	35
yhdB	221
yhdC	13
yhdF	431
yhdH	35
yhdI	27
yhdJ	30
yhdK	28
yhdL	289
yhdN	1333
yhdP	512
yhdR	50
yhdT	479
yhdV	24
yhdW	102
yhdX	355
yhdY	116
yheA	735
yheB	169
yheC	3044
yheD	3932
yheE	37
yheF	24
yheG	25
yheH	391
yheI	170
yheJ	114
yheN	314
yhfA	441
yhfC	400
yhfE	151
yhfF	41
yhfH	66
yhfI	40
yhfK	291
yhfM	416
yhfN	492
yhfO	5
yhfP	195
yhfQ	270
yhfS	33
yhfT	49
yhfW	83
yhgB	30
yhgD	906
yhgE	2573
yhjA	174
yhjB	146
yhjC	18
yhjD	57
yhjE	179
yhjG	20
yhjH	14
yhjM	121
yhjN	310
yhjO	14
yhjP	86
yhjQ	25
yhjR	77
yhxA	453
yhxC	850
yhxD	1683
yhzB	107
yhzC	584
yhzD	51
yhzF	171
yhzG	2
yisB	98
yisI	52
yisJ	53
yisK	100
yisL	65
yisN	16
yisP	419
yisQ	191
yisR	52
yisS	15
yisT	784
yisU	13
yisV	98
yisX	69
yisY	438
yisZ	943
yitA	1823
yitB	356
yitE	135
yitF	117
yitG	41
yitH	108
yitI	19
yitK	46
yitL	45
yitM	187
yitO	13
yitP	34
yitQ	129
yitR	57
yitS	624
yitT	3512
yitU	136
yitV	69
yitW	163
yitY	84
yitZ	16
yizA	29
yizB	19
yizC	190
yizD	211
yjaU	749
yjaV	92
yjaZ	45
yjbA	402
yjbB	66
yjbC	1367
yjbE	501
yjbH	221
yjbI	98
yjbJ	105
yjbK	36
yjbL	6
yjbO	105
yjbQ	42
yjcA	267
yjcD	131
yjcF	286
yjcG	783
yjcH	944
yjcK	32
yjcL	18
yjcM	42
yjcN	117
yjcO	2
yjcP	17
yjcQ	13
yjcR	8
yjcS	6
yjcZ	1251
yjdA	68
yjdB	4019
yjdF	140
yjdG	255
yjdH	825
yjdJ	57
yjfA	1438
yjfB	103
yjfC	47
yjgA	61
yjgB	98
yjgC	715
yjgD	318
yjhA	6
yjhB	89
yjiA	11
yjiB	204
yjiC	258
yjjA	72
yjkA	44
yjkB	52
yjlA	82
yjlB	270
yjlC	524
yjmC	176
yjmD	240
yjnA	414
yjoA	504
yjoB	1808
yjpA	5
yjqA	57
yjqB	17
yjqC	351
yjzB	595
yjzC	72
yjzD	84
yjzE	533
yjzF	1
yjzG	0
yjzH	419
yjzI	14
yjzJ	0
yjzK	297
ykaA	116
ykbA	163
ykcB	74
ykcC	142
ykfB	206
ykfC	210
ykfD	302
ykgA	225
ykhA	33
ykjA	34
ykkA	32
ykkB	12
ykkC	11
ykkD	2
yknT	1099
yknU	148
yknV	124
yknW	1414
yknX	498
yknY	265
yknZ	633
ykoA	21
ykoG	11
ykoH	32
ykoI	8
ykoJ	32847
ykoL	3
ykoM	888
ykoN	124
ykoP	50
ykoQ	35
ykoS	49
ykoT	72
ykoU	95
ykoV	38
ykoW	58
ykoX	57
ykoY	277
ykpA	810
ykpC	54
ykqA	62
ykrA	51
ykrP	148
yktA	9
yktB	68
yktD	122
ykuC	590
ykuD	117
ykuE	73
ykuG	835
ykuH	36
ykuI	158
ykuJ	60
ykuK	183
ykuL	51
ykuN	16
ykuO	56
ykuP	31
ykuS	689
ykuT	288
ykuU	325
ykuV	240
ykvA	86
ykvI	159
ykvN	10
ykvO	16
ykvP	513
ykvQ	74
ykvR	4
ykvS	30
ykvT	12
ykvU	144
ykvY	254
ykvZ	35
ykwB	55
ykwC	105
ykwD	35
ykyA	68
ykyB	142
ykzB	7
ykzC	23
ykzD	196
ykzE	120
ykzH	9
ykzI	568
ykzK	0
ykzL	14
ykzM	6
ykzN	121
ykzP	283
ykzQ	54
ykzR	13
ykzS	60
ykzT	19
ykzU	312
ykzV	4629
ylaA	8
ylaB	3
ylaC	19
ylaD	14
ylaE	23
ylaF	222
ylaH	321
ylaI	17
ylaJ	81
ylaK	602
ylaL	383
ylaN	208
ylbA	692
ylbB	61
ylbC	325
ylbD	207
ylbE	113
ylbF	341
ylbG	12
ylbJ	216
ylbK	27
ylbL	79
ylbM	60
ylbN	1231
ylbP	321
ylmA	37
ylmC	101
ylmD	468
ylmE	423
ylmG	514
ylmH	63
yloA	361
yloB	1446
yloC	326
yloU	99
yloV	747
ylqB	480
ylqC	1131
ylqD	19
ylqG	220
ylqH	11
ylxF	97
ylxH	107
ylxL	304
ylxM	1163
ylxP	1799
ylxR	161
ylxW	61
ylxX	163
ylxY	88
ylyA	18
ylzA	181
ylzH	39
ylzI	13
ylzJ	10
ymaB	58
ymaC	7
ymaD	14
ymaF	68
ymaG	949
ymcA	2692
ymcC	20
ymdB	224
ymfC	370
ymfD	168
ymfF	544
ymfH	1147
ymfI	21
ymfJ	1831
ymfM	174
ymxH	351
ymzA	31
ymzB	429
ymzC	10
ymzD	48
ymzE	17
ynaB	132
ynaC	117
ynaD	1
ynaE	15
ynaF	4
ynaG	3
ynaI	14
ynbB	63
yncB	5
yncC	107
yncE	5
yncF	37
yncM	1171
yndA	196
yndB	716
yndD	31
yndE	14
yndF	44
yndG	37
yndH	36
yndJ	146
yndK	45
yndL	1295
yndM	25
yneA	9
yneB	17
yneF	73
yneI	16
yneJ	90
yneK	230
yneN	283
yneP	8
yneQ	11
yneR	96
yneT	263
ynfC	818
ynfE	20
yngA	5
yngB	47
yngC	78
yngE	987
yngF	315
yngG	563
yngHA	936
yngHB	133
yngI	1617
yngJ	1033
yngK	221
yngL	21
ynxB	4
ynzB	166
ynzC	33
ynzD	49
ynzE	8
ynzF	13
ynzG	11
ynzI	4
ynzJ	2
ynzK	3
ynzL	21
yoaA	328
yoaB	196
yoaC	23
yoaD	7
yoaE	107
yoaF	786
yoaG	173
yoaH	136
yoaI	236
yoaK	39
yoaM	21
yoaN	171
yoaO	5
yoaP	6
yoaQ	18
yoaR	58
yoaS	25
yoaT	75
yoaU	33
yoaW	49
yoaZ	15
yobA	7
yobB	16
yobD	3
yobE	74
yobF	66
yobH	6
yobI	117
yobJ	969
yobM	47
yobN	91
yobO	1916
yobQ	11
yobR	64
yobS	62
yobT	147
yobU	12
yobV	16
yobW	276
yocA	2337
yocB	1172
yocC	13
yocD	189
yocH	1399
yocK	400
yocL	31
yocM	372
yocN	1001
yocR	197
yocS	85
yodA	73
yodC	203
yodD	56
yodE	20
yodF	150
yodH	550
yodI	150
yodJ	116
yodM	110
yodN	192
yodQ	318
yodR	132
yodS	192
yodT	343
yoeA	219
yoeC	29
yoeD	10
yogA	109
yojA	68
yojB	2047
yojE	62
yojF	35
yojJ	86
yojK	66
yojN	61
yojO	267
yojW	0
yokA	63
yokB	15
yokC	8
yokD	187
yokE	2
yokF	12
yokG	272
yokH	110
yokI	56
yokJ	9
yokK	19
yokL	25
yokU	248
yolA	179
yolB	85
yolC	65
yolD	1
yomD	1
yomE	11
yomF	8
yomG	20
yomH	1
yomJ	80
yomK	19
yomL	441
yomM	46
yomN	11
yomO	3
yomP	0
yomQ	2
yomR	21
yomS	10
yomT	1
yomU	3
yomV	6
yomW	6
yomX	5
yomY	5
yomZ	7
yonA	6
yonB	9
yonC	2
yonD	8
yonE	14
yonF	1
yonG	6
yonH	5
yonI	7
yonJ	17
yonK	4
yonN	4
yonO	12
yonP	0
yonR	10
yonS	49
yonT	15
yonU	157
yonV	22
yonX	1
yopA	108
yopB	0
yopC	102
yopD	72
yopE	6
yopF	0
yopG	0
yopH	9
yopI	20
yopJ	12
yopK	80
yopL	53
yopM	6
yopN	8
yopO	17
yopP	165
yopQ	225
yopR	135
yopS	182
yopT	15
yopU	7
yopV	2
yopW	2
yopX	0
yopY	0
yopZ	0
yoqA	0
yoqB	0
yoqC	1
yoqD	4
yoqE	0
yoqF	0
yoqG	0
yoqH	17
yoqI	3
yoqJ	59
yoqK	36
yoqL	154
yoqM	6150
yoqN	3
yoqO	8
yoqP	0
yoqR	1
yoqS	0
yoqT	0
yoqU	0
yoqW	76
yoqX	32
yoqY	125
yoqZ	59
yorA	20
yorB	103
yorC	3
yorD	305
yorE	1
yorF	1
yorG	6
yorH	2
yorI	1
yorJ	0
yorK	1
yorL	15
yorM	0
yorN	0
yorO	0
yorP	0
yorQ	0
yorR	0
yorS	0
yorT	0
yorV	0
yorW	1
yorX	0
yorY	0
yorZ	2
yosA	208
yosB	0
yosC	3
yosD	1
yosE	2
yosF	1
yosG	1
yosH	3
yosI	1
yosJ	0
yosK	3
yosL	0
yosP	2
yosQ	0
yosR	0
yosS	2
yosT	2
yosU	0
yosV	3
yosW	1
yosX	3
yotB	3
yotC	0
yotD	2
yotE	1
yotF	1
yotG	3
yotH	2
yotI	3
yotJ	5
yotK	10
yotL	22
yotM	0
yotN	33
youA	4
youB	135
yoxB	664
yoxC	347
yoxD	82
yoyA	7
yoyB	60
yoyC	22
yoyD	6
yoyE	14
yoyF	65
yoyG	883
yoyH	16
yoyI	26
yoyJ	60
yoyK	52
yozB	401
yozC	35
yozD	27
yozE	300
yozF	44
yozG	22
yozH	3
yozI	18
yozJ	0
yozK	0
yozL	1
yozM	108
yozN	999
yozO	513
yozP	15
yozQ	148
yozS	4
yozT	20
yozU	2
yozV	2
yozW	3
yozX	2
yozY	81
yozZ	1
ypbB	758
ypbD	105
ypbE	247
ypbF	55
ypbG	92
ypbS	21
ypcP	110
ypdA	206
ypdP	64
ypdQ	14
ypeB	188
ypeP	122
ypeQ	20
ypfA	30
ypfB	13
ypgQ	11
ypgR	204
yphA	35
yphB	37
yphE	11
yphF	87
ypiA	599
ypiB	1645
ypiF	20
ypiP	134
ypjA	33
ypjB	385
ypjC	273
ypjD	6
ypjP	565
ypjQ	297
ypkP	300
yplP	525
yplQ	398
ypmA	13
ypmB	102
ypmP	1753
ypmR	157
ypmS	116
ypmT	20
ypoC	109
ypoP	129
yppC	246
yppD	22
yppE	200
yppF	315
yppG	454
ypqA	154
ypqE	185
ypqP	975
yprA	65
yprB	470
ypsA	39
ypsC	324
yptA	63
ypuA	314
ypuB	30
ypuC	32
ypuD	42
ypuF	35
ypuI	406
ypvA	520
ypwA	307
ypzA	151
ypzC	7
ypzD	334
ypzF	847
ypzG	1523
ypzH	6
ypzI	56
ypzJ	4
ypzK	1207
yqaB	12
yqaC	16
yqaD	1
yqaE	28
yqaF	3
yqaG	0
yqaH	0
yqaI	0
yqaJ	10
yqaK	11
yqaL	11
yqaM	4
yqaN	8
yqaO	64
yqaP	304
yqaQ	0
yqaR	8
yqaS	10
yqaT	7
yqbA	15
yqbB	8
yqbC	5
yqbD	2
yqbE	15
yqbF	2
yqbG	6
yqbH	2
yqbI	5
yqbJ	7
yqbK	15
yqbM	16
yqbN	4
yqbO	43
yqbP	11
yqbQ	4
yqbR	2
yqbS	0
yqbT	9
yqcA	11
yqcB	3
yqcC	23
yqcD	2
yqcE	6
yqcI	60
yqcK	46
yqdA	0
yqeB	311
yqeC	31
yqeD	36
yqeF	213
yqeG	37
yqeH	116
yqeI	43
yqeK	122
yqeM	328
yqeW	116
yqeY	6452
yqeZ	11252
yqfA	4333
yqfB	6082
yqfC	42
yqfD	337
yqfF	759
yqfG	104
yqfL	119
yqfO	199
yqfQ	1601
yqfT	769
yqfU	146
yqfW	142
yqfX	816
yqfZ	21
yqgA	121
yqgB	57
yqgC	25
yqgE	60
yqgL	10
yqgM	28
yqgO	61
yqgQ	16
yqgT	84
yqgU	174
yqgV	91
yqgW	1054
yqgX	172
yqgY	350
yqhB	761
yqhG	66
yqhH	128
yqhL	87
yqhO	189
yqhP	633
yqhQ	1560
yqhR	42
yqhT	1071
yqhV	24
yqhY	3959
yqiG	785
yqiH	36
yqiI	43
yqiK	33
yqiW	132
yqjA	231
yqjB	80
yqjC	3
yqjD	637
yqjE	1167
yqjF	226
yqjL	312
yqjM	450
yqjN	122
yqjP	38
yqjQ	35
yqjT	69
yqjU	48
yqjV	254
yqjX	3
yqjY	19
yqjZ	7
yqkA	47
yqkB	58
yqkC	111
yqkD	77
yqkE	8
yqkF	159
yqkK	5
yqxA	90
yqxC	667
yqxD	915
yqxG	21
yqxH	28
yqxI	206
yqxJ	71
yqxK	269
yqxL	106
yqzC	232
yqzD	81
yqzE	19
yqzF	322
yqzG	159
yqzH	22
yqzI	7
yqzK	42
yqzL	141
yqzM	1742
yqzN	0
yqzO	0
yraA	480
yraB	18
yraD	47
yraE	14
yraF	28
yraG	17
yraH	26
yraI	48
yraJ	140
yraK	128
yraL	121
yraM	26
yraN	4
yraO	20
yrbC	47
yrbD	441
yrbE	533
yrbF	489
yrbG	87
yrdA	245
yrdB	5
yrdC	6
yrdF	1
yrdK	29
yrdN	15
yrdP	20
yrdQ	39
yrdR	3
yrhC	132
yrhD	99
yrhE	464
yrhF	47
yrhG	11
yrhH	32
yrhK	16
yrhO	38
yrhP	190
yrkA	1353
yrkB	2
yrkC	400
yrkD	29
yrkE	5
yrkF	10
yrkH	34
yrkI	6
yrkJ	30
yrkK	26
yrkL	35
yrkN	39
yrkO	66
yrkP	7
yrkQ	92
yrkS	22
yrpB	254
yrpC	45
yrpD	1830
yrpDX	350
yrpE	16
yrpG	22
yrrB	70
yrrD	1357
yrrI	40
yrrK	207
yrrL	181
yrrM	57
yrrN	111
yrrO	360
yrrS	710
yrrT	230
yrvC	19
yrvD	27
yrvJ	105
yrvM	149
yrzA	40
yrzB	437
yrzE	210
yrzF	485
yrzH	21
yrzI	370
yrzK	5
yrzL	72
yrzM	13
yrzN	18
yrzO	0
yrzP	6
yrzQ	278
yrzR	473
yrzS	8
yrzT	5
ysaA	238
yscB	93
ysdA	241
ysdB	964
ysdC	360
ysfB	246
ysfE	24
ysgA	130
yshA	43
yshB	46
yshE	56
yslB	93
ysmA	39
ysmB	262
ysnB	420
ysnD	342
ysnE	17
ysnF	4139
ysoA	134
ysxB	5737
ysxC	94
ysxD	44
ysxE	6259
yszB	143
ytaB	84
ytaF	339
ytaP	26
ytbD	34
ytbE	35
ytbQ	128
ytcA	1760
ytcB	857
ytcC	1825
ytcD	9
ytcI	211
ytcJ	495
ytcP	11
ytcQ	48
ytdA	282
ytdP	63
yteA	213
yteJ	592
yteP	4
yteR	13
yteS	8
yteT	30
yteU	23
yteV	7
ytfI	52
ytfJ	373
ytfP	208
ytgP	297
ythA	143
ythB	212
ythP	1868
ythQ	1559
ytiB	71
ytjA	35
ytjP	1000
ytkA	232
ytkC	75
ytkK	241
ytkL	790
ytkP	102
ytlA	183
ytlC	122
ytlD	431
ytlI	19
ytlP	75
ytlQ	99
ytlR	627
ytmA	30
ytmB	23
ytmI	4
ytmO	21
ytmP	335
ytnA	150
ytnI	3
ytnJ	15
ytnL	25
ytnM	46
ytnP	399
ytoA	187
ytoI	442
ytoP	63
ytoQ	40
ytpA	374
ytpB	563
ytpI	282
ytpP	167
ytpQ	847
ytpR	596
ytqA	142
ytqB	165
ytrA	8
ytrB	31
ytrC	58
ytrD	33
ytrE	22
ytrF	167
ytrH	66
ytrI	110
ytrP	382
ytsJ	1242
ytsP	110
yttA	14
yttB	64
ytvA	131
ytvB	431
ytvI	1093
ytwF	255
ytwI	520
ytxB	114
ytxC	349
ytxD	21
ytxE	9
ytxG	5281
ytxH	9301
ytxJ	7931
ytxK	214
ytxO	1427
ytzA	188
ytzB	466
ytzC	907
ytzD	102
ytzE	216
ytzG	50
ytzH	97
ytzI	109
ytzJ	1598
ytzL	675
yuaC	32
yuaD	174
yuaE	678
yuaF	4795
yuaG	9632
yuaI	2221
yubA	159
yubD	24
yubF	170
yueB	1207
yueC	153
yueD	404
yueE	322
yueF	270
yueG	88
yueH	35
yueI	59
yufK	45
yufL	141
yufM	72
yufS	12
yugE	72
yugF	65
yugG	60
yugH	411
yugI	621
yugJ	443
yugK	236
yugM	268
yugN	175
yugO	115
yugP	253
yugS	101
yugT	627
yugU	198
yuiA	72
yuiB	552
yuiC	662
yuiD	114
yuiF	129
yuiH	57
yukB	502
yukC	185
yukD	28
yukE	3912
yukJ	373
yulB	50
yulF	72
yumB	431
yumC	145
yunB	331
yunC	1462
yunD	159
yunE	50
yunF	82
yunG	26
yurJ	23
yurQ	41
yurR	81
yurS	1365
yurT	104
yurZ	66
yusD	113
yusE	47
yusF	87
yusG	369
yusI	20
yusN	214
yusO	461
yusP	2049
yusQ	5
yusR	14
yusS	8
yusT	68
yusU	41
yusV	428
yusW	4
yusY	152
yusZ	34
yutC	125
yutD	23
yutE	41
yutF	130
yutG	163
yutH	388
yutI	654
yutJ	182
yutK	256
yuxH	326
yuxJ	958
yuxK	253
yuxL	178
yuxN	221
yuxO	46
yuzA	778
yuzB	46
yuzC	283
yuzD	46
yuzE	61
yuzF	339
yuzG	8
yuzI	34
yuzJ	35
yuzK	121
yuzL	148
yuzM	171
yuzN	47
yuzO	129
yvaA	914
yvaB	272
yvaC	50
yvaD	5
yvaE	8
yvaF	10
yvaG	399
yvaK	486
yvaM	119
yvaP	23
yvaQ	190
yvaV	131
yvbF	29
yvbG	50
yvbH	72
yvbI	35
yvbJ	54
yvbK	23
yvbT	277
yvbU	19
yvbW	157
yvbX	60
yvcA	34
yvcB	184
yvcD	1797
yvcI	105
yvcJ	512
yvcN	189
yvcP	13
yvcQ	37
yvcR	27
yvcS	81
yvcT	259
yvdA	36
yvdB	142
yvdC	24
yvdD	15
yvdP	1970
yvdQ	567
yvdR	349
yvdS	409
yvdT	1535
yveA	268
yveF	11
yveG	20
yvfG	158
yvfH	761
yvfI	29
yvfR	35
yvfS	18
yvfT	89
yvfU	28
yvgK	412
yvgL	101
yvgM	174
yvgN	418
yvgO	3614
yvgT	15
yvhJ	347
yviA	37
yviE	31
yvjA	12
yvkA	64
yvkB	34
yvkC	94
yvkN	6
yvlA	474
yvlB	4321
yvlC	604
yvlD	1117
yvmA	923
yvmB	289
yvmC	1675
yvnA	63
yvnB	125
yvoD	95
yvoF	149
yvpB	21
yvqJ	88
yvrA	42
yvrB	82
yvrC	143
yvrD	87
yvrE	476
yvrG	55
yvrH	8
yvrJ	6
yvrL	8
yvrN	170
yvrO	27
yvrP	22
yvsG	45
yvyC	10
yvyE	279
yvyF	83
yvyG	149
yvyI	93
yvzA	61
yvzB	29
yvzC	2
yvzE	110
yvzF	8
yvzG	42
yvzH	3
yvzI	51
yvzJ	2
ywaD	101
ywaE	534
ywaF	6
ywbA	640
ywbB	44
ywbC	97
ywbD	138
ywbE	8
ywbF	68
ywbG	348
ywbI	95
ywbO	71
ywcA	1290
ywcB	273
ywcC	8
ywcD	4
ywcE	268
ywcH	44
ywcI	6960
ywcJ	171
ywdA	30
ywdD	12
ywdE	6
ywdF	22
ywdH	42
ywdI	37
ywdJ	159
ywdK	56
yweA	248
ywfA	267
ywfM	262
ywfO	139
ywgA	37
ywgB	2
ywhA	72
ywhB	43
ywhC	56
ywhD	93
ywhH	28
ywhK	254
ywhL	462
ywiB	25
ywiC	20
ywiE	415
ywjA	536
ywjB	345
ywjC	180
ywjD	32
ywjG	58
ywjH	1258
ywjI	509
ywkB	29
ywkD	13
ywkF	143
ywlA	23
ywlB	177
ywlD	102
ywlE	34
ywlF	62
ywlG	146
ywmA	37
ywmB	275
ywmC	5
ywmD	57
ywmE	531
ywmF	8
ywnA	53
ywnB	35
ywnC	9
ywnF	288
ywnG	517
ywnH	213
ywnJ	210
ywoB	2
ywoC	26
ywoD	53
ywoF	143
ywoG	91
ywoH	30
ywpD	8
ywpE	8
ywpF	282
ywpG	5
ywpJ	71
ywqB	188
ywqC	42
ywqE	42
ywqF	216
ywqG	43
ywqH	78
ywqI	80
ywqL	257
ywqM	11
ywqN	15
ywqO	6
ywrA	123
ywrB	164
ywrC	117
ywrD	656
ywrE	261
ywrF	79
ywrJ	276
ywrK	2766
ywrO	166
ywsA	75
ywsB	2424
ywtE	26
ywtF	379
ywtG	204
ywzA	1356
ywzB	70
ywzC	13
ywzD	141
ywzE	4
ywzF	1
ywzG	3
ywzH	134
yxaB	102
yxaC	28
yxaD	37
yxaH	82
yxaI	23
yxaJ	5
yxaL	441
yxaM	81
yxbA	70
yxbB	303
yxbC	2409
yxbD	2
yxbF	26
yxbG	271
yxcA	32
yxcD	31
yxcE	71
yxdJ	28
yxdK	64
yxdL	10
yxdM	21
yxeA	8
yxeB	96
yxeC	9
yxeD	255
yxeE	8974
yxeF	34
yxeG	35
yxeH	118
yxeI	176
yxeJ	1
yxeK	29
yxeL	21
yxeM	37
yxeN	21
yxeO	21
yxeP	24
yxeQ	61
yxeR	64
yxiB	21
yxiC	17
yxiE	2105
yxiF	10
yxiG	16
yxiH	12
yxiI	17
yxiJ	12
yxiK	26
yxiM	79
yxiO	383
yxiP	17
yxiS	582
yxiT	156
yxjB	54
yxjC	428
yxjF	696
yxjG	201
yxjH	153
yxjI	219
yxjJ	427
yxjL	7
yxjM	55
yxjN	44
yxjO	37
yxkA	22
yxkC	58
yxkD	10
yxkF	10
yxkH	578
yxkI	122
yxlA	173
yxlC	18
yxlD	7
yxlE	4
yxlF	58
yxlG	134
yxlH	233
yxnA	734
yxnB	82
yxxB	22
yxxE	51
yxxF	69
yxxG	55
yxzC	10
yxzE	751
yxzF	305
yxzG	10
yxzI	8
yxzJ	6
yxzK	8
yxzL	1
yyaB	32
yyaC	214
yyaD	20
yyaE	38
yyaH	18
yyaJ	192
yyaK	158
yyaL	513
yyaM	31
yyaN	4
yyaO	57
yyaP	50
yyaQ	182
yyaR	21
yyaS	12
yyaT	15
yybA	9
yybB	46
yybC	13
yybD	6
yybE	9
yybF	691
yybG	36
yybH	10
yybI	62
yybJ	26
yybK	9
yybL	5
yybM	18
yybN	159
yybO	23
yybP	107
yybR	159
yybS	190
yycA	134
yycB	924
yycC	131
yycD	83
yycE	13
yycI	70
yycN	291
yycO	1019
yycP	1901
yycQ	95
yycR	648
yycS	15
yydA	40
yydB	109
yydC	6
yydD	41
yydF	628
yydG	6
yydH	46
yydI	138
yydJ	55
yydK	15
yyzB	9
yyzE	6
yyzF	14
yyzG	12
yyzH	105
yyzI	4
yyzJ	5
yyzM	52
yyzN	2
yyzO	8
zinT	47
znuA	245
znuB	33
znuC	30
zosA	1002
zur	141
zwf	669
__no_feature	936207
__ambiguous	52686
__too_low_aQual	2094737
__not_aligned	37448
__alignment_not_unique	0
